@startuml

class IndexController{
      + indexAction()
}

class Dispatcher{
      + dispatch()
}

class Bbs {
}


class BbsController {
      + readAction()
      + createAction()
      + replyAction()
      + editAction()
      + create_confAction()
      + post_confAction()
      + delete_confAction()
      + destoroy_confAction()
      + create_doneAction()
      + post_doneAction()
      + edit_doneAction()
      + delete_doneAction()
      + destoroy_doneAction()

}

class Sign {
      }

class SignController {
      + inAction()
      + upAction()
      + up_confAction()
      + up_sentAction()
}

class TemplateEngine{
      + show()
}

IndexController -[hidden]d- BbsController
Dispatcher -[hidden]- Sign
IndexController <-l- Dispatcher
IndexController o-> BbsController
Dispatcher --> BbsController
Dispatcher --> SignController
Bbs <-l-o BbsController
BbsController -[hidden]r- Sign
BbsController o--> TemplateEngine
Sign <-l-o SignController
SignController o--> TemplateEngine
Sign -[hidden]d- TemplateEngine

@enduml