%!PS-Adobe-3.0 EPSF-3.0
%%Creator: PlantUML v1.2017.15      
%%Title: noTitle
%%BoundingBox: 0 0 542 493
%%ColorUsage: Color
%%Origin: 0 0
%%EndComments

gsave
0 493 translate
1 -1 scale
/simplerect {
newpath moveto 1 index 0 rlineto
0 exch rlineto
neg 0 rlineto
} def
/rquadto {
3 index 3 index 4 2 roll rcurveto
} def
/P$t {
0.5781 0.6875 rlineto
-0.9531 1.0156 -2.3125 1.0156 rquadto
-0.9219 0 -1.6406 -0.4375 rquadto
-0.7031 -0.4219 -1.1406 -1.2031 rquadto
-0.4219 -0.75 -0.4219 -1.7031 rquadto
0 -0.9531 0.4219 -1.7188 rquadto
0.4219 -0.7656 1.1406 -1.1875 rquadto
0.7188 -0.4375 1.625 -0.4375 rquadto
0.7969 0 1.4063 0.3125 rquadto
0.6094 0.3125 1.0156 0.8906 rquadto
-0.625 0.6094 rlineto
-0.0156 0.0156 rlineto
-0.4219 -0.5625 -0.8281 -0.75 rquadto
-0.4063 -0.2188 -1.0625 -0.2188 rquadto
-0.5469 0 -1 0.2969 rquadto
-0.4844 0.3125 -0.7656 0.8594 rquadto
-0.2813 0.5469 -0.2813 1.25 rquadto
0 0.75 0.2813 1.2969 rquadto
0.2969 0.5625 0.8203 0.8906 rquadto
0.5234 0.3281 1.1328 0.3281 rquadto
0.9688 0 1.6719 -0.7969 rquadto
closepath
} def
/P$1t {
-0.5703 -0.3047 -0.9453 -0.8203 rquadto
-0.3906 0.9531 rlineto
-0.75 0 rlineto
0 -10.6406 rlineto
1.3125 0 rlineto
0 0.1094 rlineto
-0.1094 0.1094 -0.125 0.2188 rquadto
-0.0156 0.0781 -0.0156 0.375 rquadto
0 3.75 rlineto
0.3594 -0.5938 0.9453 -0.9453 rquadto
0.5859 -0.3516 1.2266 -0.3516 rquadto
1.3906 0 2.2031 0.9609 rquadto
0.8125 0.9609 0.8125 2.7891 rquadto
0 1.2344 -0.4375 2.1406 rquadto
-0.4375 0.9063 -1.125 1.3438 rquadto
-0.6875 0.4219 -1.5 0.4219 rquadto
-0.6406 0 -1.2109 -0.3047 rquadto
} def
/P$1 {
0 -0.9375 rlineto
1.9688 0 rlineto
0 -8.0938 rlineto
-1.8594 0 rlineto
0 -0.9375 rlineto
4.9531 0 rlineto
0 0.9375 rlineto
-1.9688 0 rlineto
0 8.1094 rlineto
2.0625 0 rlineto
0 0.9219 rlineto
-5.1563 0 rlineto
} def
/P$z {
-0.8672 -0.9375 -1.3203 -2.0938 rquadto
-0.4844 -1.1875 -0.4844 -2.3906 rquadto
0 -1.2344 0.4688 -2.3594 rquadto
0.4688 -1.1719 1.2969 -2.0313 rquadto
0.8438 -0.8906 1.9844 -1.4219 rquadto
0.2656 0.875 rlineto
-1.3594 0.7188 -2.1875 2.0781 rquadto
-0.8281 1.3594 -0.8281 2.9063 rquadto
0 1.5781 0.8438 2.9375 rquadto
0.8438 1.3906 2.25 2.1094 rquadto
-0.2656 0.8438 rlineto
-1.1563 -0.5156 -2.0234 -1.4531 rquadto
} def
/P$1l {
1.0156 0 rlineto
0 1.25 rlineto
0.2188 -0.7031 0.7344 -1.0469 rquadto
0.5156 -0.3438 1.2188 -0.3438 rquadto
0.7188 0 1.3438 0.375 rquadto
0.6094 0.375 0.9688 1.1094 rquadto
0.3594 0.75 0.3594 1.7969 rquadto
0 1.0625 -0.3828 1.8516 rquadto
-0.3828 0.7891 -1.0078 1.1797 rquadto
-0.6094 0.3906 -1.3125 0.3906 rquadto
-0.5938 0 -1.0781 -0.2656 rquadto
-0.5313 -0.2813 -0.8281 -0.75 rquadto
0 3.1875 rlineto
-1.0313 0 rlineto
0 -8.7344 rlineto
} def
/P$1r {
2.8281 0 rlineto
1.6563 0 2.4844 0.6563 rquadto
0.8281 0.6563 0.8281 1.7656 rquadto
0 0.7188 -0.3828 1.3438 rquadto
-0.3828 0.625 -1.0859 0.8594 rquadto
0.8125 0.2813 1.3438 0.9844 rquadto
0.5313 0.7344 0.5313 1.5625 rquadto
0 1.3281 -0.9297 2.0625 rquadto
-0.9297 0.7344 -2.8047 0.7344 rquadto
-2.8125 0 rlineto
0 -9.9688 rlineto
} def
/P$17 {
0.5781 0.4844 0.5781 1.2656 rquadto
0 1 -0.7813 1.6406 rquadto
-0.75 0.6406 -2.25 0.6406 rquadto
-1.8594 0 -3.1094 -1.1406 rquadto
0.6406 -1.0938 rlineto
0.0156 -0.0156 rlineto
0.0156 0.0156 rlineto
0.5156 0.6563 1.0313 0.9531 rquadto
0.5469 0.3281 1.4375 0.3281 rquadto
0.8438 0 1.3594 -0.3281 rquadto
0.5 -0.2969 0.5 -0.8438 rquadto
0 -0.4688 -0.4063 -0.7656 rquadto
-0.375 -0.3125 -1.4375 -0.6406 rquadto
-2.75 -0.7813 -2.75 -2.2656 rquadto
0 -0.8438 0.7031 -1.3438 rquadto
0.6875 -0.5 1.9844 -0.5 rquadto
0.9844 0 1.6563 0.2813 rquadto
0.7656 0.3281 1.25 0.8594 rquadto
-0.6563 0.8125 rlineto
-0.0156 0.0156 rlineto
-0.3438 -0.5469 -0.9531 -0.8281 rquadto
-0.625 -0.2813 -1.25 -0.2813 rquadto
-0.6875 0 -1.125 0.2344 rquadto
-0.4375 0.2656 -0.4375 0.6719 rquadto
0 0.4063 0.4375 0.75 rquadto
0.4688 0.3281 1.625 0.6719 rquadto
1.3125 0.375 1.9375 0.9063 rquadto
closepath
} def
/P$s {
-0.875 -2.5469 rlineto
-2.8125 0 rlineto
-0.8906 2.5469 rlineto
-0.9688 0 rlineto
3.2188 -8.875 rlineto
0.125 0 rlineto
3.2188 8.875 rlineto
-1.0156 0 rlineto
} def
/P$16 {
0 0.0313 -0.0313 0 rquadto
-0.0156 -0.0156 rlineto
-0.0156 -0.0156 -0.0313 -0.0156 rquadto
-0.0469 0.0625 rlineto
-0.0781 -0.0781 rlineto
0 -0.0781 0.125 0.0156 rquadto
0.0469 -0.0469 rlineto
0.0313 0.0469 0.0313 0.0781 rquadto
closepath
} def
/P$20 {
-0.0781 0.4688 -0.2656 1.125 rquadto
-0.1094 0.3594 -0.4844 1.4844 rquadto
-1.6094 4.5156 rlineto
-0.3125 0.8906 -0.8281 1.2969 rquadto
-0.5313 0.4063 -1.2344 0.4063 rquadto
-0.9063 0 -1.4688 -0.5469 rquadto
0.4219 -0.6875 rlineto
0.0156 -0.0156 rlineto
0.0156 0.0156 rlineto
0.2344 0.2031 0.4844 0.3125 rquadto
0.2344 0.0938 0.5781 0.0938 rquadto
0.5156 0 0.8281 -0.3594 rquadto
0.2969 -0.3438 0.6094 -1.2031 rquadto
-2.625 -6.4375 rlineto
1.0469 0 rlineto
2 5.1094 rlineto
0.8281 -2.5625 rlineto
0.3281 -0.9688 0.4688 -1.4688 rquadto
0.1406 -0.5156 0.2031 -1.0781 rquadto
1.0156 0 rlineto
closepath
} def
/P$1v {
0 -0.0313 0.0469 -0.0313 rquadto
0.0156 0 0.0781 0.0313 rquadto
-0.0313 0.0781 rlineto
-0.0938 -0.0625 rlineto
0 -0.0156 rlineto
closepath
} def
/P$1x {
-0.3906 -0.3906 -0.6719 -0.5156 rquadto
-0.2656 -0.125 -0.6563 -0.125 rquadto
-0.5 0 -0.9375 0.25 rquadto
-0.4688 0.2656 -0.7344 0.7656 rquadto
-0.2813 0.5156 -0.2813 1.2813 rquadto
0 3.4063 rlineto
-1.0156 0 rlineto
0 -6.4063 rlineto
1.0469 0 rlineto
-0.0313 1.1719 rlineto
0.2656 -0.6406 0.8125 -0.9844 rquadto
0.5313 -0.3438 1.2188 -0.3438 rquadto
1.0156 0 1.6875 0.6875 rquadto
-0.4375 0.7969 rlineto
0 0.0156 rlineto
} def
/P$p {
-0.8594 -0.875 -0.8594 -2.4375 rquadto
0 -1.0625 0.3906 -1.8125 rquadto
0.4219 -0.7969 1.0469 -1.1719 rquadto
0.6563 -0.3906 1.5 -0.3906 rquadto
1.1719 0 1.8906 0.7656 rquadto
0.7188 0.7656 0.7188 2.2656 rquadto
0 0.0469 -0.0313 0.4688 rquadto
-4.5469 0 rlineto
0.0625 1.1875 0.6563 1.7656 rquadto
0.5938 0.6094 1.5313 0.6094 rquadto
1 0 1.6406 -0.7188 rquadto
0.5625 0.5469 rlineto
-0.8125 0.9844 -2.2422 0.9844 rquadto
-1.4297 0 -2.2578 -0.875 rquadto
} def
/P$x {
0.4219 -0.3281 0.6719 -0.8906 rquadto
0.2344 -0.5313 0.2344 -1.2813 rquadto
0 -1.0938 -0.5313 -1.7969 rquadto
-0.5156 -0.6875 -1.3594 -0.6875 rquadto
-0.8438 0 -1.3594 0.6875 rquadto
-0.5313 0.7031 -0.5313 1.7969 rquadto
0 0.75 0.2344 1.2813 rquadto
0.25 0.5625 0.6719 0.8906 rquadto
0.4375 0.3125 0.9844 0.3125 rquadto
0.5469 0 0.9844 -0.3125 rquadto
closepath
} def
/P$25 {
-0.4063 -0.5156 -0.6719 -0.6563 rquadto
-0.2813 -0.1719 -0.7656 -0.1719 rquadto
-0.6563 0 -1.0313 0.3906 rquadto
-0.375 0.4063 -0.375 1.25 rquadto
0 0.5469 rlineto
2.0938 0 rlineto
0 0.7969 rlineto
-2.0938 0 rlineto
0 5.5938 rlineto
-0.9688 0 rlineto
0 -5.5938 rlineto
-1.3906 0 rlineto
0 -0.7969 rlineto
1.3906 0 rlineto
0 -0.5469 rlineto
0 -1.2188 0.6484 -1.8359 rquadto
0.6484 -0.6172 1.7109 -0.6172 rquadto
0.6406 0 1.1406 0.2188 rquadto
0.5313 0.2344 0.8594 0.6563 rquadto
-0.5313 0.75 rlineto
-0.0156 0.0156 rlineto
} def
/P$2c {
0.4531 -0.4531 0.4531 -1.1406 rquadto
0 -0.6875 -0.4531 -1.125 rquadto
-0.4688 -0.4688 -1.1563 -0.4688 rquadto
-0.6875 0 -1.1406 0.4688 rquadto
-0.4531 0.4375 -0.4531 1.125 rquadto
0 0.6875 0.4531 1.1406 rquadto
0.4531 0.4688 1.1406 0.4688 rquadto
0.6875 0 1.1563 -0.4688 rquadto
closepath
} def
/P$1j {
0.5 0.4219 0.5 1.1094 rquadto
0 0.875 -0.6719 1.4375 rquadto
-0.6563 0.5625 -1.9688 0.5625 rquadto
-1.625 0 -2.7188 -1.0156 rquadto
0.5625 -0.9375 rlineto
0.0156 -0.0156 rlineto
0.0156 0.0156 rlineto
0.4375 0.5625 0.8906 0.8281 rquadto
0.4844 0.2813 1.2656 0.2813 rquadto
0.7344 0 1.1875 -0.2813 rquadto
0.4375 -0.2656 0.4375 -0.7344 rquadto
0 -0.4063 -0.3594 -0.6719 rquadto
-0.3281 -0.2656 -1.25 -0.5625 rquadto
-2.4219 -0.6875 -2.4219 -1.9844 rquadto
0 -0.7344 0.625 -1.1875 rquadto
0.5938 -0.4219 1.7344 -0.4219 rquadto
0.875 0 1.4531 0.25 rquadto
0.6563 0.2813 1.0938 0.75 rquadto
-0.5781 0.7031 rlineto
-0.0156 0.0156 rlineto
-0.2969 -0.4844 -0.8281 -0.7188 rquadto
-0.5469 -0.25 -1.0938 -0.25 rquadto
-0.6094 0 -0.9844 0.2031 rquadto
-0.3906 0.2344 -0.3906 0.5938 rquadto
0 0.3594 0.3906 0.6406 rquadto
0.4063 0.2969 1.4219 0.5938 rquadto
1.1406 0.3281 1.6875 0.7969 rquadto
closepath
} def
/P$1k {
0.5313 -0.6094 0.5313 -1.8906 rquadto
0 -1.2031 -0.4609 -1.8359 rquadto
-0.4609 -0.6328 -1.3203 -0.6328 rquadto
-0.8125 0 -1.3047 0.6563 rquadto
-0.4922 0.6563 -0.4922 2.0313 rquadto
0.0156 1.1094 0.5 1.6875 rquadto
0.4531 0.5625 1.25 0.5625 rquadto
0.7656 0 1.2969 -0.5781 rquadto
closepath
} def
/P$l {
0.9688 0 rlineto
0 1.125 rlineto
0.375 -0.5781 0.9531 -0.9375 rquadto
0.5625 -0.3438 1.2188 -0.3438 rquadto
0.8594 0 1.3594 0.6406 rquadto
0.5156 0.6719 0.5156 2.0313 rquadto
0 3.875 rlineto
-0.9844 0 rlineto
0 -3.8438 rlineto
0 -0.9375 -0.3125 -1.3906 rquadto
-0.3125 -0.4375 -0.8594 -0.4375 rquadto
-0.4375 0 -0.875 0.25 rquadto
-0.4375 0.25 -0.7344 0.7188 rquadto
-0.2813 0.4375 -0.2813 1.0156 rquadto
0 3.6875 rlineto
-0.9688 0 rlineto
0 -6.3906 rlineto
} def
/P$1g {
1.2656 0 rlineto
0 0.1094 rlineto
-0.125 0.1094 -0.1406 0.2188 rquadto
-0.0156 0.0781 -0.0156 0.375 rquadto
0 3.9219 rlineto
0.4375 -0.6719 1.0781 -1.0703 rquadto
0.6406 -0.3984 1.3281 -0.3984 rquadto
1.0469 0 1.6328 0.7344 rquadto
0.5859 0.7344 0.5859 2.3125 rquadto
0 4.4375 rlineto
-1.1094 0 rlineto
0 -4.4063 rlineto
0 -1.0625 -0.375 -1.5781 rquadto
-0.3438 -0.5 -0.9688 -0.5 rquadto
-0.5313 0 -1.0156 0.2734 rquadto
-0.4844 0.2734 -0.8203 0.8047 rquadto
-0.3359 0.5313 -0.3359 1.2031 rquadto
0 4.2031 rlineto
-1.1094 0 rlineto
0 -10.6406 rlineto
} def
/P$v {
-0.0469 0.0469 rlineto
-0.0781 -0.0625 rlineto
0 -0.0938 0.125 0.0156 rquadto
} def
/P$1m {
0.6094 -0.5781 0.6563 -1.75 rquadto
-0.5781 -0.0938 -1.3594 -0.0938 rquadto
-1.0781 0 -1.6719 0.3438 rquadto
-0.625 0.375 -0.625 1.0625 rquadto
0 1.0625 1.3594 1.0625 rquadto
1.0313 0 1.6406 -0.625 rquadto
closepath
} def
/P$21 {
-0.0156 0.0469 rlineto
-0.0313 -0.0469 -0.0156 -0.0469 rquadto
0.0156 0 0.0313 0 rquadto
} def
/P$1c {
0.8203 0.8125 0.8203 2.7656 rquadto
0 3.8906 rlineto
-1.25 0 rlineto
0 -1.125 rlineto
-0.6719 1.2969 -2.5 1.2969 rquadto
-1.2031 0 -1.9063 -0.5625 rquadto
-0.6875 -0.5313 -0.6875 -1.4531 rquadto
0 -0.7813 0.5 -1.3438 rquadto
0.5 -0.5625 1.3438 -0.875 rquadto
0.8594 -0.3281 1.8438 -0.3281 rquadto
0.9063 0 1.6406 0.1094 rquadto
-0.0938 -1.2344 -0.6406 -1.7344 rquadto
-0.5625 -0.5156 -1.6406 -0.5156 rquadto
-0.5625 0 -1.0469 0.2188 rquadto
-0.5625 0.2344 -0.9219 0.5938 rquadto
-0.5625 -0.7344 rlineto
1.0156 -1.0156 2.6016 -1.0156 rquadto
1.5859 0 2.4063 0.8125 rquadto
} def
/P$h {
-0.4375 -0.4219 -0.7656 -0.5781 rquadto
-0.2969 -0.1406 -0.7344 -0.1406 rquadto
-0.5781 0 -1.0938 0.2969 rquadto
-0.5156 0.2969 -0.8281 0.8594 rquadto
-0.3125 0.5938 -0.3125 1.4688 rquadto
0 3.8906 rlineto
-1.1719 0 rlineto
0 -7.3281 rlineto
1.2031 0 rlineto
-0.0313 1.3438 rlineto
0.2969 -0.7188 0.9219 -1.125 rquadto
0.6094 -0.3906 1.3906 -0.3906 rquadto
1.1719 0 1.9375 0.7969 rquadto
-0.5156 0.8906 rlineto
0 0.0156 rlineto
closepath
} def
/P$e {
0.0313 -0.0469 rlineto
0.0625 0.0781 rlineto
-0.0156 0 -0.0469 -0.0078 rquadto
-0.0313 -0.0078 -0.0469 -0.0234 rquadto
closepath
} def
/P$u {
0.0313 -0.0313 rlineto
0.0156 0.0313 0.0469 0.0625 rquadto
0 0 rlineto
-0.0625 -0.0156 -0.0781 -0.0313 rquadto
closepath
} def
/P$12 {
2.3281 0 rlineto
1.2344 0 1.9531 0.3438 rquadto
0.7344 0.3281 1.25 1.0156 rquadto
0.9688 1.3125 0.9688 3.6875 rquadto
-0.0938 2.4063 -1.125 3.6719 rquadto
-1.0313 1.2813 -3.25 1.2656 rquadto
-2.125 0 rlineto
0 -9.9844 rlineto
} def
/P$1i {
0 0.0234 -0.0313 -0.0078 rquadto
0 -0.0156 rlineto
-0.0156 0 -0.0313 0 rquadto
-0.0469 0.0469 rlineto
-0.0625 -0.0625 rlineto
0 -0.0781 0.1094 0.0156 rquadto
0.0313 -0.0469 rlineto
0.0313 0.0469 0.0313 0.0703 rquadto
closepath
} def
/P$j {
0 -0.8125 rlineto
1.625 0 rlineto
0 -4.7813 rlineto
-1.5469 0 rlineto
0 -0.7969 rlineto
2.5625 0 rlineto
0 5.5781 rlineto
1.5 0 rlineto
0 0.8125 rlineto
-4.1406 0 rlineto
closepath
} def
/P$1b {
0.6875 -0.6719 0.75 -2 rquadto
-0.6719 -0.1094 -1.5469 -0.1094 rquadto
-1.2344 0 -1.9219 0.3906 rquadto
-0.7031 0.4219 -0.7031 1.2188 rquadto
0 1.2031 1.5469 1.2031 rquadto
1.1719 0 1.875 -0.7031 rquadto
closepath
} def
/P$23 {
0 -0.0156 0.0625 0 rquadto
0 0 0.0313 0 rquadto
0.0313 0.0156 rlineto
-0.0469 0.0625 rlineto
-0.0781 -0.0625 rlineto
0 -0.0156 rlineto
closepath
} def
/P$1n {
0.7188 0.7109 0.7188 2.4141 rquadto
0 3.4063 rlineto
-1.0938 0 rlineto
0 -0.9844 rlineto
-0.5938 1.1406 -2.1875 1.1406 rquadto
-1.0469 0 -1.6719 -0.5 rquadto
-0.5938 -0.4688 -0.5938 -1.2656 rquadto
0 -0.6875 0.4297 -1.1797 rquadto
0.4297 -0.4922 1.1797 -0.7734 rquadto
0.75 -0.2813 1.6094 -0.2813 rquadto
0.7969 0 1.4375 0.0938 rquadto
-0.0781 -1.0781 -0.5625 -1.5156 rquadto
-0.4844 -0.4531 -1.4375 -0.4531 rquadto
-0.4844 0 -0.9063 0.1875 rquadto
-0.4844 0.2188 -0.8125 0.5313 rquadto
-0.4844 -0.6406 rlineto
0.8906 -0.8906 2.2734 -0.8906 rquadto
1.3828 0 2.1016 0.7109 rquadto
} def
/P$11 {
3.2969 0 3.2969 -4 rquadto
-0.0313 -2.0625 -0.75 -3.1094 rquadto
-0.75 -1.0625 -2.3594 -1.0625 rquadto
-1.2031 0 rlineto
0 8.1719 rlineto
1.0156 0 rlineto
closepath
} def
/P$1y {
0 -0.8125 rlineto
1.8906 0 rlineto
0 -7.6875 rlineto
-1.8125 0 rlineto
0 -0.8125 rlineto
2.8281 0 rlineto
0 8.5 rlineto
1.875 0 rlineto
0 0.8125 rlineto
-4.7813 0 rlineto
} def
/P$0 {
-0.9219 0.9219 -3.1875 0.9219 rquadto
-1.2656 0 -2.1875 -0.9219 rquadto
-1.6563 -1.6563 -1.6563 -5.1875 rquadto
0 -4.1094 1.7813 -5.9063 rquadto
0.9375 -0.9219 2.125 -0.9219 rquadto
2.2656 0 3 0.7188 rquadto
1.3906 1.4063 1.3281 3.7969 rquadto
-2.4688 0 rlineto
-0.0625 -2.125 -0.7969 -2.8594 rquadto
-0.3906 -0.4063 -1.0625 -0.4063 rquadto
0 0 -0.0625 0.4688 rquadto
-1.3281 1.3281 -1.3281 4.9844 rquadto
0 3.1875 1.1406 4.3125 rquadto
0.5313 0.5313 0.5313 0.5313 rquadto
0.25 0 0.7813 -0.5313 rquadto
0.6719 -0.6563 0.7344 -3.0469 rquadto
2.5938 0 rlineto
-0.2031 2.9844 -1.2656 4.0469 rquadto
closepath
} def
/P$c {
-1.0469 0.7813 -2.3281 0.7813 rquadto
-1.2188 0 -1.7031 -0.7344 rquadto
-0.5156 -0.75 -0.5156 -2.4063 rquadto
0 -0.0469 0.0313 -0.9375 rquadto
0.1406 -2.4063 rlineto
-1.6094 0 rlineto
0 -0.9375 rlineto
1.6719 0 rlineto
0.1094 -1.9531 rlineto
1.2813 -0.2031 rlineto
0.1719 -0.0156 rlineto
0.0156 0.0938 rlineto
-0.1719 0.2031 -0.1875 0.2656 rquadto
-0.0313 0.0938 -0.0625 0.3594 rquadto
-0.1719 1.4531 rlineto
2.4375 0 rlineto
0 0.9375 rlineto
-2.5 0 rlineto
-0.1406 2.4844 rlineto
0 0.1563 -0.0078 0.3594 rquadto
-0.0078 0.2031 -0.0156 0.3125 rquadto
-0.0078 0.1094 -0.0078 0.1719 rquadto
0 1.2813 0.2813 1.7344 rquadto
0.2813 0.4688 0.9531 0.4688 rquadto
0.4531 0 0.8906 -0.1875 rquadto
0.375 -0.1563 0.9063 -0.5469 rquadto
0.3594 0.9063 rlineto
} def
/P$22 {
0 -0.8594 rlineto
6.0469 0 rlineto
0 0.8594 rlineto
-6.0469 0 rlineto
} def
/P$2e {
1.1094 0 rlineto
0 1.2969 rlineto
0.4219 -0.6563 1.0938 -1.0781 rquadto
0.6406 -0.3906 1.3906 -0.3906 rquadto
0.9844 0 1.5469 0.7344 rquadto
0.5938 0.7656 0.5938 2.3125 rquadto
0 4.4375 rlineto
-1.1094 0 rlineto
0 -4.4063 rlineto
0 -1.0625 -0.375 -1.5781 rquadto
-0.3438 -0.5 -0.9688 -0.5 rquadto
-0.5 0 -1.0156 0.2969 rquadto
-0.5 0.2813 -0.8281 0.8125 rquadto
-0.3281 0.5 -0.3281 1.1719 rquadto
0 4.2031 rlineto
-1.1094 0 rlineto
0 -7.3125 rlineto
closepath
} def
/P$13 {
0 -0.9219 rlineto
1.875 0 rlineto
0 -5.4688 rlineto
-1.7656 0 rlineto
0 -0.9219 rlineto
2.9219 0 rlineto
0 6.3906 rlineto
1.7188 0 rlineto
0 0.9219 rlineto
-4.75 0 rlineto
closepath
} def
/P$18 {
-0.0313 0.0469 rlineto
-0.0469 -0.0781 -0.0313 -0.0781 rquadto
0.0625 0.0313 rlineto
} def
/P$28 {
0.5469 0.6016 0.5469 1.5703 rquadto
0 0.7344 -0.375 1.3906 rquadto
-0.3594 0.6719 -1.0938 1.0781 rquadto
-0.75 0.4063 -1.8594 0.4063 rquadto
-1.9531 0 -3.125 -1.2656 rquadto
0.5781 -1 rlineto
0 -0.0156 rlineto
0.0156 0.0156 rlineto
0.4531 0.6094 1.1094 0.9219 rquadto
0.6719 0.3438 1.5781 0.3438 rquadto
0.875 0 1.4688 -0.5 rquadto
0.5938 -0.5 0.5938 -1.2188 rquadto
0 -0.4531 -0.1875 -0.7656 rquadto
-0.2031 -0.3281 -0.6563 -0.625 rquadto
-0.4844 -0.2969 -1.4375 -0.7188 rquadto
-1.4844 -0.5938 -2.0938 -1.3125 rquadto
-0.6406 -0.7656 -0.6406 -1.6406 rquadto
0 -1.125 0.8125 -1.7969 rquadto
0.8125 -0.6719 2.2188 -0.6719 rquadto
0.8281 0 1.5469 0.3281 rquadto
0.7344 0.3438 1.2188 0.9219 rquadto
-0.6094 0.8281 rlineto
-0.0313 0.0156 rlineto
-0.4688 -0.6406 -1 -0.9063 rquadto
-0.5156 -0.2656 -1.2969 -0.2656 rquadto
-0.75 0 -1.2344 0.4375 rquadto
-0.4844 0.4375 -0.4844 1.0156 rquadto
0 0.4688 0.2031 0.8125 rquadto
0.1719 0.3125 0.7344 0.6719 rquadto
0.5 0.3125 1.5313 0.7344 rquadto
1.4219 0.6094 1.9688 1.2109 rquadto
closepath
} def
/P$n {
-0.5938 -0.375 -0.9688 -1.1563 rquadto
-0.3906 -0.7813 -0.3906 -1.8594 rquadto
0 -1.1094 0.3906 -1.8438 rquadto
0.4063 -0.75 1.0078 -1.1016 rquadto
0.6016 -0.3516 1.3047 -0.3516 rquadto
0.6406 0 1.125 0.2969 rquadto
0.5 0.2969 0.7344 0.8125 rquadto
0 -3.8594 rlineto
1.0781 0 rlineto
0 0.0938 rlineto
-0.0781 0.0938 -0.1094 0.1875 rquadto
-0.0313 0.1406 -0.0313 0.3438 rquadto
0.0156 7.6875 rlineto
0 0.4063 0.0156 0.5469 rquadto
0.0313 0.2344 0.125 0.4531 rquadto
-0.9844 0 rlineto
-0.0938 -0.2031 -0.1094 -0.4531 rquadto
-0.0313 -0.2813 -0.0313 -0.5469 rquadto
-0.3438 0.5469 -0.7813 0.8281 rquadto
-0.5156 0.3125 -1.0938 0.3125 rquadto
-0.6563 0 -1.2969 -0.3906 rquadto
} def
/P$r {
2.2969 0 rlineto
-1.1563 -3.3438 rlineto
-1.1406 3.3438 rlineto
closepath
} def
/P$f {
-0.4375 -0.4219 -0.7656 -0.5781 rquadto
-0.2969 -0.1406 -0.7344 -0.1406 rquadto
-0.5781 0 -1.0938 0.2969 rquadto
-0.5156 0.2969 -0.8281 0.8594 rquadto
-0.3125 0.5938 -0.3125 1.4688 rquadto
0 3.8906 rlineto
-1.1719 0 rlineto
0 -7.3281 rlineto
1.2031 0 rlineto
-0.0313 1.3438 rlineto
0.2969 -0.7188 0.9219 -1.125 rquadto
0.6094 -0.3906 1.3906 -0.3906 rquadto
1.1719 0 1.9375 0.7969 rquadto
-0.5156 0.8906 rlineto
0 0.0156 rlineto
} def
/P$w {
-0.9063 0.6875 -2.0313 0.6875 rquadto
-1.0625 0 -1.5 -0.6406 rquadto
-0.4531 -0.6563 -0.4531 -2.0938 rquadto
0 -0.0469 0.0313 -0.8281 rquadto
0.125 -2.1094 rlineto
-1.4063 0 rlineto
0 -0.8125 rlineto
1.4688 0 rlineto
0.0938 -1.7188 rlineto
1.125 -0.1719 rlineto
0.1406 -0.0156 rlineto
0.0156 0.0781 rlineto
-0.1406 0.1875 -0.1563 0.2344 rquadto
-0.0313 0.0938 -0.0625 0.3125 rquadto
-0.1563 1.2813 rlineto
2.1406 0 rlineto
0 0.8125 rlineto
-2.1875 0 rlineto
-0.125 2.1719 rlineto
0 0.1406 -0.0078 0.3203 rquadto
-0.0078 0.1797 -0.0156 0.2734 rquadto
-0.0078 0.0938 -0.0078 0.1563 rquadto
0 1.1094 0.25 1.5156 rquadto
0.25 0.4063 0.8438 0.4063 rquadto
0.3906 0 0.7656 -0.1563 rquadto
0.3438 -0.1406 0.7969 -0.5 rquadto
0.3125 0.7969 rlineto
} def
/P$y {
-0.6719 -0.4219 -1.0469 -1.1719 rquadto
-0.375 -0.75 -0.375 -1.7188 rquadto
0 -0.9688 0.375 -1.7266 rquadto
0.375 -0.7578 1.0469 -1.1797 rquadto
0.7031 -0.4219 1.5313 -0.4219 rquadto
0.8281 0 1.5313 0.4219 rquadto
0.6719 0.4219 1.0469 1.1797 rquadto
0.375 0.7578 0.375 1.7266 rquadto
0 0.9688 -0.375 1.7188 rquadto
-0.375 0.75 -1.0469 1.1719 rquadto
-0.6719 0.4219 -1.5313 0.4219 rquadto
-0.8594 0 -1.5313 -0.4219 rquadto
} def
/P$1q {
2.3594 0 2.3594 -1.5781 rquadto
0 -0.7188 -0.5313 -1.1563 rquadto
-0.5469 -0.4531 -1.6563 -0.4531 rquadto
-1.7344 0 rlineto
0 3.1875 rlineto
1.5625 0 rlineto
closepath
} def
/P$2b {
-0.1563 -0.2344 -0.5313 -0.3125 rquadto
-0.4844 -0.1094 -1.2031 -0.1094 rquadto
-1.1563 0 -1.8281 -0.2188 rquadto
-0.3906 0.2656 -0.5313 0.5313 rquadto
-0.1719 0.2813 -0.1719 0.7188 rquadto
0 0.5313 0.6094 0.8438 rquadto
0.5938 0.3125 1.7031 0.3125 rquadto
1.0156 0 1.5625 -0.3281 rquadto
0.5313 -0.3125 0.5313 -0.8438 rquadto
0 -0.3594 -0.1406 -0.5938 rquadto
closepath
} def
/P$1w {
0.0313 -0.0313 rlineto
0.0469 0.0625 rlineto
-0.0156 0 -0.0391 -0.0078 rquadto
-0.0234 -0.0078 -0.0391 -0.0234 rquadto
closepath
} def
/P$26 {
0 0.0313 -0.0625 0.0156 rquadto
-0.0313 -0.0156 -0.0469 -0.0156 rquadto
-0.0313 -0.0156 rlineto
0.0313 -0.0625 rlineto
0.1094 0.0625 rlineto
0 0.0156 rlineto
closepath
} def
/P$15 {
0 0.0625 -0.1563 0 rquadto
0.0469 -0.0781 rlineto
0.1094 0.0625 rlineto
0 0.0156 rlineto
closepath
} def
/P$1h {
0 0.0625 -0.125 0 rquadto
0.0313 -0.0781 rlineto
0.0938 0.0625 rlineto
0 0.0156 rlineto
closepath
} def
/P$9 {
-0.1094 0.0469 rlineto
-0.0469 -0.125 rlineto
0.0313 -0.0313 rlineto
0.0313 0 0.125 0.1094 rquadto
} def
/P$2a {
0.0313 -0.0469 rlineto
0.0625 0.0938 rlineto
-0.0625 -0.0469 -0.0938 -0.0469 rquadto
} def
/P$2j {
-0.9844 -1.0156 -0.9844 -2.7969 rquadto
0 -1.2188 0.4531 -2.0781 rquadto
0.4844 -0.9063 1.2031 -1.3438 rquadto
0.75 -0.4375 1.7031 -0.4375 rquadto
1.3438 0 2.1563 0.875 rquadto
0.8281 0.875 0.8281 2.5938 rquadto
0 0.0469 -0.0313 0.5313 rquadto
-5.2031 0 rlineto
0.0781 1.3594 0.75 2.0313 rquadto
0.6875 0.6875 1.75 0.6875 rquadto
1.1406 0 1.875 -0.8125 rquadto
0.6406 0.625 rlineto
-0.9219 1.1094 -2.5547 1.1094 rquadto
-1.6328 0 -2.5859 -0.9844 rquadto
closepath
} def
/P$5 {
0 -1.0469 -0.5156 -1.625 rquadto
-0.5313 -0.5938 -1.375 -0.5938 rquadto
-0.7813 0 -1.3906 0.5625 rquadto
-0.5938 0.5469 -0.7344 1.6563 rquadto
4.0156 0 rlineto
closepath
} def
/P$7 {
2.5781 -3.7188 rlineto
-2.5313 -3.5938 rlineto
1.2656 0 rlineto
1.9063 2.7031 rlineto
1.8281 -2.7031 rlineto
1.1719 0 rlineto
-2.3594 3.5469 rlineto
2.6875 3.7656 rlineto
-1.3125 0 rlineto
-2.0156 -2.8438 rlineto
-1.9063 2.8438 rlineto
-1.3125 0 rlineto
} def
/P$1a {
1.1719 0 rlineto
0 1.4375 rlineto
0.25 -0.7969 0.8359 -1.1953 rquadto
0.5859 -0.3984 1.3984 -0.3984 rquadto
0.8281 0 1.5313 0.4219 rquadto
0.7031 0.4375 1.0938 1.2656 rquadto
0.4219 0.875 0.4219 2.0625 rquadto
0 1.2188 -0.4297 2.1172 rquadto
-0.4297 0.8984 -1.1484 1.3516 rquadto
-0.7031 0.4375 -1.5156 0.4375 rquadto
-0.6719 0 -1.2188 -0.2969 rquadto
-0.6094 -0.3281 -0.9531 -0.8438 rquadto
0 3.625 rlineto
-1.1875 0 rlineto
0 -9.9844 rlineto
} def
/P$14 {
-0.2344 -0.2422 -0.2344 -0.5703 rquadto
0 -0.375 0.2188 -0.5938 rquadto
0.2344 -0.25 0.5938 -0.25 rquadto
0.3281 0 0.5938 0.2656 rquadto
0.2344 0.2344 0.2344 0.5703 rquadto
0 0.3359 -0.2344 0.5781 rquadto
-0.2344 0.2422 -0.5938 0.2422 rquadto
-0.3438 0 -0.5781 -0.2422 rquadto
} def
/P$a {
0.4688 -0.3594 0.7656 -1 rquadto
0.2656 -0.6094 0.2656 -1.4844 rquadto
0 -1.2344 -0.6094 -2.0469 rquadto
-0.5938 -0.7813 -1.5469 -0.7813 rquadto
-0.9531 0 -1.5469 0.7813 rquadto
-0.6094 0.8125 -0.6094 2.0469 rquadto
0 0.875 0.2656 1.4844 rquadto
0.2969 0.6406 0.7656 1 rquadto
0.5 0.375 1.125 0.375 rquadto
0.625 0 1.125 -0.375 rquadto
closepath
} def
/P$m {
0.4063 -0.7031 0.4063 -1.8125 rquadto
0 -1.1406 -0.4375 -1.8203 rquadto
-0.4375 -0.6797 -1.3281 -0.6797 rquadto
-0.8594 0 -1.2813 0.6094 rquadto
-0.4531 0.6406 -0.4531 1.7031 rquadto
0 1.25 0.4609 1.9688 rquadto
0.4609 0.7188 1.3672 0.7188 rquadto
0.875 0 1.2656 -0.6875 rquadto
closepath
} def
/P$6 {
-0.9844 -1.0156 -0.9844 -2.7969 rquadto
0 -1.2188 0.4531 -2.0781 rquadto
0.4844 -0.9063 1.2031 -1.3438 rquadto
0.75 -0.4375 1.7031 -0.4375 rquadto
1.3438 0 2.1563 0.875 rquadto
0.8281 0.875 0.8281 2.5938 rquadto
0 0.0469 -0.0313 0.5313 rquadto
-5.2031 0 rlineto
0.0781 1.3594 0.75 2.0313 rquadto
0.6875 0.6875 1.75 0.6875 rquadto
1.1406 0 1.875 -0.8125 rquadto
0.6406 0.625 rlineto
-0.9219 1.1094 -2.5547 1.1094 rquadto
-1.6328 0 -2.5859 -0.9844 rquadto
} def
/P$8 {
0.5234 -0.3203 0.8828 -0.8984 rquadto
0.8281 0.5469 rlineto
-0.5 0.8125 -1.1719 1.2188 rquadto
-0.6875 0.4063 -1.625 0.4063 rquadto
-1.1563 0 -2 -0.5469 rquadto
-0.8281 -0.5156 -1.375 -1.6875 rquadto
-0.5313 -1.125 -0.5313 -2.8438 rquadto
0 -1.8125 0.5625 -2.9844 rquadto
0.5469 -1.1406 1.4219 -1.6406 rquadto
0.8438 -0.5 1.8594 -0.5 rquadto
1.0625 0 1.8438 0.5313 rquadto
0.75 0.5313 1.1563 1.4375 rquadto
-0.9531 0.4531 rlineto
0.0313 0.0625 0.0234 0.0703 rquadto
-0.0078 0.0078 -0.0547 -0.0547 rquadto
0.0313 -0.0156 rlineto
-0.0156 -0.0156 rlineto
-0.4063 -0.8281 -0.9375 -1.1719 rquadto
-0.4844 -0.3438 -1.125 -0.3438 rquadto
-1.2969 0 -2 1.0938 rquadto
-0.7188 1.1094 -0.7188 3.0469 rquadto
0 1.2188 0.3594 2.2031 rquadto
0.3594 0.9375 1 1.4844 rquadto
0.625 0.5313 1.4063 0.5313 rquadto
0.6094 0 1.1328 -0.3203 rquadto
closepath
} def
/P$3 {
0.4688 -0.8125 0.4688 -2.0781 rquadto
0 -1.2813 -0.5 -2.0703 rquadto
-0.5 -0.7891 -1.5156 -0.7891 rquadto
-0.9844 0 -1.4688 0.7031 rquadto
-0.5156 0.7344 -0.5156 1.9531 rquadto
0 1.4219 0.5234 2.2422 rquadto
0.5234 0.8203 1.5547 0.8203 rquadto
1 0 1.4531 -0.7813 rquadto
closepath
} def
/P$2g {
0 -8.9688 rlineto
-2.8281 0 rlineto
0 -1.0156 rlineto
6.9063 0 rlineto
0 1.0156 rlineto
-2.9375 0 rlineto
0 8.9688 rlineto
-1.1406 0 rlineto
} def
/P$1o {
1.1094 0 rlineto
0 0.0938 rlineto
-0.0938 0.1094 -0.1094 0.1875 rquadto
-0.0156 0.0781 -0.0156 0.3438 rquadto
0 3.4219 rlineto
0.375 -0.5938 0.9375 -0.9375 rquadto
0.5625 -0.3438 1.1719 -0.3438 rquadto
0.9063 0 1.4219 0.6406 rquadto
0.5156 0.6406 0.5156 2.0313 rquadto
0 3.875 rlineto
-0.9844 0 rlineto
0 -3.8438 rlineto
0 -0.9375 -0.3125 -1.3906 rquadto
-0.3125 -0.4375 -0.8594 -0.4375 rquadto
-0.4531 0 -0.875 0.2422 rquadto
-0.4219 0.2422 -0.7188 0.7031 rquadto
-0.2969 0.4609 -0.2969 1.0391 rquadto
0 3.6875 rlineto
-0.9844 0 rlineto
0 -9.3125 rlineto
} def
/P$1z {
0 0.0313 -0.0313 0.0313 rquadto
-0.1094 -0.0313 rlineto
0.0625 -0.0625 rlineto
0.0781 0.0625 rlineto
0 0 rlineto
closepath
} def
/P$b {
-0.7734 -0.4766 -1.2031 -1.3438 rquadto
-0.4297 -0.8672 -0.4297 -1.9688 rquadto
0 -1.1016 0.4297 -1.9688 rquadto
0.4297 -0.8672 1.1953 -1.3359 rquadto
0.8125 -0.5 1.75 -0.5 rquadto
0.9375 0 1.75 0.5 rquadto
0.7656 0.4688 1.1953 1.3359 rquadto
0.4297 0.8672 0.4297 1.9688 rquadto
0 1.1016 -0.4297 1.9688 rquadto
-0.4297 0.8672 -1.2031 1.3438 rquadto
-0.7734 0.4766 -1.7422 0.4766 rquadto
-0.9688 0 -1.7422 -0.4766 rquadto
} def
/P$10 {
1.4063 -0.7188 2.25 -2.1094 rquadto
0.8438 -1.3594 0.8438 -2.9375 rquadto
0 -1.5469 -0.8281 -2.9063 rquadto
-0.8281 -1.3594 -2.1719 -2.0781 rquadto
0.2656 -0.875 rlineto
1.125 0.5313 1.9688 1.4219 rquadto
0.8281 0.8594 1.2969 2.0313 rquadto
0.4688 1.125 0.4688 2.3594 rquadto
0 1.2031 -0.4844 2.3906 rquadto
-0.4531 1.1563 -1.3203 2.0938 rquadto
-0.8672 0.9375 -2.0234 1.4531 rquadto
-0.2656 -0.8438 rlineto
closepath
} def
/P$2k {
0.8906 0 rlineto
1.0313 5.125 rlineto
1.0938 -4.5313 rlineto
0.6094 0 rlineto
1.3594 4.5156 rlineto
0.3281 -2.1094 0.5 -3.4219 rquadto
0.0938 -0.7656 0.0938 -1.4844 rquadto
0 -0.2031 rlineto
0.9375 0 rlineto
-0.4219 3.2969 -1.0625 6.4063 rquadto
-0.9531 0 rlineto
-1.1719 -4.1406 rlineto
-1.125 4.1406 rlineto
-0.9063 0 rlineto
-1.2969 -6.4063 rlineto
} def
/P$2f {
-0.6094 -0.75 -0.5938 -2.2344 rquadto
0.0156 -3.5625 rlineto
0.9844 0 rlineto
0 3.5625 rlineto
0 1.1406 0.4063 1.6563 rquadto
0.4063 0.5156 1.0469 0.5156 rquadto
0.7188 0 1.2188 -0.5781 rquadto
0.5 -0.5625 0.5 -1.6406 rquadto
0 -3.5156 rlineto
0.9844 0 rlineto
0 5.3906 rlineto
0 0.2656 0.0313 0.5469 rquadto
0.0313 0.25 0.1094 0.4531 rquadto
-0.9688 0 rlineto
-0.1094 -0.2031 -0.125 -0.4375 rquadto
-0.0156 -0.1563 -0.0156 -0.5469 rquadto
-0.3281 0.5781 -0.8281 0.8438 rquadto
-0.5313 0.2969 -1.1563 0.2969 rquadto
-1 0 -1.6094 -0.75 rquadto
} def
/P$1e {
0.0313 -0.0313 rlineto
0.0156 0.0313 0.0469 0.0781 rquadto
0 0 rlineto
-0.0625 -0.0313 -0.0781 -0.0469 rquadto
closepath
} def
/P$4 {
-0.6875 -0.4375 -1.1094 -1.3125 rquadto
-0.4375 -0.9063 -0.4375 -2.1406 rquadto
0 -1.2813 0.4531 -2.1094 rquadto
0.4531 -0.8594 1.1484 -1.2578 rquadto
0.6953 -0.3984 1.4922 -0.3984 rquadto
0.7344 0 1.2813 0.3281 rquadto
0.5625 0.3594 0.8438 0.9375 rquadto
0 -4.4063 rlineto
1.2188 0 rlineto
0 0.1094 rlineto
-0.0781 0.0938 -0.1094 0.2188 rquadto
-0.0313 0.1563 -0.0313 0.375 rquadto
0.0156 8.7969 rlineto
0 0.4688 0.0156 0.625 rquadto
0.0313 0.2656 0.1406 0.5156 rquadto
-1.1406 0 rlineto
-0.0938 -0.2188 -0.125 -0.5156 rquadto
-0.0313 -0.3125 -0.0313 -0.625 rquadto
-0.3906 0.625 -0.9063 0.9531 rquadto
-0.5625 0.3438 -1.2344 0.3438 rquadto
-0.7656 0 -1.4844 -0.4375 rquadto
} def
/P$d {
0 -0.0313 0.0469 -0.0313 rquadto
0.0313 0 0.0938 0.0313 rquadto
-0.0313 0.0938 rlineto
-0.1094 -0.0781 rlineto
0 -0.0156 rlineto
closepath
} def
/P$2i {
0 -9.9844 rlineto
6.125 0 rlineto
0 1 rlineto
-5.0625 0 rlineto
0 3.2656 rlineto
4.1719 0 rlineto
0 1.0313 rlineto
-4.1719 0 rlineto
0 3.7031 rlineto
5.0156 0 rlineto
0 0.9844 rlineto
-6.0781 0 rlineto
} def
/P$g {
0 -0.9219 rlineto
2.1563 0 rlineto
0 -8.7969 rlineto
-2.0625 0 rlineto
0 -0.9219 rlineto
3.2344 0 rlineto
0 9.7188 rlineto
2.1406 0 rlineto
0 0.9219 rlineto
-5.4688 0 rlineto
} def
/P$29 {
-0.0313 0.0625 rlineto
-0.0469 -0.0625 -0.0391 -0.0781 rquadto
0.0078 -0.0156 0.0703 0.0156 rquadto
closepath
} def
/P$1d {
0.6719 0.7969 rlineto
-1.0938 1.1406 -2.6406 1.1406 rquadto
-1.0625 0 -1.8906 -0.4844 rquadto
-0.7969 -0.4844 -1.2969 -1.3906 rquadto
-0.4844 -0.8594 -0.4844 -1.9453 rquadto
0 -1.0859 0.4844 -1.9453 rquadto
0.4844 -0.8906 1.2969 -1.3594 rquadto
0.8281 -0.5 1.875 -0.5 rquadto
0.8906 0 1.5938 0.3516 rquadto
0.7031 0.3516 1.1719 1.0078 rquadto
-0.7188 0.7031 rlineto
-0.0156 0.0156 rlineto
-0.4844 -0.6406 -0.9531 -0.8594 rquadto
-0.4688 -0.25 -1.2031 -0.25 rquadto
-0.625 0 -1.1563 0.3438 rquadto
-0.5469 0.3438 -0.8594 0.9688 rquadto
-0.3281 0.6406 -0.3281 1.4375 rquadto
0 0.8594 0.3281 1.4844 rquadto
0.3281 0.6563 0.9219 1.0234 rquadto
0.5938 0.3672 1.2969 0.3672 rquadto
1.1094 0 1.9063 -0.9063 rquadto
closepath
} def
/P$1s {
0.5781 -0.6719 0.5781 -2.125 rquadto
0 -1.4219 -0.5313 -2.1406 rquadto
-0.5 -0.7031 -1.4531 -0.7031 rquadto
-0.8906 0 -1.4531 0.8047 rquadto
-0.5625 0.8047 -0.5625 2.0703 rquadto
0 2.7813 1.9844 2.7813 rquadto
0.8438 0 1.4375 -0.6875 rquadto
closepath
} def
/P$o {
0 -0.9219 -0.4375 -1.4219 rquadto
-0.4688 -0.5156 -1.2031 -0.5156 rquadto
-0.6875 0 -1.2188 0.4844 rquadto
-0.5313 0.4844 -0.6563 1.4531 rquadto
3.5156 0 rlineto
closepath
} def
/P$q {
2.25 -3.25 rlineto
-2.2031 -3.1406 rlineto
1.1094 0 rlineto
1.6563 2.3594 rlineto
1.5938 -2.3594 rlineto
1.0469 0 rlineto
-2.0781 3.0938 rlineto
2.3594 3.2969 rlineto
-1.1563 0 rlineto
-1.7656 -2.4844 rlineto
-1.6563 2.4844 rlineto
-1.1563 0 rlineto
} def
/P$i {
0 -2.625 rlineto
-2.4844 0 rlineto
0 -0.8438 rlineto
2.4844 0 rlineto
0 -2.4063 rlineto
0.875 0 rlineto
0 2.4063 rlineto
2.4063 0 rlineto
0 0.8438 rlineto
-2.4063 0 rlineto
0 2.625 rlineto
-0.875 0 rlineto
} def
/P$1f {
-0.0625 0.0625 rlineto
-0.0781 -0.0781 rlineto
0 -0.1094 0.1406 0.0156 rquadto
} def
/P$2h {
1.0469 0 rlineto
0 0.7188 rlineto
0.2813 -0.4219 0.6563 -0.6406 rquadto
0.4375 -0.25 0.8438 -0.25 rquadto
0.4844 0 0.8438 0.3047 rquadto
0.3594 0.3047 0.4531 0.7578 rquadto
0.2344 -0.5 0.6563 -0.7813 rquadto
0.4531 -0.2813 0.9844 -0.2813 rquadto
0.7188 0 1.0781 0.5156 rquadto
0.3438 0.5156 0.3281 1.3594 rquadto
0 5.6094 rlineto
-1.0469 0 rlineto
0 -5.1875 rlineto
0 -0.9063 -0.1797 -1.1797 rquadto
-0.1797 -0.2734 -0.5078 -0.2734 rquadto
-0.2969 0 -0.5625 0.2656 rquadto
-0.2656 0.2656 -0.4375 0.7109 rquadto
-0.1719 0.4453 -0.1719 0.8359 rquadto
0 4.8281 rlineto
-1.0781 0 rlineto
0 -5.0938 rlineto
0 -0.9063 -0.1563 -1.2109 rquadto
-0.1563 -0.3047 -0.6406 -0.3047 rquadto
-0.25 0 -0.4844 0.2031 rquadto
-0.2344 0.2344 -0.4063 0.6094 rquadto
-0.1719 0.375 -0.1719 0.9219 rquadto
0 4.875 rlineto
-1.0469 0 rlineto
0 -7.3125 rlineto
} def
/P$19 {
0.6094 -0.6875 0.6094 -2.1563 rquadto
0 -1.3906 -0.5234 -2.1094 rquadto
-0.5234 -0.7188 -1.5078 -0.7188 rquadto
-0.9219 0 -1.4844 0.7578 rquadto
-0.5625 0.7578 -0.5625 2.3203 rquadto
0.0156 1.2656 0.5625 1.9219 rquadto
0.5313 0.6563 1.4375 0.6563 rquadto
0.8594 0 1.4688 -0.6719 rquadto
closepath
} def
/P$1p {
2.3438 0 2.3438 -1.8906 rquadto
0 -2.0313 -2.625 -2.0313 rquadto
-1.625 0 rlineto
0 3.9219 rlineto
1.9063 0 rlineto
closepath
} def
/P$2d {
-0.7813 0 -1.2813 0.3438 rquadto
0.2656 0.5781 0.2656 1.1875 rquadto
0 0.7031 -0.3203 1.2969 rquadto
-0.3203 0.5938 -0.8906 0.9297 rquadto
-0.5703 0.3359 -1.3516 0.3359 rquadto
-0.5781 0 -1.125 -0.2188 rquadto
-0.2969 0.3594 -0.2969 0.6719 rquadto
0 0.3906 0.5 0.5625 rquadto
0.4688 0.1563 1.75 0.1563 rquadto
1.5469 0 2.125 0.4844 rquadto
0.5625 0.4531 0.5625 1.375 rquadto
0 0.9375 -0.7656 1.5625 rquadto
-0.7969 0.6406 -2.4063 0.6406 rquadto
-1.5469 0 -2.4531 -0.4844 rquadto
-0.8906 -0.4688 -0.8906 -1.4063 rquadto
0 -0.5781 0.3203 -0.9922 rquadto
0.3203 -0.4141 0.8203 -0.6484 rquadto
-0.5313 -0.375 -0.5313 -0.9844 rquadto
0 -0.6406 0.6563 -1.3438 rquadto
-0.4063 -0.3438 -0.6094 -0.8438 rquadto
-0.2031 -0.4844 -0.2031 -1.0938 rquadto
0 -0.7031 0.3125 -1.2969 rquadto
0.3125 -0.5625 0.8906 -0.9063 rquadto
0.5781 -0.3281 1.3438 -0.3281 rquadto
1.1719 0 1.875 0.75 rquadto
0.3906 -0.375 0.7813 -0.5313 rquadto
0.3906 -0.1563 0.9219 -0.1563 rquadto
0.2656 0.0156 rlineto
0.1406 0.9375 rlineto
-0.0938 -0.0156 -0.4063 -0.0156 rquadto
} def
/P$2 {
1.1094 0 rlineto
0 1.2969 rlineto
0.4219 -0.6563 1.0938 -1.0781 rquadto
0.6406 -0.3906 1.3906 -0.3906 rquadto
0.9844 0 1.5469 0.7344 rquadto
0.5938 0.7656 0.5938 2.3125 rquadto
0 4.4375 rlineto
-1.1094 0 rlineto
0 -4.4063 rlineto
0 -1.0625 -0.375 -1.5781 rquadto
-0.3438 -0.5 -0.9688 -0.5 rquadto
-0.5 0 -1.0156 0.2969 rquadto
-0.5 0.2813 -0.8281 0.8125 rquadto
-0.3281 0.5 -0.3281 1.1719 rquadto
0 4.2031 rlineto
-1.1094 0 rlineto
0 -7.3125 rlineto
} def
/P$24 {
0.0313 -0.0313 rlineto
0.0469 0.0938 rlineto
-0.0156 -0.0156 rlineto
-0.0469 -0.0469 -0.0625 -0.0469 rquadto
closepath
} def
/P$k {
-0.2109 -0.2109 -0.2109 -0.5078 rquadto
0 -0.3281 0.2031 -0.5156 rquadto
0.2031 -0.2188 0.5156 -0.2188 rquadto
0.2969 0 0.5156 0.2344 rquadto
0.2188 0.2031 0.2188 0.5 rquadto
0 0.2969 -0.2109 0.5078 rquadto
-0.2109 0.2109 -0.5234 0.2109 rquadto
-0.2969 0 -0.5078 -0.2109 rquadto
} def
/P$27 {
0 -0.0313 0.0625 -0.0156 rquadto
0.0156 0.0156 0.0469 0.0156 rquadto
0.0156 0.0156 0.0313 0.0156 rquadto
-0.0469 0.0625 rlineto
-0.0938 -0.0625 rlineto
0 -0.0156 rlineto
closepath
} def
/P$1u {
-0.0313 0.0469 rlineto
-0.0469 -0.0781 -0.0313 -0.0781 rquadto
0.0625 0.0313 rlineto
closepath
} def
1 1 1 setrgbcolor
152 62.6919 104 8 simplerect
closepath eofill
1.5 setlinewidth
0 0 0 setrgbcolor
152 62.6919 104 8 simplerect
closepath stroke
1 1 1 setrgbcolor
newpath
119 24 11 0 360 arc
closepath eofill
1.0 setlinewidth
0 0 0 setrgbcolor
newpath
119 24 11 0 360 arc
closepath stroke
0 setlinewidth
[] 0 setdash
0 0 0 setrgbcolor
newpath
121.7031 29.4375 moveto
P$0
fill
0 setlinewidth
[] 0 setdash
0 0 0 setrgbcolor
newpath
134.2969 28.9573 moveto
P$1
fill
0 setlinewidth
[] 0 setdash
0 0 0 setrgbcolor
newpath
142.1563 21.6448 moveto
P$2
fill
0 setlinewidth
[] 0 setdash
0 0 0 setrgbcolor
newpath
154.375 27.3323 moveto
P$3
151.2656 28.676 moveto
P$4
fill
0 setlinewidth
[] 0 setdash
0 0 0 setrgbcolor
newpath
162.9531 24.5667 moveto
P$5
158.7656 28.1292 moveto
P$6
fill
0 setlinewidth
[] 0 setdash
0 0 0 setrgbcolor
newpath
165.75 28.9573 moveto
P$7
fill
0 setlinewidth
[] 0 setdash
0 0 0 setrgbcolor
newpath
178.6484 27.8401 moveto
P$8
179.5156 21.3479 moveto
P$9
fill
0 setlinewidth
[] 0 setdash
0 0 0 setrgbcolor
newpath
186.125 27.7542 moveto
P$a
183.2578 28.6057 moveto
P$b
fill
0 setlinewidth
[] 0 setdash
0 0 0 setrgbcolor
newpath
190.1563 21.6448 moveto
P$2
fill
0 setlinewidth
[] 0 setdash
0 0 0 setrgbcolor
newpath
204.1094 28.2854 moveto
P$c
fill
0 setlinewidth
[] 0 setdash
0 0 0 setrgbcolor
newpath
211.6406 23.2229 moveto
P$d
211.7813 23.2229 moveto
P$e
211.8125 23.176 moveto
P$f
fill
0 setlinewidth
[] 0 setdash
0 0 0 setrgbcolor
newpath
218.125 27.7542 moveto
P$a
215.2578 28.6057 moveto
P$b
fill
0 setlinewidth
[] 0 setdash
0 0 0 setrgbcolor
newpath
222.2656 28.9573 moveto
P$g
fill
0 setlinewidth
[] 0 setdash
0 0 0 setrgbcolor
newpath
230.2656 28.9573 moveto
P$g
fill
0 setlinewidth
[] 0 setdash
0 0 0 setrgbcolor
newpath
242.9531 24.5667 moveto
P$5
238.7656 28.1292 moveto
P$6
fill
0 setlinewidth
[] 0 setdash
0 0 0 setrgbcolor
newpath
251.6406 23.2229 moveto
P$d
251.7813 23.2229 moveto
P$e
251.8125 23.176 moveto
P$h
fill
1.5 setlinewidth
0 0 0 setrgbcolor
newpath
105 40 moveto
150 0 rlineto
stroke
1.5 setlinewidth
0 0 0 setrgbcolor
newpath
105 48 moveto
150 0 rlineto
stroke
0 setlinewidth
[] 0 setdash
0 0 0 setrgbcolor
newpath
113.1094 62.2305 moveto
P$i
fill
0 setlinewidth
[] 0 setdash
0 0 0 setrgbcolor
newpath
118.4063 63.6836 moveto
P$j
119.9766 55.7383 moveto
P$k
fill
0 setlinewidth
[] 0 setdash
0 0 0 setrgbcolor
newpath
125.0156 57.293 moveto
P$l
fill
0 setlinewidth
[] 0 setdash
0 0 0 setrgbcolor
newpath
135.7031 62.2617 moveto
P$m
132.9844 63.4336 moveto
P$n
fill
0 setlinewidth
[] 0 setdash
0 0 0 setrgbcolor
newpath
143.2031 59.8398 moveto
P$o
139.5469 62.9492 moveto
P$p
fill
0 setlinewidth
[] 0 setdash
0 0 0 setrgbcolor
newpath
145.6563 63.6836 moveto
P$q
fill
0 setlinewidth
[] 0 setdash
0 0 0 setrgbcolor
newpath
154.3438 60.3867 moveto
P$r
157.7656 63.6836 moveto
P$s
fill
0 setlinewidth
[] 0 setdash
0 0 0 setrgbcolor
newpath
164.7188 62.1367 moveto
P$t
164.7188 59.0117 moveto
P$u
164.7188 59.0117 moveto
P$v
fill
0 setlinewidth
[] 0 setdash
0 0 0 setrgbcolor
newpath
172.2188 63.0898 moveto
P$w
fill
0 setlinewidth
[] 0 setdash
0 0 0 setrgbcolor
newpath
174.4063 63.6836 moveto
P$j
175.9766 55.7383 moveto
P$k
fill
0 setlinewidth
[] 0 setdash
0 0 0 setrgbcolor
newpath
184.4844 62.6367 moveto
P$x
181.9688 63.3711 moveto
P$y
fill
0 setlinewidth
[] 0 setdash
0 0 0 setrgbcolor
newpath
188.0156 57.293 moveto
P$l
fill
0 setlinewidth
[] 0 setdash
0 0 0 setrgbcolor
newpath
197.5078 64.668 moveto
P$z
fill
0 setlinewidth
[] 0 setdash
0 0 0 setrgbcolor
newpath
202.5938 65.2773 moveto
P$10
fill
1 1 1 setrgbcolor
112 62.6919 291 8 simplerect
closepath eofill
1.5 setlinewidth
0 0 0 setrgbcolor
112 62.6919 291 8 simplerect
closepath stroke
1 1 1 setrgbcolor
newpath
306 24 11 0 360 arc
closepath eofill
1.0 setlinewidth
0 0 0 setrgbcolor
newpath
306 24 11 0 360 arc
closepath stroke
0 setlinewidth
[] 0 setdash
0 0 0 setrgbcolor
newpath
308.7031 29.4375 moveto
P$0
fill
0 setlinewidth
[] 0 setdash
0 0 0 setrgbcolor
newpath
322.9375 28.0979 moveto
P$11
320.8594 18.9885 moveto
P$12
fill
0 setlinewidth
[] 0 setdash
0 0 0 setrgbcolor
newpath
329.5938 28.9573 moveto
P$13
331.4063 19.8713 moveto
P$14
fill
0 setlinewidth
[] 0 setdash
0 0 0 setrgbcolor
newpath
337.75 26.8167 moveto
P$15
342.2656 23.5198 moveto
P$16
342.4688 25.5667 moveto
P$17
337.5938 26.8167 moveto
P$18
fill
0 setlinewidth
[] 0 setdash
0 0 0 setrgbcolor
newpath
349.5938 27.4573 moveto
P$19
344.9531 21.6448 moveto
P$1a
fill
0 setlinewidth
[] 0 setdash
0 0 0 setrgbcolor
newpath
357.3594 27.551 moveto
P$1b
358.3047 22.301 moveto
P$1c
fill
0 setlinewidth
[] 0 setdash
0 0 0 setrgbcolor
newpath
367.1094 28.2854 moveto
P$c
fill
0 setlinewidth
[] 0 setdash
0 0 0 setrgbcolor
newpath
374.5313 27.1917 moveto
P$1d
374.5469 23.6135 moveto
P$1e
374.5469 23.6135 moveto
P$1f
fill
0 setlinewidth
[] 0 setdash
0 0 0 setrgbcolor
newpath
377.1719 18.3167 moveto
P$1g
fill
0 setlinewidth
[] 0 setdash
0 0 0 setrgbcolor
newpath
389.9531 24.5667 moveto
P$5
385.7656 28.1292 moveto
P$6
fill
0 setlinewidth
[] 0 setdash
0 0 0 setrgbcolor
newpath
398.6406 23.2229 moveto
P$d
398.7813 23.2229 moveto
P$e
398.8125 23.176 moveto
P$h
fill
1.5 setlinewidth
0 0 0 setrgbcolor
newpath
292 40 moveto
110 0 rlineto
stroke
1.5 setlinewidth
0 0 0 setrgbcolor
newpath
292 48 moveto
110 0 rlineto
stroke
0 setlinewidth
[] 0 setdash
0 0 0 setrgbcolor
newpath
300.1094 62.2305 moveto
P$i
fill
0 setlinewidth
[] 0 setdash
0 0 0 setrgbcolor
newpath
308.7031 62.2617 moveto
P$m
305.9844 63.4336 moveto
P$n
fill
0 setlinewidth
[] 0 setdash
0 0 0 setrgbcolor
newpath
312.4063 63.6836 moveto
P$j
313.9766 55.7383 moveto
P$k
fill
0 setlinewidth
[] 0 setdash
0 0 0 setrgbcolor
newpath
319.5313 61.8086 moveto
P$1h
323.4844 58.9258 moveto
P$1i
323.6563 60.7148 moveto
P$1j
319.4063 61.8086 moveto
P$18
fill
0 setlinewidth
[] 0 setdash
0 0 0 setrgbcolor
newpath
329.9063 62.3711 moveto
P$1k
325.8438 57.293 moveto
P$1l
fill
0 setlinewidth
[] 0 setdash
0 0 0 setrgbcolor
newpath
336.6875 62.4492 moveto
P$1m
337.5156 57.8633 moveto
P$1n
fill
0 setlinewidth
[] 0 setdash
0 0 0 setrgbcolor
newpath
345.2188 63.0898 moveto
P$w
fill
0 setlinewidth
[] 0 setdash
0 0 0 setrgbcolor
newpath
351.7188 62.1367 moveto
P$t
351.7188 59.0117 moveto
P$u
351.7188 59.0117 moveto
P$v
fill
0 setlinewidth
[] 0 setdash
0 0 0 setrgbcolor
newpath
354.0156 54.3711 moveto
P$1o
fill
0 setlinewidth
[] 0 setdash
0 0 0 setrgbcolor
newpath
363.5078 64.668 moveto
P$z
fill
0 setlinewidth
[] 0 setdash
0 0 0 setrgbcolor
newpath
368.5938 65.2773 moveto
P$10
fill
1 1 1 setrgbcolor
56 48 6 226.5 simplerect
closepath eofill
1.5 setlinewidth
0 0 0 setrgbcolor
56 48 6 226.5 simplerect
closepath stroke
1 1 1 setrgbcolor
newpath
21 242.5 11 0 360 arc
closepath eofill
1.0 setlinewidth
0 0 0 setrgbcolor
newpath
21 242.5 11 0 360 arc
closepath stroke
0 setlinewidth
[] 0 setdash
0 0 0 setrgbcolor
newpath
23.7031 247.9375 moveto
P$0
fill
0 setlinewidth
[] 0 setdash
0 0 0 setrgbcolor
newpath
38.7813 246.4885 moveto
P$1p
38.4375 241.6135 moveto
P$1q
35.7656 237.4885 moveto
P$1r
fill
0 setlinewidth
[] 0 setdash
0 0 0 setrgbcolor
newpath
48.5469 245.926 moveto
P$1s
46.0391 247.3245 moveto
P$1t
fill
0 setlinewidth
[] 0 setdash
0 0 0 setrgbcolor
newpath
52.75 245.3167 moveto
P$15
57.2656 242.0198 moveto
P$16
57.4688 244.0667 moveto
P$17
52.5938 245.3167 moveto
P$1u
fill
1.5 setlinewidth
0 0 0 setrgbcolor
newpath
7 258.5 moveto
54 0 rlineto
stroke
1.5 setlinewidth
0 0 0 setrgbcolor
newpath
7 266.5 moveto
54 0 rlineto
stroke
1 1 1 setrgbcolor
166 238.995 97 131 simplerect
closepath eofill
1.5 setlinewidth
0 0 0 setrgbcolor
166 238.995 97 131 simplerect
closepath stroke
1 1 1 setrgbcolor
newpath
125.5 147 11 0 360 arc
closepath eofill
1.0 setlinewidth
0 0 0 setrgbcolor
newpath
125.5 147 11 0 360 arc
closepath stroke
0 setlinewidth
[] 0 setdash
0 0 0 setrgbcolor
newpath
128.2031 152.4375 moveto
P$0
fill
0 setlinewidth
[] 0 setdash
0 0 0 setrgbcolor
newpath
146.2813 150.9885 moveto
P$1p
145.9375 146.1135 moveto
P$1q
143.2656 141.9885 moveto
P$1r
fill
0 setlinewidth
[] 0 setdash
0 0 0 setrgbcolor
newpath
156.0469 150.426 moveto
P$1s
153.5391 151.8245 moveto
P$1t
fill
0 setlinewidth
[] 0 setdash
0 0 0 setrgbcolor
newpath
160.25 149.8167 moveto
P$15
164.7656 146.5198 moveto
P$16
164.9688 148.5667 moveto
P$17
160.0938 149.8167 moveto
P$18
fill
0 setlinewidth
[] 0 setdash
0 0 0 setrgbcolor
newpath
172.1484 150.8401 moveto
P$8
173.0156 144.3479 moveto
P$9
fill
0 setlinewidth
[] 0 setdash
0 0 0 setrgbcolor
newpath
179.625 150.7542 moveto
P$a
176.7578 151.6057 moveto
P$b
fill
0 setlinewidth
[] 0 setdash
0 0 0 setrgbcolor
newpath
183.6563 144.6448 moveto
P$2
fill
0 setlinewidth
[] 0 setdash
0 0 0 setrgbcolor
newpath
197.6094 151.2854 moveto
P$c
fill
0 setlinewidth
[] 0 setdash
0 0 0 setrgbcolor
newpath
205.1406 146.2229 moveto
P$d
205.2813 146.2229 moveto
P$e
205.3125 146.176 moveto
P$f
fill
0 setlinewidth
[] 0 setdash
0 0 0 setrgbcolor
newpath
211.625 150.7542 moveto
P$a
208.7578 151.6057 moveto
P$b
fill
0 setlinewidth
[] 0 setdash
0 0 0 setrgbcolor
newpath
215.7656 151.9573 moveto
P$g
fill
0 setlinewidth
[] 0 setdash
0 0 0 setrgbcolor
newpath
223.7656 151.9573 moveto
P$g
fill
0 setlinewidth
[] 0 setdash
0 0 0 setrgbcolor
newpath
236.4531 147.5667 moveto
P$5
232.2656 151.1292 moveto
P$6
fill
0 setlinewidth
[] 0 setdash
0 0 0 setrgbcolor
newpath
245.1406 146.2229 moveto
P$d
245.2813 146.2229 moveto
P$e
245.3125 146.176 moveto
P$h
fill
1.5 setlinewidth
0 0 0 setrgbcolor
newpath
98 163 moveto
164 0 rlineto
stroke
1.5 setlinewidth
0 0 0 setrgbcolor
newpath
98 171 moveto
164 0 rlineto
stroke
0 setlinewidth
[] 0 setdash
0 0 0 setrgbcolor
newpath
106.1094 185.2305 moveto
P$i
fill
0 setlinewidth
[] 0 setdash
0 0 0 setrgbcolor
newpath
115.8125 181.668 moveto
P$1v
115.9375 181.668 moveto
P$1w
115.9688 181.6367 moveto
P$1x
fill
0 setlinewidth
[] 0 setdash
0 0 0 setrgbcolor
newpath
122.2031 182.8398 moveto
P$o
118.5469 185.9492 moveto
P$p
fill
0 setlinewidth
[] 0 setdash
0 0 0 setrgbcolor
newpath
128.6875 185.4492 moveto
P$1m
129.5156 180.8633 moveto
P$1n
fill
0 setlinewidth
[] 0 setdash
0 0 0 setrgbcolor
newpath
135.7031 185.2617 moveto
P$m
132.9844 186.4336 moveto
P$n
fill
0 setlinewidth
[] 0 setdash
0 0 0 setrgbcolor
newpath
140.3438 183.3867 moveto
P$r
143.7656 186.6836 moveto
P$s
fill
0 setlinewidth
[] 0 setdash
0 0 0 setrgbcolor
newpath
150.7188 185.1367 moveto
P$t
150.7188 182.0117 moveto
P$u
150.7188 182.0117 moveto
P$v
fill
0 setlinewidth
[] 0 setdash
0 0 0 setrgbcolor
newpath
158.2188 186.0898 moveto
P$w
fill
0 setlinewidth
[] 0 setdash
0 0 0 setrgbcolor
newpath
160.4063 186.6836 moveto
P$j
161.9766 178.7383 moveto
P$k
fill
0 setlinewidth
[] 0 setdash
0 0 0 setrgbcolor
newpath
170.4844 185.6367 moveto
P$x
167.9688 186.3711 moveto
P$y
fill
0 setlinewidth
[] 0 setdash
0 0 0 setrgbcolor
newpath
174.0156 180.293 moveto
P$l
fill
0 setlinewidth
[] 0 setdash
0 0 0 setrgbcolor
newpath
183.5078 187.668 moveto
P$z
fill
0 setlinewidth
[] 0 setdash
0 0 0 setrgbcolor
newpath
188.5938 188.2773 moveto
P$10
fill
0 setlinewidth
[] 0 setdash
0 0 0 setrgbcolor
newpath
106.1094 199.9224 moveto
P$i
fill
0 setlinewidth
[] 0 setdash
0 0 0 setrgbcolor
newpath
115.7188 199.8286 moveto
P$t
115.7188 196.7036 moveto
P$u
115.7188 196.7036 moveto
P$v
fill
0 setlinewidth
[] 0 setdash
0 0 0 setrgbcolor
newpath
122.8125 196.3599 moveto
P$1v
122.9375 196.3599 moveto
P$1w
122.9688 196.3286 moveto
P$1x
fill
0 setlinewidth
[] 0 setdash
0 0 0 setrgbcolor
newpath
129.2031 197.5318 moveto
P$o
125.5469 200.6411 moveto
P$p
fill
0 setlinewidth
[] 0 setdash
0 0 0 setrgbcolor
newpath
135.6875 200.1411 moveto
P$1m
136.5156 195.5552 moveto
P$1n
fill
0 setlinewidth
[] 0 setdash
0 0 0 setrgbcolor
newpath
144.2188 200.7818 moveto
P$w
fill
0 setlinewidth
[] 0 setdash
0 0 0 setrgbcolor
newpath
150.2031 197.5318 moveto
P$o
146.5469 200.6411 moveto
P$p
fill
0 setlinewidth
[] 0 setdash
0 0 0 setrgbcolor
newpath
154.3438 198.0786 moveto
P$r
157.7656 201.3755 moveto
P$s
fill
0 setlinewidth
[] 0 setdash
0 0 0 setrgbcolor
newpath
164.7188 199.8286 moveto
P$t
164.7188 196.7036 moveto
P$u
164.7188 196.7036 moveto
P$v
fill
0 setlinewidth
[] 0 setdash
0 0 0 setrgbcolor
newpath
172.2188 200.7818 moveto
P$w
fill
0 setlinewidth
[] 0 setdash
0 0 0 setrgbcolor
newpath
174.4063 201.3755 moveto
P$j
175.9766 193.4302 moveto
P$k
fill
0 setlinewidth
[] 0 setdash
0 0 0 setrgbcolor
newpath
184.4844 200.3286 moveto
P$x
181.9688 201.063 moveto
P$y
fill
0 setlinewidth
[] 0 setdash
0 0 0 setrgbcolor
newpath
188.0156 194.9849 moveto
P$l
fill
0 setlinewidth
[] 0 setdash
0 0 0 setrgbcolor
newpath
197.5078 202.3599 moveto
P$z
fill
0 setlinewidth
[] 0 setdash
0 0 0 setrgbcolor
newpath
202.5938 202.9693 moveto
P$10
fill
0 setlinewidth
[] 0 setdash
0 0 0 setrgbcolor
newpath
106.1094 214.6143 moveto
P$i
fill
0 setlinewidth
[] 0 setdash
0 0 0 setrgbcolor
newpath
115.8125 211.0518 moveto
P$1v
115.9375 211.0518 moveto
P$1w
115.9688 211.0206 moveto
P$1x
fill
0 setlinewidth
[] 0 setdash
0 0 0 setrgbcolor
newpath
122.2031 212.2237 moveto
P$o
118.5469 215.3331 moveto
P$p
fill
0 setlinewidth
[] 0 setdash
0 0 0 setrgbcolor
newpath
128.9063 214.7549 moveto
P$1k
124.8438 209.6768 moveto
P$1l
fill
0 setlinewidth
[] 0 setdash
0 0 0 setrgbcolor
newpath
132.1094 216.0674 moveto
P$1y
fill
0 setlinewidth
[] 0 setdash
0 0 0 setrgbcolor
newpath
138.9063 217.2081 moveto
P$1z
144.2031 209.6768 moveto
P$20
138.7656 217.2081 moveto
P$21
fill
0 setlinewidth
[] 0 setdash
0 0 0 setrgbcolor
newpath
147.3438 212.7706 moveto
P$r
150.7656 216.0674 moveto
P$s
fill
0 setlinewidth
[] 0 setdash
0 0 0 setrgbcolor
newpath
157.7188 214.5206 moveto
P$t
157.7188 211.3956 moveto
P$u
157.7188 211.3956 moveto
P$v
fill
0 setlinewidth
[] 0 setdash
0 0 0 setrgbcolor
newpath
165.2188 215.4737 moveto
P$w
fill
0 setlinewidth
[] 0 setdash
0 0 0 setrgbcolor
newpath
167.4063 216.0674 moveto
P$j
168.9766 208.1221 moveto
P$k
fill
0 setlinewidth
[] 0 setdash
0 0 0 setrgbcolor
newpath
177.4844 215.0206 moveto
P$x
174.9688 215.7549 moveto
P$y
fill
0 setlinewidth
[] 0 setdash
0 0 0 setrgbcolor
newpath
181.0156 209.6768 moveto
P$l
fill
0 setlinewidth
[] 0 setdash
0 0 0 setrgbcolor
newpath
190.5078 217.0518 moveto
P$z
fill
0 setlinewidth
[] 0 setdash
0 0 0 setrgbcolor
newpath
195.5938 217.6612 moveto
P$10
fill
0 setlinewidth
[] 0 setdash
0 0 0 setrgbcolor
newpath
106.1094 229.3062 moveto
P$i
fill
0 setlinewidth
[] 0 setdash
0 0 0 setrgbcolor
newpath
115.2031 226.9156 moveto
P$o
111.5469 230.025 moveto
P$p
fill
0 setlinewidth
[] 0 setdash
0 0 0 setrgbcolor
newpath
121.7031 229.3375 moveto
P$m
118.9844 230.5094 moveto
P$n
fill
0 setlinewidth
[] 0 setdash
0 0 0 setrgbcolor
newpath
125.4063 230.7594 moveto
P$j
126.9766 222.814 moveto
P$k
fill
0 setlinewidth
[] 0 setdash
0 0 0 setrgbcolor
newpath
137.2188 230.1656 moveto
P$w
fill
0 setlinewidth
[] 0 setdash
0 0 0 setrgbcolor
newpath
140.3438 227.4625 moveto
P$r
143.7656 230.7594 moveto
P$s
fill
0 setlinewidth
[] 0 setdash
0 0 0 setrgbcolor
newpath
150.7188 229.2125 moveto
P$t
150.7188 226.0875 moveto
P$u
150.7188 226.0875 moveto
P$v
fill
0 setlinewidth
[] 0 setdash
0 0 0 setrgbcolor
newpath
158.2188 230.1656 moveto
P$w
fill
0 setlinewidth
[] 0 setdash
0 0 0 setrgbcolor
newpath
160.4063 230.7594 moveto
P$j
161.9766 222.814 moveto
P$k
fill
0 setlinewidth
[] 0 setdash
0 0 0 setrgbcolor
newpath
170.4844 229.7125 moveto
P$x
167.9688 230.4469 moveto
P$y
fill
0 setlinewidth
[] 0 setdash
0 0 0 setrgbcolor
newpath
174.0156 224.3687 moveto
P$l
fill
0 setlinewidth
[] 0 setdash
0 0 0 setrgbcolor
newpath
183.5078 231.7437 moveto
P$z
fill
0 setlinewidth
[] 0 setdash
0 0 0 setrgbcolor
newpath
188.5938 232.3531 moveto
P$10
fill
0 setlinewidth
[] 0 setdash
0 0 0 setrgbcolor
newpath
106.1094 243.9982 moveto
P$i
fill
0 setlinewidth
[] 0 setdash
0 0 0 setrgbcolor
newpath
115.7188 243.9044 moveto
P$t
115.7188 240.7794 moveto
P$u
115.7188 240.7794 moveto
P$v
fill
0 setlinewidth
[] 0 setdash
0 0 0 setrgbcolor
newpath
122.8125 240.4357 moveto
P$1v
122.9375 240.4357 moveto
P$1w
122.9688 240.4044 moveto
P$1x
fill
0 setlinewidth
[] 0 setdash
0 0 0 setrgbcolor
newpath
129.2031 241.6075 moveto
P$o
125.5469 244.7169 moveto
P$p
fill
0 setlinewidth
[] 0 setdash
0 0 0 setrgbcolor
newpath
135.6875 244.2169 moveto
P$1m
136.5156 239.631 moveto
P$1n
fill
0 setlinewidth
[] 0 setdash
0 0 0 setrgbcolor
newpath
144.2188 244.8575 moveto
P$w
fill
0 setlinewidth
[] 0 setdash
0 0 0 setrgbcolor
newpath
150.2031 241.6075 moveto
P$o
146.5469 244.7169 moveto
P$p
fill
0 setlinewidth
[] 0 setdash
0 0 0 setrgbcolor
newpath
152.4844 246.5763 moveto
P$22
fill
0 setlinewidth
[] 0 setdash
0 0 0 setrgbcolor
newpath
164.7188 243.9044 moveto
P$t
164.7188 240.7794 moveto
P$u
164.7188 240.7794 moveto
P$v
fill
0 setlinewidth
[] 0 setdash
0 0 0 setrgbcolor
newpath
170.4844 244.4044 moveto
P$x
167.9688 245.1388 moveto
P$y
fill
0 setlinewidth
[] 0 setdash
0 0 0 setrgbcolor
newpath
174.0156 239.0607 moveto
P$l
fill
0 setlinewidth
[] 0 setdash
0 0 0 setrgbcolor
newpath
185.9219 237.7169 moveto
P$23
186.0469 237.7325 moveto
P$24
186.0781 237.7013 moveto
P$25
fill
0 setlinewidth
[] 0 setdash
0 0 0 setrgbcolor
newpath
189.3438 242.1544 moveto
P$r
192.7656 245.4513 moveto
P$s
fill
0 setlinewidth
[] 0 setdash
0 0 0 setrgbcolor
newpath
199.7188 243.9044 moveto
P$t
199.7188 240.7794 moveto
P$u
199.7188 240.7794 moveto
P$v
fill
0 setlinewidth
[] 0 setdash
0 0 0 setrgbcolor
newpath
207.2188 244.8575 moveto
P$w
fill
0 setlinewidth
[] 0 setdash
0 0 0 setrgbcolor
newpath
209.4063 245.4513 moveto
P$j
210.9766 237.506 moveto
P$k
fill
0 setlinewidth
[] 0 setdash
0 0 0 setrgbcolor
newpath
219.4844 244.4044 moveto
P$x
216.9688 245.1388 moveto
P$y
fill
0 setlinewidth
[] 0 setdash
0 0 0 setrgbcolor
newpath
223.0156 239.0607 moveto
P$l
fill
0 setlinewidth
[] 0 setdash
0 0 0 setrgbcolor
newpath
232.5078 246.4357 moveto
P$z
fill
0 setlinewidth
[] 0 setdash
0 0 0 setrgbcolor
newpath
237.5938 247.045 moveto
P$10
fill
0 setlinewidth
[] 0 setdash
0 0 0 setrgbcolor
newpath
106.1094 258.6901 moveto
P$i
fill
0 setlinewidth
[] 0 setdash
0 0 0 setrgbcolor
newpath
114.9063 258.8307 moveto
P$1k
110.8438 253.7526 moveto
P$1l
fill
0 setlinewidth
[] 0 setdash
0 0 0 setrgbcolor
newpath
121.4844 259.0963 moveto
P$x
118.9688 259.8307 moveto
P$y
fill
0 setlinewidth
[] 0 setdash
0 0 0 setrgbcolor
newpath
125.5313 258.2682 moveto
P$1h
129.4844 255.3854 moveto
P$1i
129.6563 257.1745 moveto
P$1j
125.4063 258.2682 moveto
P$18
fill
0 setlinewidth
[] 0 setdash
0 0 0 setrgbcolor
newpath
137.2188 259.5495 moveto
P$w
fill
0 setlinewidth
[] 0 setdash
0 0 0 setrgbcolor
newpath
138.4844 261.2682 moveto
P$22
fill
0 setlinewidth
[] 0 setdash
0 0 0 setrgbcolor
newpath
150.7188 258.5963 moveto
P$t
150.7188 255.4713 moveto
P$u
150.7188 255.4713 moveto
P$v
fill
0 setlinewidth
[] 0 setdash
0 0 0 setrgbcolor
newpath
156.4844 259.0963 moveto
P$x
153.9688 259.8307 moveto
P$y
fill
0 setlinewidth
[] 0 setdash
0 0 0 setrgbcolor
newpath
160.0156 253.7526 moveto
P$l
fill
0 setlinewidth
[] 0 setdash
0 0 0 setrgbcolor
newpath
171.9219 252.4088 moveto
P$23
172.0469 252.4245 moveto
P$24
172.0781 252.3932 moveto
P$25
fill
0 setlinewidth
[] 0 setdash
0 0 0 setrgbcolor
newpath
175.3438 256.8463 moveto
P$r
178.7656 260.1432 moveto
P$s
fill
0 setlinewidth
[] 0 setdash
0 0 0 setrgbcolor
newpath
185.7188 258.5963 moveto
P$t
185.7188 255.4713 moveto
P$u
185.7188 255.4713 moveto
P$v
fill
0 setlinewidth
[] 0 setdash
0 0 0 setrgbcolor
newpath
193.2188 259.5495 moveto
P$w
fill
0 setlinewidth
[] 0 setdash
0 0 0 setrgbcolor
newpath
195.4063 260.1432 moveto
P$j
196.9766 252.1979 moveto
P$k
fill
0 setlinewidth
[] 0 setdash
0 0 0 setrgbcolor
newpath
205.4844 259.0963 moveto
P$x
202.9688 259.8307 moveto
P$y
fill
0 setlinewidth
[] 0 setdash
0 0 0 setrgbcolor
newpath
209.0156 253.7526 moveto
P$l
fill
0 setlinewidth
[] 0 setdash
0 0 0 setrgbcolor
newpath
218.5078 261.1276 moveto
P$z
fill
0 setlinewidth
[] 0 setdash
0 0 0 setrgbcolor
newpath
223.5938 261.737 moveto
P$10
fill
0 setlinewidth
[] 0 setdash
0 0 0 setrgbcolor
newpath
106.1094 273.382 moveto
P$i
fill
0 setlinewidth
[] 0 setdash
0 0 0 setrgbcolor
newpath
114.7031 273.4133 moveto
P$m
111.9844 274.5851 moveto
P$n
fill
0 setlinewidth
[] 0 setdash
0 0 0 setrgbcolor
newpath
122.2031 270.9914 moveto
P$o
118.5469 274.1008 moveto
P$p
fill
0 setlinewidth
[] 0 setdash
0 0 0 setrgbcolor
newpath
125.1094 274.8351 moveto
P$1y
fill
0 setlinewidth
[] 0 setdash
0 0 0 setrgbcolor
newpath
136.2031 270.9914 moveto
P$o
132.5469 274.1008 moveto
P$p
fill
0 setlinewidth
[] 0 setdash
0 0 0 setrgbcolor
newpath
144.2188 274.2414 moveto
P$w
fill
0 setlinewidth
[] 0 setdash
0 0 0 setrgbcolor
newpath
150.2031 270.9914 moveto
P$o
146.5469 274.1008 moveto
P$p
fill
0 setlinewidth
[] 0 setdash
0 0 0 setrgbcolor
newpath
152.4844 275.9601 moveto
P$22
fill
0 setlinewidth
[] 0 setdash
0 0 0 setrgbcolor
newpath
164.7188 273.2883 moveto
P$t
164.7188 270.1633 moveto
P$u
164.7188 270.1633 moveto
P$v
fill
0 setlinewidth
[] 0 setdash
0 0 0 setrgbcolor
newpath
170.4844 273.7883 moveto
P$x
167.9688 274.5226 moveto
P$y
fill
0 setlinewidth
[] 0 setdash
0 0 0 setrgbcolor
newpath
174.0156 268.4445 moveto
P$l
fill
0 setlinewidth
[] 0 setdash
0 0 0 setrgbcolor
newpath
185.9219 267.1008 moveto
P$23
186.0469 267.1164 moveto
P$24
186.0781 267.0851 moveto
P$25
fill
0 setlinewidth
[] 0 setdash
0 0 0 setrgbcolor
newpath
189.3438 271.5383 moveto
P$r
192.7656 274.8351 moveto
P$s
fill
0 setlinewidth
[] 0 setdash
0 0 0 setrgbcolor
newpath
199.7188 273.2883 moveto
P$t
199.7188 270.1633 moveto
P$u
199.7188 270.1633 moveto
P$v
fill
0 setlinewidth
[] 0 setdash
0 0 0 setrgbcolor
newpath
207.2188 274.2414 moveto
P$w
fill
0 setlinewidth
[] 0 setdash
0 0 0 setrgbcolor
newpath
209.4063 274.8351 moveto
P$j
210.9766 266.8898 moveto
P$k
fill
0 setlinewidth
[] 0 setdash
0 0 0 setrgbcolor
newpath
219.4844 273.7883 moveto
P$x
216.9688 274.5226 moveto
P$y
fill
0 setlinewidth
[] 0 setdash
0 0 0 setrgbcolor
newpath
223.0156 268.4445 moveto
P$l
fill
0 setlinewidth
[] 0 setdash
0 0 0 setrgbcolor
newpath
232.5078 275.8195 moveto
P$z
fill
0 setlinewidth
[] 0 setdash
0 0 0 setrgbcolor
newpath
237.5938 276.4289 moveto
P$10
fill
0 setlinewidth
[] 0 setdash
0 0 0 setrgbcolor
newpath
106.1094 288.0739 moveto
P$i
fill
0 setlinewidth
[] 0 setdash
0 0 0 setrgbcolor
newpath
114.7031 288.1052 moveto
P$m
111.9844 289.2771 moveto
P$n
fill
0 setlinewidth
[] 0 setdash
0 0 0 setrgbcolor
newpath
122.2031 285.6833 moveto
P$o
118.5469 288.7927 moveto
P$p
fill
0 setlinewidth
[] 0 setdash
0 0 0 setrgbcolor
newpath
125.5313 287.6521 moveto
P$1h
129.4844 284.7692 moveto
P$1i
129.6563 286.5583 moveto
P$1j
125.4063 287.6521 moveto
P$18
fill
0 setlinewidth
[] 0 setdash
0 0 0 setrgbcolor
newpath
137.2188 288.9333 moveto
P$w
fill
0 setlinewidth
[] 0 setdash
0 0 0 setrgbcolor
newpath
142.4844 288.4802 moveto
P$x
139.9688 289.2146 moveto
P$y
fill
0 setlinewidth
[] 0 setdash
0 0 0 setrgbcolor
newpath
150.8125 284.5114 moveto
P$1v
150.9375 284.5114 moveto
P$1w
150.9688 284.4802 moveto
P$1x
fill
0 setlinewidth
[] 0 setdash
0 0 0 setrgbcolor
newpath
156.4844 288.4802 moveto
P$x
153.9688 289.2146 moveto
P$y
fill
0 setlinewidth
[] 0 setdash
0 0 0 setrgbcolor
newpath
159.9063 290.6677 moveto
P$1z
165.2031 283.1364 moveto
P$20
159.7656 290.6677 moveto
P$21
fill
0 setlinewidth
[] 0 setdash
0 0 0 setrgbcolor
newpath
166.4844 290.6521 moveto
P$22
fill
0 setlinewidth
[] 0 setdash
0 0 0 setrgbcolor
newpath
178.7188 287.9802 moveto
P$t
178.7188 284.8552 moveto
P$u
178.7188 284.8552 moveto
P$v
fill
0 setlinewidth
[] 0 setdash
0 0 0 setrgbcolor
newpath
184.4844 288.4802 moveto
P$x
181.9688 289.2146 moveto
P$y
fill
0 setlinewidth
[] 0 setdash
0 0 0 setrgbcolor
newpath
188.0156 283.1364 moveto
P$l
fill
0 setlinewidth
[] 0 setdash
0 0 0 setrgbcolor
newpath
199.9219 281.7927 moveto
P$23
200.0469 281.8083 moveto
P$24
200.0781 281.7771 moveto
P$25
fill
0 setlinewidth
[] 0 setdash
0 0 0 setrgbcolor
newpath
203.3438 286.2302 moveto
P$r
206.7656 289.5271 moveto
P$s
fill
0 setlinewidth
[] 0 setdash
0 0 0 setrgbcolor
newpath
213.7188 287.9802 moveto
P$t
213.7188 284.8552 moveto
P$u
213.7188 284.8552 moveto
P$v
fill
0 setlinewidth
[] 0 setdash
0 0 0 setrgbcolor
newpath
221.2188 288.9333 moveto
P$w
fill
0 setlinewidth
[] 0 setdash
0 0 0 setrgbcolor
newpath
223.4063 289.5271 moveto
P$j
224.9766 281.5817 moveto
P$k
fill
0 setlinewidth
[] 0 setdash
0 0 0 setrgbcolor
newpath
233.4844 288.4802 moveto
P$x
230.9688 289.2146 moveto
P$y
fill
0 setlinewidth
[] 0 setdash
0 0 0 setrgbcolor
newpath
237.0156 283.1364 moveto
P$l
fill
0 setlinewidth
[] 0 setdash
0 0 0 setrgbcolor
newpath
246.5078 290.5114 moveto
P$z
fill
0 setlinewidth
[] 0 setdash
0 0 0 setrgbcolor
newpath
251.5938 291.1208 moveto
P$10
fill
0 setlinewidth
[] 0 setdash
0 0 0 setrgbcolor
newpath
106.1094 302.7659 moveto
P$i
fill
0 setlinewidth
[] 0 setdash
0 0 0 setrgbcolor
newpath
115.7188 302.6721 moveto
P$t
115.7188 299.5471 moveto
P$u
115.7188 299.5471 moveto
P$v
fill
0 setlinewidth
[] 0 setdash
0 0 0 setrgbcolor
newpath
122.8125 299.2034 moveto
P$1v
122.9375 299.2034 moveto
P$1w
122.9688 299.1721 moveto
P$1x
fill
0 setlinewidth
[] 0 setdash
0 0 0 setrgbcolor
newpath
129.2031 300.3752 moveto
P$o
125.5469 303.4846 moveto
P$p
fill
0 setlinewidth
[] 0 setdash
0 0 0 setrgbcolor
newpath
135.6875 302.9846 moveto
P$1m
136.5156 298.3987 moveto
P$1n
fill
0 setlinewidth
[] 0 setdash
0 0 0 setrgbcolor
newpath
144.2188 303.6252 moveto
P$w
fill
0 setlinewidth
[] 0 setdash
0 0 0 setrgbcolor
newpath
150.2031 300.3752 moveto
P$o
146.5469 303.4846 moveto
P$p
fill
0 setlinewidth
[] 0 setdash
0 0 0 setrgbcolor
newpath
152.4844 305.344 moveto
P$22
fill
0 setlinewidth
[] 0 setdash
0 0 0 setrgbcolor
newpath
163.7031 302.7971 moveto
P$m
160.9844 303.969 moveto
P$n
fill
0 setlinewidth
[] 0 setdash
0 0 0 setrgbcolor
newpath
170.4844 303.1721 moveto
P$x
167.9688 303.9065 moveto
P$y
fill
0 setlinewidth
[] 0 setdash
0 0 0 setrgbcolor
newpath
174.0156 297.8284 moveto
P$l
fill
0 setlinewidth
[] 0 setdash
0 0 0 setrgbcolor
newpath
185.2031 300.3752 moveto
P$o
181.5469 303.4846 moveto
P$p
fill
0 setlinewidth
[] 0 setdash
0 0 0 setrgbcolor
newpath
189.3438 300.9221 moveto
P$r
192.7656 304.219 moveto
P$s
fill
0 setlinewidth
[] 0 setdash
0 0 0 setrgbcolor
newpath
199.7188 302.6721 moveto
P$t
199.7188 299.5471 moveto
P$u
199.7188 299.5471 moveto
P$v
fill
0 setlinewidth
[] 0 setdash
0 0 0 setrgbcolor
newpath
207.2188 303.6252 moveto
P$w
fill
0 setlinewidth
[] 0 setdash
0 0 0 setrgbcolor
newpath
209.4063 304.219 moveto
P$j
210.9766 296.2737 moveto
P$k
fill
0 setlinewidth
[] 0 setdash
0 0 0 setrgbcolor
newpath
219.4844 303.1721 moveto
P$x
216.9688 303.9065 moveto
P$y
fill
0 setlinewidth
[] 0 setdash
0 0 0 setrgbcolor
newpath
223.0156 297.8284 moveto
P$l
fill
0 setlinewidth
[] 0 setdash
0 0 0 setrgbcolor
newpath
232.5078 305.2034 moveto
P$z
fill
0 setlinewidth
[] 0 setdash
0 0 0 setrgbcolor
newpath
237.5938 305.8127 moveto
P$10
fill
0 setlinewidth
[] 0 setdash
0 0 0 setrgbcolor
newpath
106.1094 317.4578 moveto
P$i
fill
0 setlinewidth
[] 0 setdash
0 0 0 setrgbcolor
newpath
114.9063 317.5984 moveto
P$1k
110.8438 312.5203 moveto
P$1l
fill
0 setlinewidth
[] 0 setdash
0 0 0 setrgbcolor
newpath
121.4844 317.864 moveto
P$x
118.9688 318.5984 moveto
P$y
fill
0 setlinewidth
[] 0 setdash
0 0 0 setrgbcolor
newpath
125.5313 317.0359 moveto
P$1h
129.4844 314.1531 moveto
P$1i
129.6563 315.9422 moveto
P$1j
125.4063 317.0359 moveto
P$18
fill
0 setlinewidth
[] 0 setdash
0 0 0 setrgbcolor
newpath
137.2188 318.3172 moveto
P$w
fill
0 setlinewidth
[] 0 setdash
0 0 0 setrgbcolor
newpath
138.4844 320.0359 moveto
P$22
fill
0 setlinewidth
[] 0 setdash
0 0 0 setrgbcolor
newpath
149.7031 317.489 moveto
P$m
146.9844 318.6609 moveto
P$n
fill
0 setlinewidth
[] 0 setdash
0 0 0 setrgbcolor
newpath
156.4844 317.864 moveto
P$x
153.9688 318.5984 moveto
P$y
fill
0 setlinewidth
[] 0 setdash
0 0 0 setrgbcolor
newpath
160.0156 312.5203 moveto
P$l
fill
0 setlinewidth
[] 0 setdash
0 0 0 setrgbcolor
newpath
171.2031 315.0672 moveto
P$o
167.5469 318.1765 moveto
P$p
fill
0 setlinewidth
[] 0 setdash
0 0 0 setrgbcolor
newpath
175.3438 315.614 moveto
P$r
178.7656 318.9109 moveto
P$s
fill
0 setlinewidth
[] 0 setdash
0 0 0 setrgbcolor
newpath
185.7188 317.364 moveto
P$t
185.7188 314.239 moveto
P$u
185.7188 314.239 moveto
P$v
fill
0 setlinewidth
[] 0 setdash
0 0 0 setrgbcolor
newpath
193.2188 318.3172 moveto
P$w
fill
0 setlinewidth
[] 0 setdash
0 0 0 setrgbcolor
newpath
195.4063 318.9109 moveto
P$j
196.9766 310.9656 moveto
P$k
fill
0 setlinewidth
[] 0 setdash
0 0 0 setrgbcolor
newpath
205.4844 317.864 moveto
P$x
202.9688 318.5984 moveto
P$y
fill
0 setlinewidth
[] 0 setdash
0 0 0 setrgbcolor
newpath
209.0156 312.5203 moveto
P$l
fill
0 setlinewidth
[] 0 setdash
0 0 0 setrgbcolor
newpath
218.5078 319.8953 moveto
P$z
fill
0 setlinewidth
[] 0 setdash
0 0 0 setrgbcolor
newpath
223.5938 320.5047 moveto
P$10
fill
0 setlinewidth
[] 0 setdash
0 0 0 setrgbcolor
newpath
106.1094 332.1497 moveto
P$i
fill
0 setlinewidth
[] 0 setdash
0 0 0 setrgbcolor
newpath
115.2031 329.7591 moveto
P$o
111.5469 332.8685 moveto
P$p
fill
0 setlinewidth
[] 0 setdash
0 0 0 setrgbcolor
newpath
121.7031 332.181 moveto
P$m
118.9844 333.3528 moveto
P$n
fill
0 setlinewidth
[] 0 setdash
0 0 0 setrgbcolor
newpath
125.4063 333.6028 moveto
P$j
126.9766 325.6575 moveto
P$k
fill
0 setlinewidth
[] 0 setdash
0 0 0 setrgbcolor
newpath
137.2188 333.0091 moveto
P$w
fill
0 setlinewidth
[] 0 setdash
0 0 0 setrgbcolor
newpath
138.4844 334.7278 moveto
P$22
fill
0 setlinewidth
[] 0 setdash
0 0 0 setrgbcolor
newpath
149.7031 332.181 moveto
P$m
146.9844 333.3528 moveto
P$n
fill
0 setlinewidth
[] 0 setdash
0 0 0 setrgbcolor
newpath
156.4844 332.556 moveto
P$x
153.9688 333.2903 moveto
P$y
fill
0 setlinewidth
[] 0 setdash
0 0 0 setrgbcolor
newpath
160.0156 327.2122 moveto
P$l
fill
0 setlinewidth
[] 0 setdash
0 0 0 setrgbcolor
newpath
171.2031 329.7591 moveto
P$o
167.5469 332.8685 moveto
P$p
fill
0 setlinewidth
[] 0 setdash
0 0 0 setrgbcolor
newpath
175.3438 330.306 moveto
P$r
178.7656 333.6028 moveto
P$s
fill
0 setlinewidth
[] 0 setdash
0 0 0 setrgbcolor
newpath
185.7188 332.056 moveto
P$t
185.7188 328.931 moveto
P$u
185.7188 328.931 moveto
P$v
fill
0 setlinewidth
[] 0 setdash
0 0 0 setrgbcolor
newpath
193.2188 333.0091 moveto
P$w
fill
0 setlinewidth
[] 0 setdash
0 0 0 setrgbcolor
newpath
195.4063 333.6028 moveto
P$j
196.9766 325.6575 moveto
P$k
fill
0 setlinewidth
[] 0 setdash
0 0 0 setrgbcolor
newpath
205.4844 332.556 moveto
P$x
202.9688 333.2903 moveto
P$y
fill
0 setlinewidth
[] 0 setdash
0 0 0 setrgbcolor
newpath
209.0156 327.2122 moveto
P$l
fill
0 setlinewidth
[] 0 setdash
0 0 0 setrgbcolor
newpath
218.5078 334.5872 moveto
P$z
fill
0 setlinewidth
[] 0 setdash
0 0 0 setrgbcolor
newpath
223.5938 335.1966 moveto
P$10
fill
0 setlinewidth
[] 0 setdash
0 0 0 setrgbcolor
newpath
106.1094 346.8416 moveto
P$i
fill
0 setlinewidth
[] 0 setdash
0 0 0 setrgbcolor
newpath
114.7031 346.8729 moveto
P$m
111.9844 348.0448 moveto
P$n
fill
0 setlinewidth
[] 0 setdash
0 0 0 setrgbcolor
newpath
122.2031 344.451 moveto
P$o
118.5469 347.5604 moveto
P$p
fill
0 setlinewidth
[] 0 setdash
0 0 0 setrgbcolor
newpath
125.1094 348.2948 moveto
P$1y
fill
0 setlinewidth
[] 0 setdash
0 0 0 setrgbcolor
newpath
136.2031 344.451 moveto
P$o
132.5469 347.5604 moveto
P$p
fill
0 setlinewidth
[] 0 setdash
0 0 0 setrgbcolor
newpath
144.2188 347.701 moveto
P$w
fill
0 setlinewidth
[] 0 setdash
0 0 0 setrgbcolor
newpath
150.2031 344.451 moveto
P$o
146.5469 347.5604 moveto
P$p
fill
0 setlinewidth
[] 0 setdash
0 0 0 setrgbcolor
newpath
152.4844 349.4198 moveto
P$22
fill
0 setlinewidth
[] 0 setdash
0 0 0 setrgbcolor
newpath
163.7031 346.8729 moveto
P$m
160.9844 348.0448 moveto
P$n
fill
0 setlinewidth
[] 0 setdash
0 0 0 setrgbcolor
newpath
170.4844 347.2479 moveto
P$x
167.9688 347.9823 moveto
P$y
fill
0 setlinewidth
[] 0 setdash
0 0 0 setrgbcolor
newpath
174.0156 341.9041 moveto
P$l
fill
0 setlinewidth
[] 0 setdash
0 0 0 setrgbcolor
newpath
185.2031 344.451 moveto
P$o
181.5469 347.5604 moveto
P$p
fill
0 setlinewidth
[] 0 setdash
0 0 0 setrgbcolor
newpath
189.3438 344.9979 moveto
P$r
192.7656 348.2948 moveto
P$s
fill
0 setlinewidth
[] 0 setdash
0 0 0 setrgbcolor
newpath
199.7188 346.7479 moveto
P$t
199.7188 343.6229 moveto
P$u
199.7188 343.6229 moveto
P$v
fill
0 setlinewidth
[] 0 setdash
0 0 0 setrgbcolor
newpath
207.2188 347.701 moveto
P$w
fill
0 setlinewidth
[] 0 setdash
0 0 0 setrgbcolor
newpath
209.4063 348.2948 moveto
P$j
210.9766 340.3494 moveto
P$k
fill
0 setlinewidth
[] 0 setdash
0 0 0 setrgbcolor
newpath
219.4844 347.2479 moveto
P$x
216.9688 347.9823 moveto
P$y
fill
0 setlinewidth
[] 0 setdash
0 0 0 setrgbcolor
newpath
223.0156 341.9041 moveto
P$l
fill
0 setlinewidth
[] 0 setdash
0 0 0 setrgbcolor
newpath
232.5078 349.2791 moveto
P$z
fill
0 setlinewidth
[] 0 setdash
0 0 0 setrgbcolor
newpath
237.5938 349.8885 moveto
P$10
fill
0 setlinewidth
[] 0 setdash
0 0 0 setrgbcolor
newpath
106.1094 361.5336 moveto
P$i
fill
0 setlinewidth
[] 0 setdash
0 0 0 setrgbcolor
newpath
114.7031 361.5648 moveto
P$m
111.9844 362.7367 moveto
P$n
fill
0 setlinewidth
[] 0 setdash
0 0 0 setrgbcolor
newpath
122.2031 359.1429 moveto
P$o
118.5469 362.2523 moveto
P$p
fill
0 setlinewidth
[] 0 setdash
0 0 0 setrgbcolor
newpath
125.5313 361.1117 moveto
P$1h
129.4844 358.2289 moveto
P$1i
129.6563 360.0179 moveto
P$1j
125.4063 361.1117 moveto
P$18
fill
0 setlinewidth
[] 0 setdash
0 0 0 setrgbcolor
newpath
137.2188 362.3929 moveto
P$w
fill
0 setlinewidth
[] 0 setdash
0 0 0 setrgbcolor
newpath
142.4844 361.9398 moveto
P$x
139.9688 362.6742 moveto
P$y
fill
0 setlinewidth
[] 0 setdash
0 0 0 setrgbcolor
newpath
150.8125 357.9711 moveto
P$1v
150.9375 357.9711 moveto
P$1w
150.9688 357.9398 moveto
P$1x
fill
0 setlinewidth
[] 0 setdash
0 0 0 setrgbcolor
newpath
156.4844 361.9398 moveto
P$x
153.9688 362.6742 moveto
P$y
fill
0 setlinewidth
[] 0 setdash
0 0 0 setrgbcolor
newpath
159.9063 364.1273 moveto
P$1z
165.2031 356.5961 moveto
P$20
159.7656 364.1273 moveto
P$21
fill
0 setlinewidth
[] 0 setdash
0 0 0 setrgbcolor
newpath
166.4844 364.1117 moveto
P$22
fill
0 setlinewidth
[] 0 setdash
0 0 0 setrgbcolor
newpath
177.7031 361.5648 moveto
P$m
174.9844 362.7367 moveto
P$n
fill
0 setlinewidth
[] 0 setdash
0 0 0 setrgbcolor
newpath
184.4844 361.9398 moveto
P$x
181.9688 362.6742 moveto
P$y
fill
0 setlinewidth
[] 0 setdash
0 0 0 setrgbcolor
newpath
188.0156 356.5961 moveto
P$l
fill
0 setlinewidth
[] 0 setdash
0 0 0 setrgbcolor
newpath
199.2031 359.1429 moveto
P$o
195.5469 362.2523 moveto
P$p
fill
0 setlinewidth
[] 0 setdash
0 0 0 setrgbcolor
newpath
203.3438 359.6898 moveto
P$r
206.7656 362.9867 moveto
P$s
fill
0 setlinewidth
[] 0 setdash
0 0 0 setrgbcolor
newpath
213.7188 361.4398 moveto
P$t
213.7188 358.3148 moveto
P$u
213.7188 358.3148 moveto
P$v
fill
0 setlinewidth
[] 0 setdash
0 0 0 setrgbcolor
newpath
221.2188 362.3929 moveto
P$w
fill
0 setlinewidth
[] 0 setdash
0 0 0 setrgbcolor
newpath
223.4063 362.9867 moveto
P$j
224.9766 355.0414 moveto
P$k
fill
0 setlinewidth
[] 0 setdash
0 0 0 setrgbcolor
newpath
233.4844 361.9398 moveto
P$x
230.9688 362.6742 moveto
P$y
fill
0 setlinewidth
[] 0 setdash
0 0 0 setrgbcolor
newpath
237.0156 356.5961 moveto
P$l
fill
0 setlinewidth
[] 0 setdash
0 0 0 setrgbcolor
newpath
246.5078 363.9711 moveto
P$z
fill
0 setlinewidth
[] 0 setdash
0 0 0 setrgbcolor
newpath
251.5938 364.5804 moveto
P$10
fill
1 1 1 setrgbcolor
64 48 298 226.5 simplerect
closepath eofill
1.5 setlinewidth
0 0 0 setrgbcolor
64 48 298 226.5 simplerect
closepath stroke
1 1 1 setrgbcolor
newpath
313 242.5 11 0 360 arc
closepath eofill
1.0 setlinewidth
0 0 0 setrgbcolor
newpath
313 242.5 11 0 360 arc
closepath stroke
0 setlinewidth
[] 0 setdash
0 0 0 setrgbcolor
newpath
315.7031 247.9375 moveto
P$0
fill
0 setlinewidth
[] 0 setdash
0 0 0 setrgbcolor
newpath
328.5781 245.2854 moveto
P$26
333.1406 239.4885 moveto
P$27
333.7344 243.1682 moveto
P$28
328.4375 245.2698 moveto
P$29
333.2813 239.5042 moveto
P$2a
fill
0 setlinewidth
[] 0 setdash
0 0 0 setrgbcolor
newpath
336.5938 247.4573 moveto
P$13
338.4063 238.3713 moveto
P$14
fill
0 setlinewidth
[] 0 setdash
0 0 0 setrgbcolor
newpath
348.9219 247.5823 moveto
P$2b
347.7656 243.551 moveto
P$2c
350.1875 240.8792 moveto
P$2d
fill
0 setlinewidth
[] 0 setdash
0 0 0 setrgbcolor
newpath
352.1563 240.1448 moveto
P$2e
fill
1.5 setlinewidth
0 0 0 setrgbcolor
newpath
299 258.5 moveto
62 0 rlineto
stroke
1.5 setlinewidth
0 0 0 setrgbcolor
newpath
299 266.5 moveto
62 0 rlineto
stroke
1 1 1 setrgbcolor
144 106.7677 397 197 simplerect
closepath eofill
1.5 setlinewidth
0 0 0 setrgbcolor
144 106.7677 397 197 simplerect
closepath stroke
1 1 1 setrgbcolor
newpath
412 213 11 0 360 arc
closepath eofill
1.0 setlinewidth
0 0 0 setrgbcolor
newpath
412 213 11 0 360 arc
closepath stroke
0 setlinewidth
[] 0 setdash
0 0 0 setrgbcolor
newpath
414.7031 218.4375 moveto
P$0
fill
0 setlinewidth
[] 0 setdash
0 0 0 setrgbcolor
newpath
427.5781 215.7854 moveto
P$26
432.1406 209.9885 moveto
P$27
432.7344 213.6682 moveto
P$28
427.4375 215.7698 moveto
P$29
432.2813 210.0042 moveto
P$2a
fill
0 setlinewidth
[] 0 setdash
0 0 0 setrgbcolor
newpath
435.5938 217.9573 moveto
P$13
437.4063 208.8713 moveto
P$14
fill
0 setlinewidth
[] 0 setdash
0 0 0 setrgbcolor
newpath
447.9219 218.0823 moveto
P$2b
446.7656 214.051 moveto
P$2c
449.1875 211.3792 moveto
P$2d
fill
0 setlinewidth
[] 0 setdash
0 0 0 setrgbcolor
newpath
451.1563 210.6448 moveto
P$2
fill
0 setlinewidth
[] 0 setdash
0 0 0 setrgbcolor
newpath
463.6484 216.8401 moveto
P$8
464.5156 210.3479 moveto
P$9
fill
0 setlinewidth
[] 0 setdash
0 0 0 setrgbcolor
newpath
471.125 216.7542 moveto
P$a
468.2578 217.6057 moveto
P$b
fill
0 setlinewidth
[] 0 setdash
0 0 0 setrgbcolor
newpath
475.1563 210.6448 moveto
P$2
fill
0 setlinewidth
[] 0 setdash
0 0 0 setrgbcolor
newpath
489.1094 217.2854 moveto
P$c
fill
0 setlinewidth
[] 0 setdash
0 0 0 setrgbcolor
newpath
496.6406 212.2229 moveto
P$d
496.7813 212.2229 moveto
P$e
496.8125 212.176 moveto
P$f
fill
0 setlinewidth
[] 0 setdash
0 0 0 setrgbcolor
newpath
503.125 216.7542 moveto
P$a
500.2578 217.6057 moveto
P$b
fill
0 setlinewidth
[] 0 setdash
0 0 0 setrgbcolor
newpath
507.2656 217.9573 moveto
P$g
fill
0 setlinewidth
[] 0 setdash
0 0 0 setrgbcolor
newpath
515.2656 217.9573 moveto
P$g
fill
0 setlinewidth
[] 0 setdash
0 0 0 setrgbcolor
newpath
527.9531 213.5667 moveto
P$5
523.7656 217.1292 moveto
P$6
fill
0 setlinewidth
[] 0 setdash
0 0 0 setrgbcolor
newpath
536.6406 212.2229 moveto
P$d
536.7813 212.2229 moveto
P$e
536.8125 212.176 moveto
P$h
fill
1.5 setlinewidth
0 0 0 setrgbcolor
newpath
398 229 moveto
142 0 rlineto
stroke
1.5 setlinewidth
0 0 0 setrgbcolor
newpath
398 237 moveto
142 0 rlineto
stroke
0 setlinewidth
[] 0 setdash
0 0 0 setrgbcolor
newpath
406.1094 251.2305 moveto
P$i
fill
0 setlinewidth
[] 0 setdash
0 0 0 setrgbcolor
newpath
411.4063 252.6836 moveto
P$j
412.9766 244.7383 moveto
P$k
fill
0 setlinewidth
[] 0 setdash
0 0 0 setrgbcolor
newpath
418.0156 246.293 moveto
P$l
fill
0 setlinewidth
[] 0 setdash
0 0 0 setrgbcolor
newpath
426.3438 249.3867 moveto
P$r
429.7656 252.6836 moveto
P$s
fill
0 setlinewidth
[] 0 setdash
0 0 0 setrgbcolor
newpath
436.7188 251.1367 moveto
P$t
436.7188 248.0117 moveto
P$u
436.7188 248.0117 moveto
P$v
fill
0 setlinewidth
[] 0 setdash
0 0 0 setrgbcolor
newpath
444.2188 252.0898 moveto
P$w
fill
0 setlinewidth
[] 0 setdash
0 0 0 setrgbcolor
newpath
446.4063 252.6836 moveto
P$j
447.9766 244.7383 moveto
P$k
fill
0 setlinewidth
[] 0 setdash
0 0 0 setrgbcolor
newpath
456.4844 251.6367 moveto
P$x
453.9688 252.3711 moveto
P$y
fill
0 setlinewidth
[] 0 setdash
0 0 0 setrgbcolor
newpath
460.0156 246.293 moveto
P$l
fill
0 setlinewidth
[] 0 setdash
0 0 0 setrgbcolor
newpath
469.5078 253.668 moveto
P$z
fill
0 setlinewidth
[] 0 setdash
0 0 0 setrgbcolor
newpath
474.5938 254.2773 moveto
P$10
fill
0 setlinewidth
[] 0 setdash
0 0 0 setrgbcolor
newpath
406.1094 265.9224 moveto
P$i
fill
0 setlinewidth
[] 0 setdash
0 0 0 setrgbcolor
newpath
411.4844 266.7818 moveto
P$2f
fill
0 setlinewidth
[] 0 setdash
0 0 0 setrgbcolor
newpath
421.9063 266.063 moveto
P$1k
417.8438 260.9849 moveto
P$1l
fill
0 setlinewidth
[] 0 setdash
0 0 0 setrgbcolor
newpath
426.3438 264.0786 moveto
P$r
429.7656 267.3755 moveto
P$s
fill
0 setlinewidth
[] 0 setdash
0 0 0 setrgbcolor
newpath
436.7188 265.8286 moveto
P$t
436.7188 262.7036 moveto
P$u
436.7188 262.7036 moveto
P$v
fill
0 setlinewidth
[] 0 setdash
0 0 0 setrgbcolor
newpath
444.2188 266.7818 moveto
P$w
fill
0 setlinewidth
[] 0 setdash
0 0 0 setrgbcolor
newpath
446.4063 267.3755 moveto
P$j
447.9766 259.4302 moveto
P$k
fill
0 setlinewidth
[] 0 setdash
0 0 0 setrgbcolor
newpath
456.4844 266.3286 moveto
P$x
453.9688 267.063 moveto
P$y
fill
0 setlinewidth
[] 0 setdash
0 0 0 setrgbcolor
newpath
460.0156 260.9849 moveto
P$l
fill
0 setlinewidth
[] 0 setdash
0 0 0 setrgbcolor
newpath
469.5078 268.3599 moveto
P$z
fill
0 setlinewidth
[] 0 setdash
0 0 0 setrgbcolor
newpath
474.5938 268.9693 moveto
P$10
fill
0 setlinewidth
[] 0 setdash
0 0 0 setrgbcolor
newpath
406.1094 280.6143 moveto
P$i
fill
0 setlinewidth
[] 0 setdash
0 0 0 setrgbcolor
newpath
411.4844 281.4737 moveto
P$2f
fill
0 setlinewidth
[] 0 setdash
0 0 0 setrgbcolor
newpath
421.9063 280.7549 moveto
P$1k
417.8438 275.6768 moveto
P$1l
fill
0 setlinewidth
[] 0 setdash
0 0 0 setrgbcolor
newpath
424.4844 283.1924 moveto
P$22
fill
0 setlinewidth
[] 0 setdash
0 0 0 setrgbcolor
newpath
436.7188 280.5206 moveto
P$t
436.7188 277.3956 moveto
P$u
436.7188 277.3956 moveto
P$v
fill
0 setlinewidth
[] 0 setdash
0 0 0 setrgbcolor
newpath
442.4844 281.0206 moveto
P$x
439.9688 281.7549 moveto
P$y
fill
0 setlinewidth
[] 0 setdash
0 0 0 setrgbcolor
newpath
446.0156 275.6768 moveto
P$l
fill
0 setlinewidth
[] 0 setdash
0 0 0 setrgbcolor
newpath
457.9219 274.3331 moveto
P$23
458.0469 274.3487 moveto
P$24
458.0781 274.3174 moveto
P$25
fill
0 setlinewidth
[] 0 setdash
0 0 0 setrgbcolor
newpath
461.3438 278.7706 moveto
P$r
464.7656 282.0674 moveto
P$s
fill
0 setlinewidth
[] 0 setdash
0 0 0 setrgbcolor
newpath
471.7188 280.5206 moveto
P$t
471.7188 277.3956 moveto
P$u
471.7188 277.3956 moveto
P$v
fill
0 setlinewidth
[] 0 setdash
0 0 0 setrgbcolor
newpath
479.2188 281.4737 moveto
P$w
fill
0 setlinewidth
[] 0 setdash
0 0 0 setrgbcolor
newpath
481.4063 282.0674 moveto
P$j
482.9766 274.1221 moveto
P$k
fill
0 setlinewidth
[] 0 setdash
0 0 0 setrgbcolor
newpath
491.4844 281.0206 moveto
P$x
488.9688 281.7549 moveto
P$y
fill
0 setlinewidth
[] 0 setdash
0 0 0 setrgbcolor
newpath
495.0156 275.6768 moveto
P$l
fill
0 setlinewidth
[] 0 setdash
0 0 0 setrgbcolor
newpath
504.5078 283.0518 moveto
P$z
fill
0 setlinewidth
[] 0 setdash
0 0 0 setrgbcolor
newpath
509.5938 283.6612 moveto
P$10
fill
0 setlinewidth
[] 0 setdash
0 0 0 setrgbcolor
newpath
406.1094 295.3062 moveto
P$i
fill
0 setlinewidth
[] 0 setdash
0 0 0 setrgbcolor
newpath
411.4844 296.1656 moveto
P$2f
fill
0 setlinewidth
[] 0 setdash
0 0 0 setrgbcolor
newpath
421.9063 295.4469 moveto
P$1k
417.8438 290.3687 moveto
P$1l
fill
0 setlinewidth
[] 0 setdash
0 0 0 setrgbcolor
newpath
424.4844 297.8844 moveto
P$22
fill
0 setlinewidth
[] 0 setdash
0 0 0 setrgbcolor
newpath
432.5313 294.8844 moveto
P$1h
436.4844 292.0015 moveto
P$1i
436.6563 293.7906 moveto
P$1j
432.4063 294.8844 moveto
P$18
fill
0 setlinewidth
[] 0 setdash
0 0 0 setrgbcolor
newpath
443.2031 292.9156 moveto
P$o
439.5469 296.025 moveto
P$p
fill
0 setlinewidth
[] 0 setdash
0 0 0 setrgbcolor
newpath
446.0156 290.3687 moveto
P$l
fill
0 setlinewidth
[] 0 setdash
0 0 0 setrgbcolor
newpath
458.2188 296.1656 moveto
P$w
fill
0 setlinewidth
[] 0 setdash
0 0 0 setrgbcolor
newpath
461.3438 293.4625 moveto
P$r
464.7656 296.7594 moveto
P$s
fill
0 setlinewidth
[] 0 setdash
0 0 0 setrgbcolor
newpath
471.7188 295.2125 moveto
P$t
471.7188 292.0875 moveto
P$u
471.7188 292.0875 moveto
P$v
fill
0 setlinewidth
[] 0 setdash
0 0 0 setrgbcolor
newpath
479.2188 296.1656 moveto
P$w
fill
0 setlinewidth
[] 0 setdash
0 0 0 setrgbcolor
newpath
481.4063 296.7594 moveto
P$j
482.9766 288.814 moveto
P$k
fill
0 setlinewidth
[] 0 setdash
0 0 0 setrgbcolor
newpath
491.4844 295.7125 moveto
P$x
488.9688 296.4469 moveto
P$y
fill
0 setlinewidth
[] 0 setdash
0 0 0 setrgbcolor
newpath
495.0156 290.3687 moveto
P$l
fill
0 setlinewidth
[] 0 setdash
0 0 0 setrgbcolor
newpath
504.5078 297.7437 moveto
P$z
fill
0 setlinewidth
[] 0 setdash
0 0 0 setrgbcolor
newpath
509.5938 298.3531 moveto
P$10
fill
1 1 1 setrgbcolor
144 62.6919 258 430 simplerect
closepath eofill
1.5 setlinewidth
0 0 0 setrgbcolor
144 62.6919 258 430 simplerect
closepath stroke
1 1 1 setrgbcolor
newpath
273 446 11 0 360 arc
closepath eofill
1.0 setlinewidth
0 0 0 setrgbcolor
newpath
273 446 11 0 360 arc
closepath stroke
0 setlinewidth
[] 0 setdash
0 0 0 setrgbcolor
newpath
275.7031 451.4375 moveto
P$0
fill
0 setlinewidth
[] 0 setdash
0 0 0 setrgbcolor
newpath
290.3281 450.9573 moveto
P$2g
fill
0 setlinewidth
[] 0 setdash
0 0 0 setrgbcolor
newpath
300.9531 446.5667 moveto
P$5
296.7656 450.1292 moveto
P$6
fill
0 setlinewidth
[] 0 setdash
0 0 0 setrgbcolor
newpath
303.6094 443.6448 moveto
P$2h
fill
0 setlinewidth
[] 0 setdash
0 0 0 setrgbcolor
newpath
316.5938 449.4573 moveto
P$19
311.9531 443.6448 moveto
P$1a
fill
0 setlinewidth
[] 0 setdash
0 0 0 setrgbcolor
newpath
320.2656 450.9573 moveto
P$g
fill
0 setlinewidth
[] 0 setdash
0 0 0 setrgbcolor
newpath
332.3594 449.551 moveto
P$1b
333.3047 444.301 moveto
P$1c
fill
0 setlinewidth
[] 0 setdash
0 0 0 setrgbcolor
newpath
342.1094 450.2854 moveto
P$c
fill
0 setlinewidth
[] 0 setdash
0 0 0 setrgbcolor
newpath
348.9531 446.5667 moveto
P$5
344.7656 450.1292 moveto
P$6
fill
0 setlinewidth
[] 0 setdash
0 0 0 setrgbcolor
newpath
351.9375 450.9573 moveto
P$2i
fill
0 setlinewidth
[] 0 setdash
0 0 0 setrgbcolor
newpath
360.1563 443.6448 moveto
P$2
fill
0 setlinewidth
[] 0 setdash
0 0 0 setrgbcolor
newpath
372.9219 451.0823 moveto
P$2b
371.7656 447.051 moveto
P$2c
374.1875 444.3792 moveto
P$2d
fill
0 setlinewidth
[] 0 setdash
0 0 0 setrgbcolor
newpath
376.5938 450.9573 moveto
P$13
378.4063 441.8713 moveto
P$14
fill
0 setlinewidth
[] 0 setdash
0 0 0 setrgbcolor
newpath
384.1563 443.6448 moveto
P$2
fill
0 setlinewidth
[] 0 setdash
0 0 0 setrgbcolor
newpath
396.9531 446.5667 moveto
P$5
392.7656 450.1292 moveto
P$2j
fill
1.5 setlinewidth
0 0 0 setrgbcolor
newpath
259 462 moveto
142 0 rlineto
stroke
1.5 setlinewidth
0 0 0 setrgbcolor
newpath
259 470 moveto
142 0 rlineto
stroke
0 setlinewidth
[] 0 setdash
0 0 0 setrgbcolor
newpath
267.1094 484.2305 moveto
P$i
fill
0 setlinewidth
[] 0 setdash
0 0 0 setrgbcolor
newpath
272.5313 483.8086 moveto
P$1h
276.4844 480.9258 moveto
P$1i
276.6563 482.7148 moveto
P$1j
272.4063 483.8086 moveto
P$18
fill
0 setlinewidth
[] 0 setdash
0 0 0 setrgbcolor
newpath
279.0156 476.3711 moveto
P$1o
fill
0 setlinewidth
[] 0 setdash
0 0 0 setrgbcolor
newpath
289.4844 484.6367 moveto
P$x
286.9688 485.3711 moveto
P$y
fill
0 setlinewidth
[] 0 setdash
0 0 0 setrgbcolor
newpath
292.2188 479.293 moveto
P$2k
fill
0 setlinewidth
[] 0 setdash
0 0 0 setrgbcolor
newpath
302.5078 486.668 moveto
P$z
fill
0 setlinewidth
[] 0 setdash
0 0 0 setrgbcolor
newpath
307.5938 487.2773 moveto
P$10
fill
1.0 setlinewidth
0 0 0 setrgbcolor
newpath
191.233 84.36 moveto
192.084 94.389 192.695 105.556 193.067 117.222 curveto
stroke
0 0 0 setrgbcolor
newpath
193.385 130.571 moveto
3.7843 -9.0928 rlineto
-3.9035 4.0942 rlineto
-4.0942 -3.9035 rlineto
4.2135 8.9021 rlineto
193.385 130.571 lineto
closepath eofill
1.0 setlinewidth
0 0 0 setrgbcolor
newpath
193.385 130.571 moveto
3.7843 -9.0928 rlineto
-3.9035 4.0942 rlineto
-4.0942 -3.9035 rlineto
4.2135 8.9021 rlineto
193.385 130.571 lineto
closepath stroke
1.0 setlinewidth
0 0 0 setrgbcolor
newpath
193.2658 125.5724 moveto
-0.1908 -7.9979 rlineto
stroke
1 1 1 setrgbcolor
newpath
189.911 71.339 moveto
-3.3737 6.3733 rlineto
4.5855 5.5654 rlineto
3.3737 -6.3733 rlineto
-4.5855 -5.5654 rlineto
189.911 71.339 lineto
closepath eofill
1.0 setlinewidth
0 0 0 setrgbcolor
newpath
189.911 71.339 moveto
-3.3737 6.3733 rlineto
4.5855 5.5654 rlineto
3.3737 -6.3733 rlineto
-4.5855 -5.5654 rlineto
189.911 71.339 lineto
closepath stroke
1.0 setlinewidth
0 0 0 setrgbcolor
newpath
261.424 39.5 moveto
271.177 39.5 280.929 39.5 290.682 39.5 curveto
stroke
0 0 0 setrgbcolor
newpath
256.324 39.5 moveto
9 4 rlineto
-4 -4 rlineto
4 -4 rlineto
-9 4 rlineto
256.324 39.5 lineto
closepath eofill
1.0 setlinewidth
0 0 0 setrgbcolor
newpath
256.324 39.5 moveto
9 4 rlineto
-4 -4 rlineto
4 -4 rlineto
-9 4 rlineto
256.324 39.5 lineto
closepath stroke
1.0 setlinewidth
0 0 0 setrgbcolor
newpath
322.359 71.339 moveto
307.287 90.201 287.01 115.577 266.492 141.255 curveto
stroke
0 0 0 setrgbcolor
newpath
263.198 145.378 moveto
8.7435 -4.5333 rlineto
-5.6219 0.6275 rlineto
-0.6275 -5.6219 rlineto
-2.4941 9.5278 rlineto
263.198 145.378 lineto
closepath eofill
1.0 setlinewidth
0 0 0 setrgbcolor
newpath
263.198 145.378 moveto
8.7435 -4.5333 rlineto
-5.6219 0.6275 rlineto
-0.6275 -5.6219 rlineto
-2.4941 9.5278 rlineto
263.198 145.378 lineto
closepath stroke
1.0 setlinewidth
0 0 0 setrgbcolor
newpath
365.002 71.339 moveto
383.472 102.981 412.645 152.958 435.399 191.937 curveto
stroke
0 0 0 setrgbcolor
newpath
438.14 196.634 moveto
-1.0835 -9.7891 rlineto
-1.4375 5.4712 rlineto
-5.4712 -1.4375 rlineto
7.9922 5.7554 rlineto
438.14 196.634 lineto
closepath eofill
1.0 setlinewidth
0 0 0 setrgbcolor
newpath
438.14 196.634 moveto
-1.0835 -9.7891 rlineto
-1.4375 5.4712 rlineto
-5.4712 -1.4375 rlineto
7.9922 5.7554 rlineto
438.14 196.634 lineto
closepath stroke
1.0 setlinewidth
0 0 0 setrgbcolor
newpath
75.4386 250.5 moveto
78.1004 250.5 80.7622 250.5 83.4241 250.5 curveto
stroke
1 1 1 setrgbcolor
newpath
96.7333 250.5 moveto
-6 -4 rlineto
-6 4 rlineto
6 4 rlineto
6 -4 rlineto
96.7333 250.5 lineto
closepath eofill
1.0 setlinewidth
0 0 0 setrgbcolor
newpath
96.7333 250.5 moveto
-6 -4 rlineto
-6 4 rlineto
6 4 rlineto
6 -4 rlineto
96.7333 250.5 lineto
closepath stroke
0 0 0 setrgbcolor
newpath
62.2305 250.5 moveto
9 4 rlineto
-4 -4 rlineto
4 -4 rlineto
-9 4 rlineto
62.2305 250.5 lineto
closepath eofill
1.0 setlinewidth
0 0 0 setrgbcolor
newpath
62.2305 250.5 moveto
9 4 rlineto
-4 -4 rlineto
4 -4 rlineto
-9 4 rlineto
62.2305 250.5 lineto
closepath stroke
1.0 setlinewidth
0 0 0 setrgbcolor
newpath
67.2305 250.5 moveto
8 0 rlineto
stroke
1.0 setlinewidth
0 0 0 setrgbcolor
newpath
270.858 378.096 moveto
281.439 392.838 291.578 406.9657 300.381 419.231 curveto
stroke
0 0 0 setrgbcolor
newpath
308.064 429.9357 moveto
-1.998 -9.6441 rlineto
-0.9174 5.582 rlineto
-5.582 -0.9174 rlineto
8.4974 4.9794 rlineto
308.064 429.9357 lineto
closepath eofill
1.0 setlinewidth
0 0 0 setrgbcolor
newpath
308.064 429.9357 moveto
-1.998 -9.6441 rlineto
-0.9174 5.582 rlineto
-5.582 -0.9174 rlineto
8.4974 4.9794 rlineto
308.064 429.9357 lineto
closepath stroke
1.0 setlinewidth
0 0 0 setrgbcolor
newpath
305.1486 425.8736 moveto
-4.6651 -6.4994 rlineto
stroke
1 1 1 setrgbcolor
newpath
263.116 367.308 moveto
0.2488 7.2068 rlineto
6.7481 2.5422 rlineto
-0.2488 -7.2068 rlineto
-6.7481 -2.5422 rlineto
263.116 367.308 lineto
closepath eofill
1.0 setlinewidth
0 0 0 setrgbcolor
newpath
263.116 367.308 moveto
0.2488 7.2068 rlineto
6.7481 2.5422 rlineto
-0.2488 -7.2068 rlineto
-6.7481 -2.5422 rlineto
263.116 367.308 lineto
closepath stroke
1.0 setlinewidth
0 0 0 setrgbcolor
newpath
375.04 250.5 moveto
377.862 250.5 380.685 250.5 383.507 250.5 curveto
stroke
1 1 1 setrgbcolor
newpath
396.715 250.5 moveto
-6 -4 rlineto
-6 4 rlineto
6 4 rlineto
6 -4 rlineto
396.715 250.5 lineto
closepath eofill
1.0 setlinewidth
0 0 0 setrgbcolor
newpath
396.715 250.5 moveto
-6 -4 rlineto
-6 4 rlineto
6 4 rlineto
6 -4 rlineto
396.715 250.5 lineto
closepath stroke
0 0 0 setrgbcolor
newpath
362.035 250.5 moveto
9 4 rlineto
-4 -4 rlineto
4 -4 rlineto
-9 4 rlineto
362.035 250.5 lineto
closepath eofill
1.0 setlinewidth
0 0 0 setrgbcolor
newpath
362.035 250.5 moveto
9 4 rlineto
-4 -4 rlineto
4 -4 rlineto
-9 4 rlineto
362.035 250.5 lineto
closepath stroke
1.0 setlinewidth
0 0 0 setrgbcolor
newpath
367.035 250.5 moveto
8 0 rlineto
stroke
1.0 setlinewidth
0 0 0 setrgbcolor
newpath
426.616 315.228 moveto
404.286 348.804 377.527 389.039 357.838 418.6429 curveto
stroke
0 0 0 setrgbcolor
newpath
350.398 429.8297 moveto
8.3147 -5.2787 rlineto
-5.5458 1.1155 rlineto
-1.1155 -5.5458 rlineto
-1.6535 9.7091 rlineto
350.398 429.8297 lineto
closepath eofill
1.0 setlinewidth
0 0 0 setrgbcolor
newpath
350.398 429.8297 moveto
8.3147 -5.2787 rlineto
-5.5458 1.1155 rlineto
-1.1155 -5.5458 rlineto
-1.6535 9.7091 rlineto
350.398 429.8297 lineto
closepath stroke
1.0 setlinewidth
0 0 0 setrgbcolor
newpath
353.167 425.6664 moveto
4.4305 -6.6613 rlineto
stroke
1 1 1 setrgbcolor
newpath
433.924 304.24 moveto
-6.6535 2.7804 rlineto
0.0075 7.2111 rlineto
6.6535 -2.7804 rlineto
-0.0075 -7.2111 rlineto
433.924 304.24 lineto
closepath eofill
1.0 setlinewidth
0 0 0 setrgbcolor
newpath
433.924 304.24 moveto
-6.6535 2.7804 rlineto
0.0075 7.2111 rlineto
6.6535 -2.7804 rlineto
-0.0075 -7.2111 rlineto
433.924 304.24 lineto
closepath stroke
grestore
showpage
%plantuml done
%%EOF
