\contentsline {section}{\numberline {1}制作物の概要}{1}
\contentsline {section}{\numberline {2}機能要件}{1}
\contentsline {subsection}{\numberline {2.1}ユースケース図}{1}
\contentsline {subsection}{\numberline {2.2}ユースケース記述}{2}
\contentsline {section}{\numberline {3}外部インタフェース要求}{3}
\contentsline {subsection}{\numberline {3.1}ユーザインタフェース}{3}
\contentsline {subsubsection}{\numberline {3.1.1}デザイン仕様}{3}
\contentsline {subsubsection}{\numberline {3.1.2}画面遷移の概要}{3}
\contentsline {subsubsection}{\numberline {3.1.3}画面遷移図}{3}
\contentsline {section}{参考文献}{3}
