\relax 
\@writefile{toc}{\contentsline {section}{\numberline {1}制作物の概要}{1}}
\@writefile{toc}{\contentsline {section}{\numberline {2}機能要件}{1}}
\@writefile{toc}{\contentsline {subsection}{\numberline {2.1}ユースケース図}{1}}
\newlabel{usecase}{{2.1}{1}}
\gdef \LT@i {\LT@entry 
    {1}{112.00015pt}\LT@entry 
    {1}{312.00046pt}}
\gdef \LT@ii {\LT@entry 
    {1}{112.00015pt}\LT@entry 
    {1}{312.00046pt}}
\gdef \LT@iii {\LT@entry 
    {1}{112.00015pt}\LT@entry 
    {1}{312.00046pt}}
\gdef \LT@iv {\LT@entry 
    {1}{112.00015pt}\LT@entry 
    {1}{312.00046pt}}
\@writefile{toc}{\contentsline {subsection}{\numberline {2.2}ユースケース記述}{2}}
\gdef \LT@v {\LT@entry 
    {1}{112.00015pt}\LT@entry 
    {1}{312.00046pt}}
\bibcite{kmd}{1}
\bibcite{goto}{2}
\@writefile{toc}{\contentsline {section}{\numberline {3}外部インタフェース要求}{3}}
\@writefile{toc}{\contentsline {subsection}{\numberline {3.1}ユーザインタフェース}{3}}
\@writefile{toc}{\contentsline {subsubsection}{\numberline {3.1.1}デザイン仕様}{3}}
\@writefile{toc}{\contentsline {subsubsection}{\numberline {3.1.2}画面遷移の概要}{3}}
\@writefile{toc}{\contentsline {subsubsection}{\numberline {3.1.3}画面遷移図}{3}}
\newlabel{usecase}{{3.1.3}{3}}
\@writefile{toc}{\contentsline {section}{参考文献}{3}}
\bibcite{rmshd}{3}
\bibcite{rmshd}{4}
\bibcite{puml_color}{5}
\bibcite{puml_color}{6}
