\relax 
\@writefile{toc}{\contentsline {section}{\numberline {1}概要}{1}}
\@writefile{toc}{\contentsline {section}{\numberline {2}ファイル構成}{1}}
\gdef \LT@i {\LT@entry 
    {1}{112.00015pt}\LT@entry 
    {1}{312.00046pt}}
\gdef \LT@ii {\LT@entry 
    {1}{112.00015pt}\LT@entry 
    {1}{312.00046pt}}
\gdef \LT@iii {\LT@entry 
    {1}{112.00015pt}\LT@entry 
    {1}{312.00046pt}}
\gdef \LT@iv {\LT@entry 
    {1}{112.00015pt}\LT@entry 
    {1}{312.00046pt}}
\gdef \LT@v {\LT@entry 
    {1}{112.00015pt}\LT@entry 
    {1}{312.00046pt}}
\gdef \LT@vi {\LT@entry 
    {1}{112.00015pt}\LT@entry 
    {1}{312.00046pt}}
\gdef \LT@vii {\LT@entry 
    {1}{112.00015pt}\LT@entry 
    {1}{312.00046pt}}
\@writefile{toc}{\contentsline {section}{\numberline {3}クラス構成}{2}}
\@writefile{toc}{\contentsline {subsection}{\numberline {3.1}クラス一覧}{2}}
\gdef \LT@viii {\LT@entry 
    {1}{162.00023pt}\LT@entry 
    {1}{42.00005pt}\LT@entry 
    {1}{72.00009pt}\LT@entry 
    {1}{172.00024pt}}
\@writefile{toc}{\contentsline {subsection}{\numberline {3.2}関数定義}{3}}
\@writefile{toc}{\contentsline {subsection}{\numberline {3.3}クラス図}{4}}
\newlabel{usecase}{{3.3}{4}}
\@writefile{toc}{\contentsline {subsection}{\numberline {3.4}画面遷移図とクラス関数の対応図}{4}}
\newlabel{usecase}{{3.4}{4}}
\bibcite{kmd}{1}
\@writefile{toc}{\contentsline {section}{\numberline {4}データ設計}{5}}
\@writefile{toc}{\contentsline {subsection}{\numberline {4.1}会員データベース}{5}}
\@writefile{toc}{\contentsline {section}{参考文献}{5}}
