\contentsline {section}{\numberline {1}概要}{1}
\contentsline {section}{\numberline {2}ファイル構成}{1}
\contentsline {section}{\numberline {3}クラス構成}{2}
\contentsline {subsection}{\numberline {3.1}クラス一覧}{2}
\contentsline {subsection}{\numberline {3.2}関数定義}{3}
\contentsline {subsection}{\numberline {3.3}クラス図}{4}
\contentsline {subsection}{\numberline {3.4}画面遷移図とクラス関数の対応図}{4}
\contentsline {section}{\numberline {4}データ設計}{5}
\contentsline {subsection}{\numberline {4.1}会員データベース}{5}
\contentsline {section}{参考文献}{5}
