%!PS-Adobe-3.0 EPSF-3.0
%%Creator: PlantUML v1.2017.15      
%%Title: noTitle
%%BoundingBox: 0 0 423 256
%%ColorUsage: Color
%%Origin: 0 0
%%EndComments

gsave
0 256 translate
1 -1 scale
/roundrect {
newpath
dup 3 index add 2 index 2 index add 2 index 180 270 arc
2 index 5 index add 1 index sub 2 index 2 index add 2 index 270 0 arc
2 index 5 index add 1 index sub 2 index 5 index add 2 index sub 2 index 0 90 arc
dup 3 index add 2 index 5 index add 2 index sub 2 index 90 180 arc
pop pop pop pop pop 
} def
/rquadto {
3 index 3 index 4 2 roll rcurveto
} def
/P$k {
1.9375 -0.3125 2.75 -2.2188 rquadto
0.3281 -0.8281 0.4063 -1.8438 rquadto
0.8125 0.0938 rlineto
-0.2344 2.625 -1.8438 3.8906 rquadto
-1.1719 0.9219 -2.8281 0.9219 rquadto
-0.1719 0 rlineto
0 -8.3438 rlineto
0.875 0 rlineto
0 7.5 rlineto
} def
/P$1 {
0 -0.7344 rlineto
5.9688 0 rlineto
0 0.7344 rlineto
-1 1.0313 -2.4219 1.9375 rquadto
0 0.3906 rlineto
4.375 0 rlineto
0 0.75 rlineto
-4.375 0 rlineto
0 2.0313 rlineto
0 0.7813 -0.1719 0.9688 rquadto
-0.2031 0.2031 -1 0.2188 rquadto
-0.1406 0 rlineto
-0.5469 0 -1.7188 -0.0469 rquadto
-0.0156 -0.7656 rlineto
1.3906 0.0625 1.6563 0.0469 rquadto
0.4219 0 0.4688 -0.0781 rquadto
0.0625 -0.1094 0.0469 -0.4375 rquadto
0 -1.9375 rlineto
-4.6406 0 rlineto
0 -0.75 rlineto
4.6406 0 rlineto
0 -1.0313 rlineto
0.4375 0 rlineto
0.8594 -0.5625 1.7188 -1.2969 rquadto
-4.8281 0 rlineto
closepath
} def
/P$23 {
0.9063 -0.3125 rlineto
1.4844 2.7813 1.7188 6.75 rquadto
0.0313 0.625 0.0313 1.2344 rquadto
-0.9688 0 rlineto
0 -3.6406 -1.2031 -6.6719 rquadto
-0.0781 -0.1563 -0.4844 -1 rquadto
closepath
} def
/P$n {
0.0156 -0.0313 rlineto
0.0469 0.0781 rlineto
-0.0156 -0.0156 rlineto
-0.0313 -0.0313 -0.0469 -0.0313 rquadto
closepath
} def
/P$j {
0.875 0 rlineto
0 2.1563 rlineto
0 3.125 -0.5625 4.4219 rquadto
-0.4063 0.9688 -1.4375 1.5625 rquadto
-0.3906 0.2188 -0.5 0.2656 rquadto
-0.4375 -0.7188 rlineto
1 -0.4844 1.3906 -1.1094 rquadto
0.5469 -0.8281 0.6406 -2.9063 rquadto
0.0313 -0.6563 0.0313 -1.5156 rquadto
0 -2.1563 rlineto
} def
/P$11 {
6.4688 0 rlineto
0 -6.1563 rlineto
-6.4688 0 rlineto
0 6.1563 rlineto
} def
/P$28 {
0 -0.6875 0.2656 -1.1094 rquadto
0.2188 -0.3906 0.7344 -0.9063 rquadto
0.5 -0.5 0.7188 -0.8594 rquadto
0.2344 -0.4063 0.2344 -1.0313 rquadto
0 -0.625 -0.4375 -1 rquadto
-0.4531 -0.3906 -1.1094 -0.3906 rquadto
-0.625 0 -1.0938 0.1875 rquadto
-0.4531 0.1875 -0.6094 0.4219 rquadto
-0.2656 0.4063 -0.2656 0.4844 rquadto
0 0.0156 0.0625 0 rquadto
0.0313 -0.0156 0.0469 0.0156 rquadto
-0.0313 0.0938 rlineto
-0.125 -0.0781 rlineto
-0.6563 -0.5313 rlineto
0.4844 -0.7188 1.1094 -1.0938 rquadto
0.625 -0.3594 1.5938 -0.3594 rquadto
1.1406 0 1.8125 0.5859 rquadto
0.6719 0.5859 0.6719 1.6016 rquadto
0 0.7813 -0.2813 1.2656 rquadto
-0.25 0.4375 -0.8125 0.9844 rquadto
-0.4688 0.4844 -0.6719 0.8125 rquadto
-0.2188 0.375 -0.2188 0.9063 rquadto
0 0.5625 rlineto
-0.9375 0 rlineto
0 -0.5625 rlineto
closepath
} def
/P$g {
0 -0.7188 rlineto
6.9375 0 rlineto
0 0.7188 rlineto
-0.4219 1.5469 -1.7656 2.5 rquadto
-0.2969 0.2031 -0.625 0.3594 rquadto
-0.4375 -0.6094 rlineto
1.5469 -0.8125 2 -2.25 rquadto
-6.1094 0 rlineto
closepath
} def
/P$3 {
0 6.9688 rlineto
-0.8594 0 rlineto
0 -5.6563 rlineto
-0.7344 1.2031 -1.4375 1.8906 rquadto
-0.4375 -0.75 rlineto
2.0781 -2.1406 2.8906 -5.2813 rquadto
0.7813 0.1406 rlineto
-0.3281 1.4844 -0.9375 2.6875 rquadto
} def
/P$1s {
0.4375 -0.5 0.4375 -1.5938 rquadto
0 -1.0469 -0.3906 -1.5938 rquadto
-0.3906 -0.5313 -1.0938 -0.5313 rquadto
-0.6719 0 -1.0938 0.6016 rquadto
-0.4219 0.6016 -0.4219 1.5547 rquadto
0 2.0781 1.4844 2.0781 rquadto
0.6406 0 1.0781 -0.5156 rquadto
closepath
} def
/P$2b {
-0.8594 -0.875 -0.8594 -2.4375 rquadto
0 -1.0625 0.3906 -1.8125 rquadto
0.4219 -0.7969 1.0469 -1.1719 rquadto
0.6563 -0.3906 1.5 -0.3906 rquadto
1.1719 0 1.8906 0.7656 rquadto
0.7188 0.7656 0.7188 2.2656 rquadto
0 0.0469 -0.0313 0.4688 rquadto
-4.5469 0 rlineto
0.0625 1.1875 0.6563 1.7656 rquadto
0.5938 0.6094 1.5313 0.6094 rquadto
1 0 1.6406 -0.7188 rquadto
0.5625 0.5469 rlineto
-0.8125 0.9844 -2.2422 0.9844 rquadto
-1.4297 0 -2.2578 -0.875 rquadto
} def
/P$2h {
0.4219 -0.3281 0.6719 -0.8906 rquadto
0.2344 -0.5313 0.2344 -1.2813 rquadto
0 -1.0938 -0.5313 -1.7969 rquadto
-0.5156 -0.6875 -1.3594 -0.6875 rquadto
-0.8438 0 -1.3594 0.6875 rquadto
-0.5313 0.7031 -0.5313 1.7969 rquadto
0 0.75 0.2344 1.2813 rquadto
0.25 0.5625 0.6719 0.8906 rquadto
0.4375 0.3125 0.9844 0.3125 rquadto
0.5469 0 0.9844 -0.3125 rquadto
closepath
} def
/P$q {
0.875 0 rlineto
0 1.0781 rlineto
0.1875 -0.5938 0.625 -0.8984 rquadto
0.4375 -0.3047 1.0469 -0.3047 rquadto
0.625 0 1.1563 0.3281 rquadto
0.5156 0.3281 0.8281 0.9531 rquadto
0.3125 0.6406 0.3125 1.5469 rquadto
0 0.9063 -0.3281 1.5781 rquadto
-0.3281 0.6719 -0.8594 1.0156 rquadto
-0.5313 0.3281 -1.1406 0.3281 rquadto
-0.5 0 -0.9219 -0.2188 rquadto
-0.4531 -0.25 -0.7031 -0.6406 rquadto
0 2.7188 rlineto
-0.8906 0 rlineto
0 -7.4844 rlineto
} def
/P$1j {
-2.6875 0 rlineto
0 1.0313 rlineto
2.6875 0 rlineto
0 -1.0313 rlineto
closepath
} def
/P$2e {
0.5 0.4219 0.5 1.1094 rquadto
0 0.875 -0.6719 1.4375 rquadto
-0.6563 0.5625 -1.9688 0.5625 rquadto
-1.625 0 -2.7188 -1.0156 rquadto
0.5625 -0.9375 rlineto
0.0156 -0.0156 rlineto
0.0156 0.0156 rlineto
0.4375 0.5625 0.8906 0.8281 rquadto
0.4844 0.2813 1.2656 0.2813 rquadto
0.7344 0 1.1875 -0.2813 rquadto
0.4375 -0.2656 0.4375 -0.7344 rquadto
0 -0.4063 -0.3594 -0.6719 rquadto
-0.3281 -0.2656 -1.25 -0.5625 rquadto
-2.4219 -0.6875 -2.4219 -1.9844 rquadto
0 -0.7344 0.625 -1.1875 rquadto
0.5938 -0.4219 1.7344 -0.4219 rquadto
0.875 0 1.4531 0.25 rquadto
0.6563 0.2813 1.0938 0.75 rquadto
-0.5781 0.7031 rlineto
-0.0156 0.0156 rlineto
-0.2969 -0.4844 -0.8281 -0.7188 rquadto
-0.5469 -0.25 -1.0938 -0.25 rquadto
-0.6094 0 -0.9844 0.2031 rquadto
-0.3906 0.2344 -0.3906 0.5938 rquadto
0 0.3594 0.3906 0.6406 rquadto
0.4063 0.2969 1.4219 0.5938 rquadto
1.1406 0.3281 1.6875 0.7969 rquadto
closepath
} def
/P$s {
0.7656 -0.2656 rlineto
1.0938 2.5 1.8281 5.1406 rquadto
0.0469 0.2188 0.0938 0.4063 rquadto
-0.7656 0.2031 rlineto
-0.6406 -2.5 -1.7656 -5.1406 rquadto
-0.1094 -0.1875 -0.1563 -0.3438 rquadto
} def
/P$15 {
0 3.1875 rlineto
3.0156 0.7188 6.1094 1.875 rquadto
-0.2813 0.7969 rlineto
-3.0156 -1.1406 -5.8281 -1.8125 rquadto
0 4.8438 rlineto
-0.8594 0 rlineto
0 -8.8906 rlineto
0.8594 0 rlineto
} def
/P$5 {
3.7031 0 rlineto
0 -2.1094 rlineto
0.8125 0 rlineto
0 2.1094 rlineto
1.7813 0 rlineto
0 0.7344 rlineto
-1.7813 0 rlineto
0 1.625 rlineto
0 2.125 -0.4844 3 rquadto
-0.4375 0.8125 -1.6406 1.25 rquadto
-0.5781 0.2031 -0.8594 0.2656 rquadto
-0.25 -0.7188 rlineto
1.25 -0.3281 1.7188 -0.7344 rquadto
0.5625 -0.4844 0.6563 -1.6875 rquadto
0.0625 -0.6406 0.0469 -1.375 rquadto
0 -1.625 rlineto
-3.7031 0 rlineto
0 -0.7344 rlineto
closepath
} def
/P$b {
1.8594 -0.4531 1.8594 -2.2031 rquadto
0 -1.5156 -1.7344 -1.7344 rquadto
-0.4219 -0.0625 -0.8281 -0.0625 rquadto
-2.2344 0.0156 -4.6094 1.3594 rquadto
-0.3281 -0.5938 rlineto
5.9063 -3.7188 rlineto
0 -0.0313 rlineto
-5.1094 0 rlineto
0 -0.7031 rlineto
6.5781 0 rlineto
0.0469 0.7188 rlineto
-4.2969 2.5781 rlineto
0.0156 0.0156 rlineto
1.0938 -0.2969 2.0469 -0.2813 rquadto
3.2188 0 3.2188 2.375 rquadto
0 2.0625 -1.9219 2.7969 rquadto
-0.9531 0.3438 -2.2656 0.3438 rquadto
-3.0625 -0.0156 -3.0781 -1.7344 rquadto
0 -0.7656 0.7813 -1.1875 rquadto
0.6563 -0.3594 1.6094 -0.3594 rquadto
2.2813 0.0156 2.2969 1.5781 rquadto
0 0.3906 -0.1875 0.8438 rquadto
closepath
} def
/P$19 {
0.625 -0.3438 rlineto
0.4844 0.8125 0.9375 1.6875 rquadto
-0.625 0.2969 rlineto
-0.5156 -0.9531 -0.9375 -1.6406 rquadto
closepath
} def
/P$1m {
0 -9.4063 rlineto
4.2188 0 rlineto
0 3.9531 rlineto
-3.375 0 rlineto
0 5.4531 rlineto
-0.8438 0 rlineto
closepath
} def
/P$2i {
-0.6719 -0.4219 -1.0469 -1.1719 rquadto
-0.375 -0.75 -0.375 -1.7188 rquadto
0 -0.9688 0.375 -1.7266 rquadto
0.375 -0.7578 1.0469 -1.1797 rquadto
0.7031 -0.4219 1.5313 -0.4219 rquadto
0.8281 0 1.5313 0.4219 rquadto
0.6719 0.4219 1.0469 1.1797 rquadto
0.375 0.7578 0.375 1.7266 rquadto
0 0.9688 -0.375 1.7188 rquadto
-0.375 0.75 -1.0469 1.1719 rquadto
-0.6719 0.4219 -1.5313 0.4219 rquadto
-0.8594 0 -1.5313 -0.4219 rquadto
closepath
} def
/P$1g {
0 -0.7656 rlineto
4.3281 0 8.8281 -0.2188 rquadto
0.0469 0.7656 rlineto
-3.5156 0.3125 -4.9219 1.9688 rquadto
-0.7656 0.9063 -0.7656 2.0469 rquadto
0 1.625 1.2344 2.3594 rquadto
0.7656 0.4375 1.8594 0.4688 rquadto
0.6875 0 1.3594 -0.125 rquadto
0.0938 0.75 rlineto
-0.7656 0.1406 -1.4844 0.1406 rquadto
-2.1563 0 -3.2188 -1.2813 rquadto
-0.7344 -0.9219 -0.7344 -2.2344 rquadto
0 -2 1.8281 -3.25 rquadto
0.6875 -0.4531 1.4219 -0.7344 rquadto
0 -0.0313 rlineto
-3.4531 0.1406 -5.5469 0.1406 rquadto
} def
/P$29 {
0 -3.4375 rlineto
-2.6875 -5.2813 rlineto
1.125 0 rlineto
2.1406 4.2188 rlineto
1.9375 -4.2188 rlineto
1.0313 0 rlineto
-2.4844 5.2813 rlineto
0 3.4375 rlineto
-1.0625 0 rlineto
} def
/P$1w {
-8.625 0 rlineto
0 2.1094 rlineto
-0.9531 0 rlineto
0 -2.9375 rlineto
4.7656 0 rlineto
0 -1.3594 rlineto
1.0156 0 rlineto
0 1.3594 rlineto
4.75 0 rlineto
0 2.9375 rlineto
-0.9531 0 rlineto
0 -2.1094 rlineto
} def
/P$13 {
0.7188 -0.375 rlineto
0.6406 1.0469 1.0938 1.9688 rquadto
-0.7031 0.3594 rlineto
-0.4375 -0.8281 -1.1094 -1.9531 rquadto
closepath
} def
/P$2d {
0 0.0234 -0.0313 -0.0078 rquadto
0 -0.0156 rlineto
-0.0156 0 -0.0313 0 rquadto
-0.0469 0.0469 rlineto
-0.0625 -0.0625 rlineto
0 -0.0781 0.1094 0.0156 rquadto
0.0313 -0.0469 rlineto
0.0313 0.0469 0.0313 0.0703 rquadto
closepath
} def
/P$f {
8.1094 0 rlineto
0 0.1875 rlineto
0 4.4688 -2.6563 6.3438 rquadto
-1.6094 1.125 -4.3125 1.4063 rquadto
-0.1406 -0.7813 rlineto
3.6563 -0.4063 5.0938 -2.4375 rquadto
1.0313 -1.4531 1.1406 -3.9063 rquadto
-7.2344 0 rlineto
0 -0.8125 rlineto
} def
/P$1r {
0.6172 0.6172 0.6172 2.0703 rquadto
0 2.9219 rlineto
-0.9375 0 rlineto
0 -0.8438 rlineto
-0.5 0.9688 -1.875 0.9688 rquadto
-0.9063 0 -1.4219 -0.4063 rquadto
-0.5156 -0.4219 -0.5156 -1.0938 rquadto
0 -0.5938 0.3672 -1.0156 rquadto
0.3672 -0.4219 1.0078 -0.6563 rquadto
0.6406 -0.2344 1.375 -0.2344 rquadto
0.6875 0 1.2344 0.0625 rquadto
-0.0625 -0.9219 -0.4688 -1.2969 rquadto
-0.4219 -0.375 -1.2344 -0.375 rquadto
-0.4219 0 -0.7813 0.1563 rquadto
-0.4219 0.1719 -0.7031 0.4531 rquadto
-0.4219 -0.5625 rlineto
0.7656 -0.7656 1.9531 -0.7656 rquadto
1.1875 0 1.8047 0.6172 rquadto
closepath
} def
/P$10 {
-0.875 0 rlineto
0 -7.7031 rlineto
8.2344 0 rlineto
0 7.7031 rlineto
-7.3594 0 rlineto
closepath
} def
/P$1p {
-2.2656 1.7969 -4.125 3.0156 rquadto
-0.8281 0.5781 -0.9375 0.7031 rquadto
-0.0625 0.1094 -0.0625 0.2188 rquadto
0 0.2188 0.2969 0.4531 rquadto
0.25 0.1875 0.5781 0.4219 rquadto
2.3594 1.5938 4.5781 3.5469 rquadto
-0.5938 0.5938 rlineto
-2.2188 -1.9375 -4.4688 -3.4844 rquadto
-0.9844 -0.6719 -1.1719 -0.9375 rquadto
-0.1719 -0.25 -0.1563 -0.5938 rquadto
0 -0.4688 0.2969 -0.7656 rquadto
0.2188 -0.2344 1.1094 -0.7969 rquadto
2.1094 -1.3906 4.1094 -3 rquadto
0.5469 0.625 rlineto
closepath
} def
/P$1d {
-0.1094 -0.7656 rlineto
3.3906 -0.2969 4.875 -1.8125 rquadto
0.3281 -0.3281 0.5469 -0.6719 rquadto
-1.75 -0.9063 -3.6563 -1.7344 rquadto
0.3906 -0.7188 rlineto
1.7813 0.7656 3.6719 1.7188 rquadto
0.5625 -1.2813 0.6094 -3.1875 rquadto
-4.4688 0 rlineto
-0.625 1.9375 -2.125 3.375 rquadto
-0.5781 -0.5156 rlineto
1.6406 -1.5469 2.1406 -3.9219 rquadto
0.0313 -0.2188 0.125 -0.7656 rquadto
0.7969 0.0313 rlineto
-0.0313 0.3594 -0.1563 1.0313 rquadto
5.1563 0 rlineto
0 0.3125 rlineto
0 4.0313 -2.1094 5.8594 rquadto
-1.7344 1.4531 -5.1094 1.7656 rquadto
} def
/P$18 {
0.5938 -0.3125 rlineto
0.5 0.8125 0.9375 1.6094 rquadto
-0.6094 0.3125 rlineto
-0.375 -0.7188 -0.9219 -1.6094 rquadto
closepath
} def
/P$r {
0 -0.7344 rlineto
2.1406 0 rlineto
0.2969 -1.3438 0.4688 -2.3125 rquadto
0.7813 0.0938 rlineto
-0.1719 0.9844 -0.4375 2.2188 rquadto
0.9844 0 rlineto
1.375 0 1.7344 0.1563 rquadto
0.4219 0.1719 0.5469 0.8125 rquadto
0.0781 0.4375 0.0781 1.8281 rquadto
0 2.8594 -0.9375 3.7813 rquadto
-0.3438 0.3281 -0.7656 0.3281 rquadto
-0.875 0 -2.0938 -0.5469 rquadto
-0.0313 0 -0.125 -0.0469 rquadto
0.2656 -0.7188 rlineto
1.2344 0.5156 1.7969 0.5156 rquadto
0.3594 0 0.6563 -0.7188 rquadto
0.375 -0.9688 0.375 -2.7031 rquadto
0 -1.3281 -0.1094 -1.5938 rquadto
-0.125 -0.2813 -0.5781 -0.3438 rquadto
-0.2656 -0.0156 -0.7031 -0.0156 rquadto
-1.2969 0 rlineto
-0.8281 3.2813 -2.1719 6.25 rquadto
-0.7344 -0.2969 rlineto
1.2656 -2.8281 2.0781 -5.9531 rquadto
-1.9531 0 rlineto
} def
/P$1n {
4.3438 0 rlineto
0 7.9375 rlineto
0 0.9063 -0.2188 1.1406 rquadto
-0.2031 0.2344 -0.9688 0.25 rquadto
-0.1719 0 rlineto
-0.3906 0 -1.2031 -0.0625 rquadto
-0.0313 -0.7344 rlineto
1.0156 0.0625 1.0938 0.0625 rquadto
0.4844 0 0.5781 -0.1094 rquadto
0.0625 -0.0938 0.0938 -0.5156 rquadto
0 -4.0156 rlineto
-3.5156 0 rlineto
0 -3.9531 rlineto
closepath
} def
/P$p {
0.4531 -0.5156 0.4531 -1.625 rquadto
0 -1.0313 -0.3984 -1.5703 rquadto
-0.3984 -0.5391 -1.1328 -0.5391 rquadto
-0.6875 0 -1.1094 0.5625 rquadto
-0.4219 0.5625 -0.4219 1.7344 rquadto
0.0156 0.9531 0.4219 1.4531 rquadto
0.3906 0.4844 1.0781 0.4844 rquadto
0.6563 0 1.1094 -0.5 rquadto
closepath
} def
/P$0 {
0.7969 -0.2344 rlineto
0.8438 2.3594 2.1406 3.6406 rquadto
0.0469 0.0469 0.0625 0.0625 rquadto
1.3281 -1.2813 2.2188 -3.8125 rquadto
0.1094 -0.3594 rlineto
-7.0938 0 rlineto
0 -0.7656 rlineto
4.3438 0 rlineto
0 -1.6094 rlineto
0.875 0 rlineto
0 1.6094 rlineto
4.3438 0 rlineto
0 0.7656 rlineto
-1.5469 0 rlineto
-0.9375 2.9219 -2.3594 4.4375 rquadto
-0.0781 0.1094 -0.2656 0.2813 rquadto
1.4531 1.1094 4.1406 1.9063 rquadto
-0.2344 0.75 rlineto
-2.9531 -0.8906 -4.5313 -2.1094 rquadto
-1.5469 1.2344 -4.5 2.1094 rquadto
-0.2344 -0.75 rlineto
2.6875 -0.8281 4.1094 -1.9063 rquadto
-1.4375 -1.375 -2.3594 -3.9531 rquadto
-0.0156 -0.0625 rlineto
} def
/P$21 {
-0.1563 3.625 -0.1563 5.75 rquadto
0 2.5313 0.7656 3.2969 rquadto
0.5625 0.5313 1.8125 0.5313 rquadto
2.125 0 3.5469 -2.4063 rquadto
0.4219 -0.7344 0.75 -1.5625 rquadto
0.875 0.3438 rlineto
-1.25 3.3594 -3.5625 4.25 rquadto
-0.7813 0.2969 -1.6094 0.2969 rquadto
-1.9375 0 -2.7344 -0.9375 rquadto
-0.8438 -1.0469 -0.8438 -3.8125 rquadto
0 -2.7188 0.1406 -5.7813 rquadto
1.0156 0.0313 rlineto
} def
/P$1f {
0.6719 -0.3594 rlineto
0.6406 1.0625 1.0313 1.8438 rquadto
-0.6563 0.3281 rlineto
-0.4844 -0.8906 -1.0469 -1.8125 rquadto
closepath
} def
/P$1t {
-0.4375 -0.2266 -0.7031 -0.6172 rquadto
-0.3125 0.7188 rlineto
-0.5469 0 rlineto
0 -7.9844 rlineto
0.9844 0 rlineto
0 0.0938 rlineto
-0.0781 0.0781 -0.0938 0.1563 rquadto
-0.0156 0.0469 -0.0156 0.2813 rquadto
0 2.8125 rlineto
0.2656 -0.4531 0.7109 -0.7109 rquadto
0.4453 -0.2578 0.9297 -0.2578 rquadto
1.0313 0 1.6406 0.7188 rquadto
0.6094 0.7188 0.6094 2.0938 rquadto
0 0.9219 -0.3281 1.5938 rquadto
-0.3281 0.6875 -0.8438 1.0156 rquadto
-0.5156 0.3125 -1.125 0.3125 rquadto
-0.4688 0 -0.9063 -0.2266 rquadto
closepath
} def
/P$m {
0 -0.0156 0.0469 -0.0156 rquadto
0.0156 0.0156 0.0313 0.0156 rquadto
0.0313 0.0156 rlineto
-0.0469 0.0469 rlineto
-0.0625 -0.0469 rlineto
0 -0.0156 rlineto
closepath
} def
/P$4 {
0.8594 0 rlineto
0 3.625 rlineto
1.8281 -0.875 3.6406 -2.4531 rquadto
0.5156 0.5938 rlineto
-2.125 1.8281 -4.1563 2.7344 rquadto
0 3.2656 rlineto
0 0.5938 0.0625 0.7188 rquadto
0.0781 0.125 0.4688 0.1563 rquadto
0.3594 0.0625 0.9375 0.0625 rquadto
0.5625 0 0.9375 -0.0625 rquadto
0.4688 -0.0469 0.6094 -0.1719 rquadto
0.2031 -0.2188 0.2813 -1.3281 rquadto
0.0313 -0.25 0.0781 -1.3906 rquadto
0.8281 0.0781 rlineto
-0.0938 2.2188 -0.2813 2.7813 rquadto
-0.1719 0.5 -0.5938 0.6563 rquadto
-0.1875 0.0469 -0.6719 0.1094 rquadto
-0.5469 0.0625 -1.1875 0.0625 rquadto
-0.7344 0 -1.1563 -0.0469 rquadto
-0.75 -0.0469 -0.9531 -0.2813 rquadto
-0.1875 -0.2188 -0.2188 -1.1094 rquadto
0 -0.125 rlineto
0 -7.875 rlineto
} def
/P$2c {
0 0.0625 -0.125 0 rquadto
0.0313 -0.0781 rlineto
0.0938 0.0625 rlineto
0 0.0156 rlineto
closepath
} def
/P$16 {
1.6563 0 rlineto
-1.6563 4.0469 rlineto
-1.2031 0 rlineto
1.2031 -4.0469 rlineto
} def
/P$h {
1.1406 -0.4844 1.5781 -1.4844 rquadto
0.4219 -0.9844 0.4531 -2.9375 rquadto
0.7969 0 rlineto
0 2.5938 -0.7813 3.7656 rquadto
-0.5625 0.8281 -1.6563 1.3125 rquadto
-0.3906 -0.6563 rlineto
} def
/P$22 {
5.0469 0 10.3125 -0.25 rquadto
0.0469 0.8906 rlineto
-4.0469 0.3594 -5.7031 2.2031 rquadto
-0.9063 1.0156 -0.9375 2.3438 rquadto
0 1.75 1.375 2.5938 rquadto
0.9375 0.5781 2.2344 0.5781 rquadto
0.7969 0 1.5781 -0.1406 rquadto
0.125 0.9063 rlineto
-0.75 0.1406 -1.75 0.1406 rquadto
-2.4844 0 -3.7188 -1.4375 rquadto
-0.8906 -1.0469 -0.875 -2.5469 rquadto
0 -2.0938 1.9063 -3.5156 rquadto
0.8125 -0.6094 1.875 -1 rquadto
0 -0.0313 rlineto
-3.9844 0.1563 -6.4688 0.1563 rquadto
0 -0.8906 rlineto
} def
/P$1u {
0.9531 -0.2656 rlineto
0.9688 2.7344 2.4844 4.2344 rquadto
0.0625 0.0625 0.0625 0.0938 rquadto
1.5625 -1.5156 2.5938 -4.4531 rquadto
0.1406 -0.4219 rlineto
-8.2656 0 rlineto
0 -0.8906 rlineto
5.0625 0 rlineto
0 -1.875 rlineto
1.0156 0 rlineto
0 1.875 rlineto
5.0625 0 rlineto
0 0.8906 rlineto
-1.8125 0 rlineto
-1.0938 3.4063 -2.7344 5.1719 rquadto
-0.1094 0.125 -0.3125 0.3281 rquadto
1.6875 1.2813 4.8281 2.2344 rquadto
-0.2813 0.8594 rlineto
-3.4375 -1.0313 -5.2813 -2.4531 rquadto
-1.7969 1.4531 -5.25 2.4531 rquadto
-0.2813 -0.8594 rlineto
3.1406 -0.9688 4.7969 -2.2344 rquadto
-1.6719 -1.6094 -2.75 -4.6094 rquadto
-0.0313 -0.0781 rlineto
} def
/P$2g {
0.9531 0 rlineto
3.6563 6.4688 rlineto
0 -6.4688 rlineto
1.0781 0 rlineto
0 0.0938 rlineto
-0.1094 0.0938 -0.125 0.1875 rquadto
0 0.0625 0 0.3281 rquadto
0 8.1094 rlineto
-0.7813 0 rlineto
-3.8438 -6.8594 rlineto
0 6.8594 rlineto
-0.9375 0 rlineto
0 -8.7188 rlineto
} def
/P$20 {
-0.6094 2.3438 -0.6094 5.0625 rquadto
0 2.7344 0.6094 5.0781 rquadto
-0.9531 0.125 rlineto
-0.6406 -2.4063 -0.6406 -5.2031 rquadto
0 -2.7969 0.6406 -5.1875 rquadto
0.9531 0.125 rlineto
} def
/P$1a {
0 -0.7656 rlineto
5.7813 0 rlineto
0 0.7656 rlineto
-5.7813 0 rlineto
closepath
} def
/P$1b {
9.1719 0 rlineto
0 0.7813 rlineto
-3.75 0 rlineto
-0.0313 2.4219 -1.3438 3.5781 rquadto
-0.8594 0.7344 -2.2813 1.1094 rquadto
-0.2344 -0.7656 rlineto
1.7969 -0.5156 2.4531 -1.5469 rquadto
0.5313 -0.8906 0.5313 -2.375 rquadto
-4.5469 0 rlineto
0 -0.7813 rlineto
} def
/P$1e {
0.6406 -0.3438 rlineto
0.5156 0.8438 1.0156 1.7813 rquadto
-0.6563 0.3281 rlineto
-0.5313 -0.9844 -1 -1.7656 rquadto
closepath
} def
/P$e {
1.9375 -2.7813 rlineto
-1.9063 -2.7031 rlineto
0.9531 0 rlineto
1.4219 2.0313 rlineto
1.375 -2.0313 rlineto
0.8906 0 rlineto
-1.7813 2.6719 rlineto
2.0156 2.8125 rlineto
-0.9844 0 rlineto
-1.5156 -2.1406 rlineto
-1.4219 2.1406 rlineto
-0.9844 0 rlineto
} def
/P$24 {
-0.5313 2.0313 -0.5469 4.2344 rquadto
0 1.9531 0.8281 3.1875 rquadto
0.4844 0.6875 0.9375 0.7188 rquadto
0.5 0 1.1875 -1 rquadto
0.5938 -0.875 1.0781 -2.1563 rquadto
0.9063 0.3438 rlineto
-0.8281 2.3438 -2.0938 3.2969 rquadto
-0.5938 0.4844 -1.125 0.4844 rquadto
-0.8594 0 -1.625 -1.0938 rquadto
-1 -1.4375 -1.0625 -3.6094 rquadto
0 -0.1719 rlineto
0 -2.3906 0.5625 -4.3594 rquadto
0.9531 0.125 rlineto
} def
/P$1k {
0 -1 rlineto
-2.6875 0 rlineto
0 1 rlineto
2.6875 0 rlineto
closepath
} def
/P$v {
0.5938 -0.3281 rlineto
0.4531 0.7344 0.9375 1.6406 rquadto
-0.3125 0.1563 rlineto
0 0.1563 rlineto
0 3.9844 -2.0781 5.7969 rquadto
-1.7188 1.4688 -5.1094 1.7813 rquadto
-0.1406 -0.7656 rlineto
3.4844 -0.3281 4.9688 -1.8906 rquadto
0.2969 -0.3125 0.4844 -0.5938 rquadto
-1.75 -0.8906 -3.6094 -1.7031 rquadto
0.3906 -0.7344 rlineto
1.8281 0.7813 3.5938 1.7031 rquadto
0.5469 -1.25 0.6094 -3.1563 rquadto
-4.375 0 rlineto
-0.625 1.9375 -2.125 3.3438 rquadto
-0.5625 -0.5156 rlineto
1.6406 -1.5625 2.1563 -3.9219 rquadto
0.0313 -0.2188 0.1094 -0.7656 rquadto
0.7969 0.0469 rlineto
-0.0313 0.3906 -0.1563 1.0469 rquadto
4.5781 0 rlineto
-0.4063 -0.75 -0.75 -1.2969 rquadto
closepath
} def
/P$1x {
0 8.125 rlineto
-1.0156 0 rlineto
0 -6.5938 rlineto
-0.8438 1.3906 -1.6563 2.2031 rquadto
-0.5156 -0.875 rlineto
2.4219 -2.5 3.375 -6.1563 rquadto
0.9063 0.1563 rlineto
-0.375 1.75 -1.0938 3.1406 rquadto
} def
/P$1h {
0 1.0313 rlineto
2.5625 0 rlineto
0 -1.0313 rlineto
-2.5625 0 rlineto
closepath
} def
/P$1v {
0 -0.8438 rlineto
6.9688 0 rlineto
0 0.8438 rlineto
-1.1719 1.2188 -2.8281 2.2656 rquadto
0 0.4531 rlineto
5.0938 0 rlineto
0 0.8906 rlineto
-5.0938 0 rlineto
0 2.375 rlineto
0 0.8906 -0.1875 1.125 rquadto
-0.2344 0.2344 -1.1719 0.25 rquadto
-0.1563 0 rlineto
-0.6563 0 -2 -0.0625 rquadto
-0.0313 -0.875 rlineto
1.625 0.0625 1.9219 0.0469 rquadto
0.5 0 0.5469 -0.0938 rquadto
0.0781 -0.125 0.0625 -0.5 rquadto
0 -2.2656 rlineto
-5.4219 0 rlineto
0 -0.8906 rlineto
5.4219 0 rlineto
0 -1.1875 rlineto
0.5 0 rlineto
1.0156 -0.6563 2.0156 -1.5313 rquadto
-5.6406 0 rlineto
closepath
} def
/P$6 {
-0.5313 2.0156 -0.5313 4.3438 rquadto
0 2.3438 0.5313 4.3594 rquadto
-0.8125 0.1094 rlineto
-0.5625 -2.0625 -0.5625 -4.4688 rquadto
0 -2.4063 0.5625 -4.4531 rquadto
0.8125 0.1094 rlineto
} def
/P$i {
2.9844 -0.4063 5.6719 -2.0313 rquadto
1.4688 -0.8906 2.5469 -2.0156 rquadto
0.5156 0.5781 rlineto
-1.2969 1.4375 -3.2656 2.4688 rquadto
0 5.5781 rlineto
-0.875 0 rlineto
0 -5.1406 rlineto
-2.1719 1.0156 -4.4531 1.3438 rquadto
-0.1406 -0.7813 rlineto
} def
/P$1c {
2.5781 -0.3594 4.7813 -1.7813 rquadto
1.0469 -0.6719 1.7656 -1.4375 rquadto
0.4844 0.5625 rlineto
-1.0313 1.0938 -2.5938 1.9375 rquadto
0 4.4375 rlineto
-0.8281 0 rlineto
0 -4.0313 rlineto
-1.75 0.7969 -3.5 1.0469 rquadto
-0.1094 -0.7344 rlineto
} def
/P$1i {
2.5625 0 rlineto
0 -1 rlineto
-2.5625 0 rlineto
0 1 rlineto
closepath
} def
/P$26 {
0.3125 -0.625 0.2969 -1.0469 rquadto
-0.0156 -1.0938 -1.8438 -1.1094 rquadto
-1.2813 0 -1.6719 0.6406 rquadto
-0.1094 0.1406 -0.1094 0.3438 rquadto
0 1.0156 1.8906 1.1719 rquadto
0.4844 0.0313 0.75 0.0313 rquadto
0.125 0 0.6875 -0.0313 rquadto
} def
/P$l {
-1.2969 0.2188 -2.75 0.2188 rquadto
-2.875 0 -3.5313 -1.0313 rquadto
-0.2344 -0.375 -0.2344 -0.9063 rquadto
0 -1.7344 3.25 -2.6563 rquadto
0.0156 0 rlineto
0.0156 0 rlineto
-0.2344 -0.7969 -0.8125 -0.8906 rquadto
-0.1719 -0.0156 -0.2656 0 rquadto
-1.0625 0 -2.3906 1.5 rquadto
-0.3281 0.3594 -0.75 0.9375 rquadto
-0.6719 -0.4219 rlineto
1.3438 -1.8594 2.2031 -3.7656 rquadto
-2.1406 0 rlineto
0 -0.7031 rlineto
2.4219 0 rlineto
0.2969 -0.7188 0.5 -1.3281 rquadto
0.7969 0.1719 rlineto
-0.2656 0.7031 -0.4531 1.1563 rquadto
4.75 0 rlineto
0 0.7031 rlineto
-5.0313 0 rlineto
-0.4063 0.8906 -0.8125 1.6875 rquadto
0.0156 0.0156 rlineto
0.9531 -0.6719 1.7031 -0.6719 rquadto
1.1719 0 1.625 1.1406 rquadto
0.0625 0.1875 0.0938 0.2656 rquadto
1.125 -0.25 2.5 -0.4219 rquadto
0.0781 0.7188 rlineto
-1.5313 0.2031 -2.4219 0.4063 rquadto
0.1406 0.8281 0.1406 2.125 rquadto
-0.8438 0 rlineto
0 -1.1875 -0.1094 -1.9219 rquadto
-2.5469 0.7656 -2.5781 1.8906 rquadto
0 0.7031 0.6719 0.9844 rquadto
0.7031 0.2969 2.2656 0.2969 rquadto
1.1719 0 2.6719 -0.2344 rquadto
0.0781 0.7344 rlineto
} def
/P$1y {
0.9844 0 rlineto
0 4.25 rlineto
2.1406 -1.0469 4.2656 -2.875 rquadto
0.5938 0.7031 rlineto
-2.4844 2.125 -4.8594 3.1719 rquadto
0 3.8281 rlineto
0 0.6875 0.0938 0.8438 rquadto
0.0781 0.1406 0.5313 0.1719 rquadto
0.4375 0.0625 1.0938 0.0625 rquadto
0.6719 0 1.0938 -0.0625 rquadto
0.5469 -0.0469 0.7031 -0.2031 rquadto
0.25 -0.25 0.3438 -1.5625 rquadto
0.0313 -0.2813 0.0938 -1.6094 rquadto
0.9531 0.0938 rlineto
-0.0938 2.5781 -0.3281 3.25 rquadto
-0.1875 0.5781 -0.6875 0.75 rquadto
-0.2188 0.0625 -0.7969 0.1406 rquadto
-0.625 0.0625 -1.3594 0.0625 rquadto
-0.8594 0 -1.3594 -0.0469 rquadto
-0.875 -0.0625 -1.1094 -0.3281 rquadto
-0.2188 -0.2656 -0.25 -1.2969 rquadto
0 -0.1406 rlineto
0 -9.2031 rlineto
} def
/P$x {
3.5469 0 rlineto
0 -1.75 rlineto
0.8438 0 rlineto
0 1.75 rlineto
3.7344 0 rlineto
0 1.7656 rlineto
0 3.2813 -2.5469 4.7031 rquadto
-1.4375 0.8125 -3.625 0.9531 rquadto
-0.0938 -0.7656 rlineto
4.2344 -0.2656 5.1875 -3.1563 rquadto
0.25 -0.7969 0.25 -1.7344 rquadto
0 -1.0313 rlineto
-6.4844 0 rlineto
0 2.6875 rlineto
-0.8125 0 rlineto
0 -3.4219 rlineto
} def
/P$1o {
-1.3438 0 rlineto
0 0.7344 rlineto
0 0.0938 0 0.1563 rquadto
0 0.1563 rlineto
1.3438 0 rlineto
0 -1.0469 rlineto
} def
/P$1z {
4.3281 0 rlineto
0 -2.4531 rlineto
0.9375 0 rlineto
0 2.4531 rlineto
2.0625 0 rlineto
0 0.8594 rlineto
-2.0625 0 rlineto
0 1.9063 rlineto
0 2.4688 -0.5625 3.5 rquadto
-0.5156 0.9375 -1.9219 1.4531 rquadto
-0.6719 0.2188 -0.9844 0.3125 rquadto
-0.2969 -0.8438 rlineto
1.4531 -0.3906 2 -0.875 rquadto
0.6406 -0.5625 0.7656 -1.9531 rquadto
0.0781 -0.75 0.0625 -1.5938 rquadto
0 -1.9063 rlineto
-4.3281 0 rlineto
0 -0.8594 rlineto
closepath
} def
/P$12 {
-1.1719 -0.625 rlineto
0.3281 -0.6875 rlineto
0.8281 0.4531 rlineto
0.0156 0 0.3281 0.1094 rquadto
0.2969 0.0156 rlineto
7.1875 0 rlineto
0 0.8281 rlineto
-7.3281 0 rlineto
-0.0781 0 -0.2344 -0.0313 rquadto
-0.2344 -0.0625 rlineto
} def
/P$7 {
-0.125 3.1094 -0.125 4.9375 rquadto
0 2.1563 0.6563 2.8125 rquadto
0.4844 0.4531 1.5469 0.4531 rquadto
1.8281 0 3.0469 -2.0625 rquadto
0.3594 -0.625 0.6406 -1.3281 rquadto
0.75 0.2813 rlineto
-1.0625 2.8906 -3.0625 3.6563 rquadto
-0.6563 0.25 -1.375 0.25 rquadto
-1.6563 0 -2.3438 -0.8125 rquadto
-0.7188 -0.8906 -0.7188 -3.25 rquadto
0 -2.3281 0.125 -4.9688 rquadto
0.8594 0.0313 rlineto
} def
/P$9 {
0.7656 -0.2656 rlineto
1.2656 2.3906 1.4688 5.7813 rquadto
0.0469 0.5469 0.0469 1.0625 rquadto
-0.8438 0 rlineto
0 -3.125 -1.0313 -5.7188 rquadto
-0.0625 -0.125 -0.4063 -0.8594 rquadto
closepath
} def
/P$w {
0.625 -0.3125 rlineto
0.4688 0.8125 0.9375 1.6563 rquadto
-0.625 0.3125 rlineto
-0.4844 -0.9219 -0.9375 -1.6563 rquadto
} def
/P$o {
-0.3438 -0.4375 -0.5781 -0.5781 rquadto
-0.2344 -0.1406 -0.6406 -0.1406 rquadto
-0.5625 0 -0.8906 0.3438 rquadto
-0.3281 0.3438 -0.3281 1.0781 rquadto
0 0.4531 rlineto
1.8125 0 rlineto
0 0.6875 rlineto
-1.8125 0 rlineto
0 4.7969 rlineto
-0.8281 0 rlineto
0 -4.7969 rlineto
-1.1875 0 rlineto
0 -0.6875 rlineto
1.1875 0 rlineto
0 -0.4531 rlineto
0 -1.0625 0.5547 -1.5859 rquadto
0.5547 -0.5234 1.4609 -0.5234 rquadto
0.5625 0 0.9844 0.1875 rquadto
0.4688 0.2031 0.7344 0.5625 rquadto
-0.4531 0.6406 rlineto
-0.0156 0.0156 rlineto
} def
/P$25 {
2.1563 -0.5313 2.1563 -2.5781 rquadto
0 -1.75 -2.0156 -2.0156 rquadto
-0.4844 -0.0781 -0.9531 -0.0781 rquadto
-2.625 0.0313 -5.3906 1.5781 rquadto
-0.3906 -0.6875 rlineto
6.8906 -4.3281 rlineto
0 -0.0313 rlineto
-5.9531 0 rlineto
0 -0.8281 rlineto
7.6719 0 rlineto
0.0469 0.8438 rlineto
-5 3 rlineto
0.0156 0.0156 rlineto
1.2813 -0.3438 2.3906 -0.3281 rquadto
3.75 0.0156 3.75 2.7656 rquadto
0 2.4063 -2.25 3.2656 rquadto
-1.1094 0.4063 -2.625 0.4063 rquadto
-3.5781 -0.0156 -3.5938 -2.0313 rquadto
0 -0.875 0.9063 -1.3906 rquadto
0.7656 -0.4063 1.8906 -0.4063 rquadto
2.6563 0.0156 2.6719 1.8438 rquadto
0 0.4531 -0.2188 0.9844 rquadto
closepath
} def
/P$1l {
-1.4063 0 rlineto
0 -0.625 rlineto
1.4844 0 rlineto
0 -0.125 rlineto
0 -0.0781 0.0156 -0.1094 rquadto
0 -0.8125 rlineto
-1.2813 0 rlineto
0 -0.6563 rlineto
5.3906 0 rlineto
0 0.6563 rlineto
-1.1875 0 rlineto
0 1.0469 rlineto
1.375 0 rlineto
0 0.625 rlineto
-1.375 0 rlineto
0 2.1563 rlineto
-0.7969 0 rlineto
0 -2.1563 rlineto
-1.4219 0 rlineto
-0.2813 1.4219 -1.5625 2.2656 rquadto
-0.6406 -0.5156 rlineto
1.0625 -0.6719 1.3438 -1.5781 rquadto
0.0469 -0.125 0.0625 -0.1719 rquadto
closepath
} def
/P$14 {
0.7188 -0.3906 rlineto
0.5781 0.9375 1.1406 2 rquadto
-0.7188 0.3594 rlineto
-0.4219 -0.7969 -1.1406 -1.9688 rquadto
closepath
} def
/P$2a {
0 -0.9219 -0.4375 -1.4219 rquadto
-0.4688 -0.5156 -1.2031 -0.5156 rquadto
-0.6875 0 -1.2188 0.4844 rquadto
-0.5313 0.4844 -0.6563 1.4531 rquadto
3.5156 0 rlineto
closepath
} def
/P$8 {
4.3281 0 8.8438 -0.2188 rquadto
0.0313 0.7656 rlineto
-3.4688 0.3125 -4.8906 1.8906 rquadto
-0.7656 0.875 -0.7969 2.0156 rquadto
0 1.5 1.1719 2.2188 rquadto
0.8125 0.4844 1.9219 0.4844 rquadto
0.6875 0 1.3594 -0.125 rquadto
0.1094 0.7813 rlineto
-0.6563 0.125 -1.5 0.125 rquadto
-2.1406 0 -3.1875 -1.2188 rquadto
-0.7813 -0.9063 -0.7656 -2.2031 rquadto
0 -1.7813 1.6406 -3.0156 rquadto
0.6875 -0.5156 1.6094 -0.8438 rquadto
0 -0.0313 rlineto
-3.4219 0.1406 -5.5469 0.1406 rquadto
0 -0.7656 rlineto
} def
/P$17 {
7.7969 0 rlineto
0 0.75 rlineto
-3.4688 0 rlineto
0 5.8438 rlineto
3.7813 0 rlineto
0 0.7656 rlineto
-8.4375 0 rlineto
0 -0.7656 rlineto
3.7813 0 rlineto
0 -5.8438 rlineto
-3.4531 0 rlineto
0 -0.75 rlineto
} def
/P$z {
-1.125 6.2969 -8.0625 6.9063 rquadto
-0.125 -0.8125 rlineto
5.25 -0.5 6.8438 -4.3906 rquadto
0.375 -0.9375 0.5625 -1.875 rquadto
0.7813 0.1719 rlineto
} def
/P$d {
-0.7813 0.5781 -1.7344 0.5781 rquadto
-0.9219 0 -1.2969 -0.5469 rquadto
-0.375 -0.5625 -0.375 -1.7969 rquadto
0 -0.0313 0.0156 -0.7031 rquadto
0.1094 -1.8125 rlineto
-1.2031 0 rlineto
0 -0.7031 rlineto
1.25 0 rlineto
0.0938 -1.4688 rlineto
0.9531 -0.1563 rlineto
0.125 0 rlineto
0.0156 0.0625 rlineto
-0.125 0.1563 -0.1406 0.2031 rquadto
-0.0156 0.0781 -0.0469 0.2656 rquadto
-0.125 1.0938 rlineto
1.8125 0 rlineto
0 0.7031 rlineto
-1.8594 0 rlineto
-0.1094 1.8594 rlineto
0 0.125 -0.0078 0.2734 rquadto
-0.0078 0.1484 -0.0156 0.2344 rquadto
-0.0078 0.0859 -0.0078 0.1328 rquadto
0 0.9688 0.2188 1.2969 rquadto
0.2188 0.3438 0.7188 0.3438 rquadto
0.3438 0 0.6563 -0.125 rquadto
0.2969 -0.125 0.6875 -0.4219 rquadto
0.2656 0.6875 rlineto
} def
/P$a {
-0.4531 1.7344 -0.4688 3.6406 rquadto
0 1.6719 0.7031 2.7344 rquadto
0.4063 0.5938 0.8125 0.6094 rquadto
0.4063 0 1.0156 -0.8594 rquadto
0.5 -0.75 0.9219 -1.8594 rquadto
0.7656 0.3125 rlineto
-0.7031 2 -1.7813 2.8281 rquadto
-0.5156 0.4063 -0.9688 0.4063 rquadto
-0.7344 0 -1.4063 -0.9375 rquadto
-0.8438 -1.2344 -0.9063 -3.0938 rquadto
0 -0.1406 rlineto
0 -2.0625 0.5 -3.75 rquadto
0.8125 0.1094 rlineto
} def
/P$1q {
0.5156 -0.5 0.5625 -1.5 rquadto
-0.5 -0.0781 -1.1563 -0.0781 rquadto
-0.9219 0 -1.4375 0.2969 rquadto
-0.5313 0.3125 -0.5313 0.9219 rquadto
0 0.8906 1.1563 0.8906 rquadto
0.875 0 1.4063 -0.5313 rquadto
closepath
} def
/P$2 {
-7.3906 0 rlineto
0 1.7969 rlineto
-0.8281 0 rlineto
0 -2.5156 rlineto
4.0781 0 rlineto
0 -1.1719 rlineto
0.875 0 rlineto
0 1.1719 rlineto
4.0781 0 rlineto
0 2.5156 rlineto
-0.8125 0 rlineto
0 -1.7969 rlineto
} def
/P$c {
0.2813 -0.5313 0.2656 -0.8906 rquadto
-0.0313 -0.9375 -1.5938 -0.9531 rquadto
-1.0938 0 -1.4375 0.5313 rquadto
-0.0781 0.1406 -0.0781 0.3125 rquadto
0 0.8594 1.625 1 rquadto
0.4063 0.0313 0.625 0.0313 rquadto
0.1094 0 0.5938 -0.0313 rquadto
} def
/P$t {
-0.2188 1.6094 -0.4063 2.5938 rquadto
0.0313 0.0156 rlineto
1.125 -0.875 2.6094 -1.1719 rquadto
0.5313 -0.1094 1.0469 -0.1094 rquadto
3.0469 0.0156 3.0625 2.4219 rquadto
0 2.2344 -2.7656 2.7813 rquadto
-0.875 0.1719 -1.9688 0.1719 rquadto
-1.0156 0 -2.2344 -0.1406 rquadto
0.0313 -0.7344 rlineto
1.4063 0.1563 2.2031 0.1406 rquadto
3.5625 0 3.7813 -1.9531 rquadto
0.0313 -0.1563 0.0313 -0.2656 rquadto
0 -1.5 -1.7813 -1.6875 rquadto
-0.3125 -0.0156 -0.4688 -0.0156 rquadto
-1.2344 0 -2.7188 0.7969 rquadto
-0.5938 0.3281 -1.0781 0.7188 rquadto
-0.75 -0.1875 rlineto
0.2969 -1.5781 0.5469 -3.4531 rquadto
0.8281 0.0781 rlineto
closepath
} def
/P$u {
2.5313 0.3281 4.8906 0.3281 rquadto
0 0.7344 rlineto
-2.5156 0 -4.9844 -0.3438 rquadto
0.0938 -0.7188 rlineto
} def
/P$y {
0.3906 -0.7344 rlineto
1.8281 0.9219 3.3281 1.8438 rquadto
-0.4219 0.75 rlineto
-1.3906 -0.875 -3.2969 -1.8594 rquadto
closepath
} def
/P$27 {
-0.2344 -0.2422 -0.2344 -0.5625 rquadto
0 -0.3203 0.2344 -0.5547 rquadto
0.2344 -0.2344 0.5781 -0.2344 rquadto
0.3125 0 0.5547 0.2344 rquadto
0.2422 0.2344 0.2422 0.5547 rquadto
0 0.3203 -0.2422 0.5625 rquadto
-0.2422 0.2422 -0.5547 0.2422 rquadto
-0.3438 0 -0.5781 -0.2422 rquadto
closepath
} def
/P$2f {
-0.0313 0.0469 rlineto
-0.0469 -0.0781 -0.0313 -0.0781 rquadto
0.0625 0.0313 rlineto
closepath
} def
0 0 0 setrgbcolor
newpath
214 18 10 0 360 arc
closepath eofill
1 1 1 setrgbcolor
416 32.5931 6 69 12.5 roundrect
closepath eofill
1.5 setlinewidth
0 0 0 setrgbcolor
416 32.5931 6 69 12.5 roundrect
closepath stroke
0 setlinewidth
[] 0 setdash
0 0 0 setrgbcolor
newpath
18.7188 83.0301 moveto
P$0
fill
0 setlinewidth
[] 0 setdash
0 0 0 setrgbcolor
newpath
30.7656 83.5614 moveto
P$1
37.4375 81.8426 moveto
P$2
fill
0 setlinewidth
[] 0 setdash
0 0 0 setrgbcolor
newpath
43.3594 82.9989 moveto
P$3
fill
0 setlinewidth
[] 0 setdash
0 0 0 setrgbcolor
newpath
45.5625 80.3426 moveto
P$4
fill
0 setlinewidth
[] 0 setdash
0 0 0 setrgbcolor
newpath
56.2813 82.6395 moveto
P$5
54.8438 80.7332 moveto
P$6
fill
0 setlinewidth
[] 0 setdash
0 0 0 setrgbcolor
newpath
67.5156 80.5926 moveto
P$7
fill
0 setlinewidth
[] 0 setdash
0 0 0 setrgbcolor
newpath
77.3125 81.4364 moveto
P$8
fill
0 setlinewidth
[] 0 setdash
0 0 0 setrgbcolor
newpath
95.9375 81.6707 moveto
P$9
90.8594 81.5614 moveto
P$a
fill
0 setlinewidth
[] 0 setdash
0 0 0 setrgbcolor
newpath
107.0938 88.6239 moveto
P$b
106.2656 88.7489 moveto
P$c
fill
0 setlinewidth
[] 0 setdash
0 0 0 setrgbcolor
newpath
117.3281 88.5145 moveto
P$d
fill
0 setlinewidth
[] 0 setdash
0 0 0 setrgbcolor
newpath
118.5625 89.0145 moveto
P$e
fill
0 setlinewidth
[] 0 setdash
0 0 0 setrgbcolor
newpath
129.3281 88.5145 moveto
P$d
fill
0 setlinewidth
[] 0 setdash
0 0 0 setrgbcolor
newpath
131.6875 81.327 moveto
P$f
fill
0 setlinewidth
[] 0 setdash
0 0 0 setrgbcolor
newpath
144.4063 83.5457 moveto
P$g
144.8906 88.7645 moveto
P$h
fill
0 setlinewidth
[] 0 setdash
0 0 0 setrgbcolor
newpath
155.3281 84.9207 moveto
P$i
fill
0 setlinewidth
[] 0 setdash
0 0 0 setrgbcolor
newpath
169.0781 80.9676 moveto
P$j
fill
0 setlinewidth
[] 0 setdash
0 0 0 setrgbcolor
newpath
172.7969 88.4676 moveto
P$k
fill
0 setlinewidth
[] 0 setdash
0 0 0 setrgbcolor
newpath
187.3906 89.2332 moveto
P$l
fill
0 setlinewidth
[] 0 setdash
0 0 0 setrgbcolor
newpath
195.0781 82.3895 moveto
P$m
195.1875 82.4051 moveto
P$n
195.2031 82.3739 moveto
P$o
fill
0 setlinewidth
[] 0 setdash
0 0 0 setrgbcolor
newpath
201.3281 88.5145 moveto
P$d
fill
0 setlinewidth
[] 0 setdash
0 0 0 setrgbcolor
newpath
206.2031 87.8895 moveto
P$p
202.7188 83.5301 moveto
P$q
fill
0 setlinewidth
[] 0 setdash
0 0 0 setrgbcolor
newpath
209.3281 83.202 moveto
P$r
fill
0 setlinewidth
[] 0 setdash
0 0 0 setrgbcolor
newpath
216.0938 81.7489 moveto
P$s
fill
0 setlinewidth
[] 0 setdash
0 0 0 setrgbcolor
newpath
223.375 82.7489 moveto
P$t
223.375 80.827 moveto
P$u
fill
0 setlinewidth
[] 0 setdash
0 0 0 setrgbcolor
newpath
240.0156 80.327 moveto
P$v
241.4844 80.1395 moveto
P$w
fill
0 setlinewidth
[] 0 setdash
0 0 0 setrgbcolor
newpath
245.6719 81.9989 moveto
P$x
fill
0 setlinewidth
[] 0 setdash
0 0 0 setrgbcolor
newpath
257.8906 81.7957 moveto
P$y
266.3125 82.2176 moveto
P$z
fill
0 setlinewidth
[] 0 setdash
0 0 0 setrgbcolor
newpath
270.5 88.9364 moveto
P$10
270.5 88.1551 moveto
P$11
fill
0 setlinewidth
[] 0 setdash
0 0 0 setrgbcolor
newpath
282.375 85.4051 moveto
P$12
fill
0 setlinewidth
[] 0 setdash
0 0 0 setrgbcolor
newpath
298.1719 81.3426 moveto
P$13
299.7813 80.8895 moveto
P$14
295.7344 80.7489 moveto
P$15
fill
0 setlinewidth
[] 0 setdash
0 0 0 setrgbcolor
newpath
307.5156 80.5926 moveto
P$7
fill
0 setlinewidth
[] 0 setdash
0 0 0 setrgbcolor
newpath
318.8125 86.7645 moveto
P$16
fill
0 setlinewidth
[] 0 setdash
0 0 0 setrgbcolor
newpath
329.8438 81.4051 moveto
P$17
fill
0 setlinewidth
[] 0 setdash
0 0 0 setrgbcolor
newpath
348.0156 80.2489 moveto
P$18
349.4844 80.077 moveto
P$19
342.2813 81.952 moveto
P$1a
341.0469 84.1239 moveto
P$1b
fill
0 setlinewidth
[] 0 setdash
0 0 0 setrgbcolor
newpath
354.2031 85.7801 moveto
P$1c
fill
0 setlinewidth
[] 0 setdash
0 0 0 setrgbcolor
newpath
366.3125 89.4207 moveto
P$1d
fill
0 setlinewidth
[] 0 setdash
0 0 0 setrgbcolor
newpath
383.5625 83.7957 moveto
P$1e
385.0781 83.3739 moveto
P$1f
377.0938 82.202 moveto
P$1g
fill
0 setlinewidth
[] 0 setdash
0 0 0 setrgbcolor
newpath
389.9375 82.7489 moveto
P$1h
389.9375 82.1551 moveto
P$1i
397.5469 82.7489 moveto
P$1j
397.5469 82.1551 moveto
P$1k
392.1719 87.3895 moveto
P$1l
389.0938 89.8582 moveto
P$1m
394.0313 80.452 moveto
P$1n
394.3906 85.7176 moveto
P$1o
fill
0 setlinewidth
[] 0 setdash
0 0 0 setrgbcolor
newpath
408.2031 80.9207 moveto
P$1p
fill
1 1 1 setrgbcolor
newpath
214 143 moveto
12 12 rlineto
-12 12 rlineto
-12 -12 rlineto
12 -12 rlineto
214 143 lineto
closepath eofill
1.5 setlinewidth
0 0 0 setrgbcolor
newpath
214 143 moveto
12 12 rlineto
-12 12 rlineto
-12 -12 rlineto
12 -12 rlineto
214 143 lineto
closepath stroke
1 1 1 setrgbcolor
26 32.5931 177 223 12.5 roundrect
closepath eofill
1.5 setlinewidth
0 0 0 setrgbcolor
26 32.5931 177 223 12.5 roundrect
closepath stroke
0 setlinewidth
[] 0 setdash
0 0 0 setrgbcolor
newpath
191.0156 241.952 moveto
P$1q
191.7266 238.0223 moveto
P$1r
fill
1 1 1 setrgbcolor
26 32.5931 225 223 12.5 roundrect
closepath eofill
1.5 setlinewidth
0 0 0 setrgbcolor
26 32.5931 225 223 12.5 roundrect
closepath stroke
0 setlinewidth
[] 0 setdash
0 0 0 setrgbcolor
newpath
239.1563 241.8582 moveto
P$1s
237.2813 242.9129 moveto
P$1t
fill
1.0 setlinewidth
0 0 0 setrgbcolor
newpath
214 28.107 moveto
214 37.252 214 51.664 214 63.628 curveto
stroke
0 0 0 setrgbcolor
newpath
214 68.926 moveto
4 -9 rlineto
-4 4 rlineto
-4 -4 rlineto
4 9 rlineto
214 68.926 lineto
closepath eofill
1.0 setlinewidth
0 0 0 setrgbcolor
newpath
214 68.926 moveto
4 -9 rlineto
-4 4 rlineto
-4 -4 rlineto
4 9 rlineto
214 68.926 lineto
closepath stroke
1.0 setlinewidth
0 0 0 setrgbcolor
newpath
214 102.156 moveto
214 112.866 214 127.027 214 137.843 curveto
stroke
0 0 0 setrgbcolor
newpath
214 142.854 moveto
4 -9 rlineto
-4 4 rlineto
-4 -4 rlineto
4 9 rlineto
214 142.854 lineto
closepath eofill
1.0 setlinewidth
0 0 0 setrgbcolor
newpath
214 142.854 moveto
4 -9 rlineto
-4 4 rlineto
-4 -4 rlineto
4 9 rlineto
214 142.854 lineto
closepath stroke
0 setlinewidth
[] 0 setdash
0 0 0 setrgbcolor
newpath
78.4469 127.3257 moveto
P$1u
fill
0 setlinewidth
[] 0 setdash
0 0 0 setrgbcolor
newpath
92.5094 127.9351 moveto
P$1v
100.2906 125.9351 moveto
P$1w
fill
0 setlinewidth
[] 0 setdash
0 0 0 setrgbcolor
newpath
107.2125 127.2944 moveto
P$1x
fill
0 setlinewidth
[] 0 setdash
0 0 0 setrgbcolor
newpath
109.7906 124.1851 moveto
P$1y
fill
0 setlinewidth
[] 0 setdash
0 0 0 setrgbcolor
newpath
122.2906 126.8726 moveto
P$1z
120.6031 124.6538 moveto
P$20
fill
0 setlinewidth
[] 0 setdash
0 0 0 setrgbcolor
newpath
135.4 124.4819 moveto
P$21
fill
0 setlinewidth
[] 0 setdash
0 0 0 setrgbcolor
newpath
146.8219 125.4663 moveto
P$22
fill
0 setlinewidth
[] 0 setdash
0 0 0 setrgbcolor
newpath
168.5406 125.7476 moveto
P$23
162.6188 125.6226 moveto
P$24
fill
0 setlinewidth
[] 0 setdash
0 0 0 setrgbcolor
newpath
181.5719 133.8569 moveto
P$25
180.6031 133.9976 moveto
P$26
fill
0 setlinewidth
[] 0 setdash
0 0 0 setrgbcolor
newpath
190.3688 134.2241 moveto
P$27
190.4469 131.1538 moveto
P$28
fill
1.0 setlinewidth
0 0 0 setrgbcolor
newpath
207.892 161.4613 moveto
202.017 167.1621 193.523 176.6953 190 187 curveto
186.681 196.7082 186.338 208.0605 186.969 217.6325 curveto
stroke
0 0 0 setrgbcolor
newpath
187.407 222.7454 moveto
3.2167 -9.3088 rlineto
-3.6437 4.327 rlineto
-4.327 -3.6437 rlineto
4.7541 8.6255 rlineto
187.407 222.7454 lineto
closepath eofill
1.0 setlinewidth
0 0 0 setrgbcolor
newpath
187.407 222.7454 moveto
3.2167 -9.3088 rlineto
-3.6437 4.327 rlineto
-4.327 -3.6437 rlineto
4.7541 8.6255 rlineto
187.407 222.7454 lineto
closepath stroke
0 setlinewidth
[] 0 setdash
0 0 0 setrgbcolor
newpath
194.0781 199.6836 moveto
P$29
fill
0 setlinewidth
[] 0 setdash
0 0 0 setrgbcolor
newpath
203.2031 195.8398 moveto
P$2a
199.5469 198.9492 moveto
P$2b
fill
0 setlinewidth
[] 0 setdash
0 0 0 setrgbcolor
newpath
206.5313 197.8086 moveto
P$2c
210.4844 194.9258 moveto
P$2d
210.6563 196.7148 moveto
P$2e
206.4063 197.8086 moveto
P$2f
fill
1.0 setlinewidth
0 0 0 setrgbcolor
newpath
216.568 164.8289 moveto
220.207 177.3357 226.97 200.584 231.929 217.6305 curveto
stroke
0 0 0 setrgbcolor
newpath
233.405 222.703 moveto
1.3269 -9.7591 rlineto
-2.7235 4.9581 rlineto
-4.9581 -2.7235 rlineto
6.3547 7.5245 rlineto
233.405 222.703 lineto
closepath eofill
1.0 setlinewidth
0 0 0 setrgbcolor
newpath
233.405 222.703 moveto
1.3269 -9.7591 rlineto
-2.7235 4.9581 rlineto
-4.9581 -2.7235 rlineto
6.3547 7.5245 rlineto
233.405 222.703 lineto
closepath stroke
0 setlinewidth
[] 0 setdash
0 0 0 setrgbcolor
newpath
228.7031 190.9648 moveto
P$2g
fill
0 setlinewidth
[] 0 setdash
0 0 0 setrgbcolor
newpath
239.4844 198.6367 moveto
P$2h
236.9688 199.3711 moveto
P$2i
fill
grestore
showpage
%plantuml done
%%EOF
