%!PS-Adobe-3.0 EPSF-3.0
%%Creator: PlantUML v1.2017.15      
%%Title: noTitle
%%BoundingBox: 0 0 249 280
%%ColorUsage: Color
%%Origin: 0 0
%%EndComments

gsave
0 280 translate
1 -1 scale
/simplerect {
newpath moveto 1 index 0 rlineto
0 exch rlineto
neg 0 rlineto
} def
/rquadto {
3 index 3 index 4 2 roll rcurveto
} def
/P$q {
0.5781 0.6875 rlineto
-0.9531 1.0156 -2.3125 1.0156 rquadto
-0.9219 0 -1.6406 -0.4375 rquadto
-0.7031 -0.4219 -1.1406 -1.2031 rquadto
-0.4219 -0.75 -0.4219 -1.7031 rquadto
0 -0.9531 0.4219 -1.7188 rquadto
0.4219 -0.7656 1.1406 -1.1875 rquadto
0.7188 -0.4375 1.625 -0.4375 rquadto
0.7969 0 1.4063 0.3125 rquadto
0.6094 0.3125 1.0156 0.8906 rquadto
-0.625 0.6094 rlineto
-0.0156 0.0156 rlineto
-0.4219 -0.5625 -0.8281 -0.75 rquadto
-0.4063 -0.2188 -1.0625 -0.2188 rquadto
-0.5469 0 -1 0.2969 rquadto
-0.4844 0.3125 -0.7656 0.8594 rquadto
-0.2813 0.5469 -0.2813 1.25 rquadto
0 0.75 0.2813 1.2969 rquadto
0.2969 0.5625 0.8203 0.8906 rquadto
0.5234 0.3281 1.1328 0.3281 rquadto
0.9688 0 1.6719 -0.7969 rquadto
closepath
} def
/P$l {
0.0313 -0.0469 rlineto
0.0469 0.0781 rlineto
-0.0469 -0.0313 -0.0781 -0.0313 rquadto
} def
/P$z {
1.0156 0 rlineto
0 1.25 rlineto
0.2188 -0.7031 0.7344 -1.0469 rquadto
0.5156 -0.3438 1.2188 -0.3438 rquadto
0.7188 0 1.3438 0.375 rquadto
0.6094 0.375 0.9688 1.1094 rquadto
0.3594 0.75 0.3594 1.7969 rquadto
0 1.0625 -0.3828 1.8516 rquadto
-0.3828 0.7891 -1.0078 1.1797 rquadto
-0.6094 0.3906 -1.3125 0.3906 rquadto
-0.5938 0 -1.0781 -0.2656 rquadto
-0.5313 -0.2813 -0.8281 -0.75 rquadto
0 3.1875 rlineto
-1.0313 0 rlineto
0 -8.7344 rlineto
} def
/P$10 {
0.9688 0 rlineto
0 1.125 rlineto
0.375 -0.5781 0.9531 -0.9375 rquadto
0.5625 -0.3438 1.2188 -0.3438 rquadto
0.8594 0 1.3594 0.6406 rquadto
0.5156 0.6719 0.5156 2.0313 rquadto
0 3.875 rlineto
-0.9844 0 rlineto
0 -3.8438 rlineto
0 -0.9375 -0.3125 -1.3906 rquadto
-0.3125 -0.4375 -0.8594 -0.4375 rquadto
-0.4375 0 -0.875 0.25 rquadto
-0.4375 0.25 -0.7344 0.7188 rquadto
-0.2813 0.4375 -0.2813 1.0156 rquadto
0 3.6875 rlineto
-0.9688 0 rlineto
0 -6.3906 rlineto
closepath
} def
/P$7 {
0 -0.0313 0.0469 -0.0313 rquadto
0.0156 0 0.0781 0.0313 rquadto
-0.0313 0.0781 rlineto
-0.0938 -0.0625 rlineto
0 -0.0156 rlineto
closepath
} def
/P$m {
-0.3906 -0.3906 -0.6719 -0.5156 rquadto
-0.2656 -0.125 -0.6563 -0.125 rquadto
-0.5 0 -0.9375 0.25 rquadto
-0.4688 0.2656 -0.7344 0.7656 rquadto
-0.2813 0.5156 -0.2813 1.2813 rquadto
0 3.4063 rlineto
-1.0156 0 rlineto
0 -6.4063 rlineto
1.0469 0 rlineto
-0.0313 1.1719 rlineto
0.2656 -0.6406 0.8125 -0.9844 rquadto
0.5313 -0.3438 1.2188 -0.3438 rquadto
1.0156 0 1.6875 0.6875 rquadto
-0.4375 0.7969 rlineto
0 0.0156 rlineto
} def
/P$x {
-0.8281 0.7813 rlineto
0 2.4219 rlineto
-1.0313 0 rlineto
0 -9.3125 rlineto
1.1563 0 rlineto
0 0.0938 rlineto
-0.1094 0.1094 -0.125 0.1875 rquadto
0 0.0781 0 0.3438 rquadto
0 5.2344 rlineto
3.2031 -2.9688 rlineto
0.3906 0.0625 0.7344 0.0625 rquadto
0.375 0 rlineto
-2.7031 2.5313 rlineto
3.1406 3.8281 rlineto
-1.2969 0.0625 rlineto
-2.625 -3.2656 rlineto
closepath
} def
/P$6 {
-0.8594 -0.875 -0.8594 -2.4375 rquadto
0 -1.0625 0.3906 -1.8125 rquadto
0.4219 -0.7969 1.0469 -1.1719 rquadto
0.6563 -0.3906 1.5 -0.3906 rquadto
1.1719 0 1.8906 0.7656 rquadto
0.7188 0.7656 0.7188 2.2656 rquadto
0 0.0469 -0.0313 0.4688 rquadto
-4.5469 0 rlineto
0.0625 1.1875 0.6563 1.7656 rquadto
0.5938 0.6094 1.5313 0.6094 rquadto
1 0 1.6406 -0.7188 rquadto
0.5625 0.5469 rlineto
-0.8125 0.9844 -2.2422 0.9844 rquadto
-1.4297 0 -2.2578 -0.875 rquadto
} def
/P$v {
0.4219 -0.3281 0.6719 -0.8906 rquadto
0.2344 -0.5313 0.2344 -1.2813 rquadto
0 -1.0938 -0.5313 -1.7969 rquadto
-0.5156 -0.6875 -1.3594 -0.6875 rquadto
-0.8438 0 -1.3594 0.6875 rquadto
-0.5313 0.7031 -0.5313 1.7969 rquadto
0 0.75 0.2344 1.2813 rquadto
0.25 0.5625 0.6719 0.8906 rquadto
0.4375 0.3125 0.9844 0.3125 rquadto
0.5469 0 0.9844 -0.3125 rquadto
closepath
} def
/P$i {
0 -0.0313 0.0625 -0.0156 rquadto
0.0156 0.0156 0.0313 0.0156 rquadto
0.0156 0.0156 0.0313 0.0156 rquadto
-0.0469 0.0469 rlineto
-0.0781 -0.0469 rlineto
0 -0.0156 rlineto
closepath
} def
/P$3 {
0.5 0.4219 0.5 1.1094 rquadto
0 0.875 -0.6719 1.4375 rquadto
-0.6563 0.5625 -1.9688 0.5625 rquadto
-1.625 0 -2.7188 -1.0156 rquadto
0.5625 -0.9375 rlineto
0.0156 -0.0156 rlineto
0.0156 0.0156 rlineto
0.4375 0.5625 0.8906 0.8281 rquadto
0.4844 0.2813 1.2656 0.2813 rquadto
0.7344 0 1.1875 -0.2813 rquadto
0.4375 -0.2656 0.4375 -0.7344 rquadto
0 -0.4063 -0.3594 -0.6719 rquadto
-0.3281 -0.2656 -1.25 -0.5625 rquadto
-2.4219 -0.6875 -2.4219 -1.9844 rquadto
0 -0.7344 0.625 -1.1875 rquadto
0.5938 -0.4219 1.7344 -0.4219 rquadto
0.875 0 1.4531 0.25 rquadto
0.6563 0.2813 1.0938 0.75 rquadto
-0.5781 0.7031 rlineto
-0.0156 0.0156 rlineto
-0.2969 -0.4844 -0.8281 -0.7188 rquadto
-0.5469 -0.25 -1.0938 -0.25 rquadto
-0.6094 0 -0.9844 0.2031 rquadto
-0.3906 0.2344 -0.3906 0.5938 rquadto
0 0.3594 0.3906 0.6406 rquadto
0.4063 0.2969 1.4219 0.5938 rquadto
1.1406 0.3281 1.6875 0.7969 rquadto
closepath
} def
/P$y {
0.5313 -0.6094 0.5313 -1.8906 rquadto
0 -1.2031 -0.4609 -1.8359 rquadto
-0.4609 -0.6328 -1.3203 -0.6328 rquadto
-0.8125 0 -1.3047 0.6563 rquadto
-0.4922 0.6563 -0.4922 2.0313 rquadto
0.0156 1.1094 0.5 1.6875 rquadto
0.4531 0.5625 1.25 0.5625 rquadto
0.7656 0 1.2969 -0.5781 rquadto
closepath
} def
/P$f {
0.9688 0 rlineto
0 1.125 rlineto
0.375 -0.5781 0.9531 -0.9375 rquadto
0.5625 -0.3438 1.2188 -0.3438 rquadto
0.8594 0 1.3594 0.6406 rquadto
0.5156 0.6719 0.5156 2.0313 rquadto
0 3.875 rlineto
-0.9844 0 rlineto
0 -3.8438 rlineto
0 -0.9375 -0.3125 -1.3906 rquadto
-0.3125 -0.4375 -0.8594 -0.4375 rquadto
-0.4375 0 -0.875 0.25 rquadto
-0.4375 0.25 -0.7344 0.7188 rquadto
-0.2813 0.4375 -0.2813 1.0156 rquadto
0 3.6875 rlineto
-0.9688 0 rlineto
0 -6.3906 rlineto
} def
/P$0 {
-0.7109 -0.8281 -0.7109 -2.3438 rquadto
0 -5.7031 rlineto
1.0938 0 rlineto
0 0.0938 rlineto
-0.1094 0.0938 -0.1094 0.1875 rquadto
-0.0156 0.0625 -0.0156 0.3281 rquadto
0 5.1094 rlineto
0 1.125 0.4297 1.7266 rquadto
0.4297 0.6016 1.4297 0.6016 rquadto
1.0156 0 1.4531 -0.6016 rquadto
0.4375 -0.6016 0.4375 -1.7578 rquadto
0 -5.6875 rlineto
0.9375 0 rlineto
0 5.6719 rlineto
0 1.6094 -0.7578 2.4063 rquadto
-0.7578 0.7969 -2.0859 0.7969 rquadto
-1.3906 0 -2.1016 -0.8281 rquadto
} def
/P$a {
0.4609 -0.2813 0.7734 -0.7813 rquadto
0.7188 0.4844 rlineto
-0.4375 0.7031 -1.0156 1.0625 rquadto
-0.6094 0.3594 -1.4375 0.3594 rquadto
-1 0 -1.75 -0.4844 rquadto
-0.7188 -0.4531 -1.2031 -1.4688 rquadto
-0.4531 -0.9844 -0.4531 -2.5 rquadto
0 -1.5781 0.4844 -2.6094 rquadto
0.4844 -0.9844 1.25 -1.4375 rquadto
0.7344 -0.4375 1.625 -0.4375 rquadto
0.9375 0 1.6094 0.4688 rquadto
0.6563 0.4531 1.0156 1.2656 rquadto
-0.8438 0.3906 rlineto
0.0313 0.0469 0.0234 0.0547 rquadto
-0.0078 0.0078 -0.0391 -0.0391 rquadto
0.0156 -0.0156 rlineto
0 -0.0156 rlineto
-0.3594 -0.7188 -0.8125 -1.0313 rquadto
-0.4375 -0.2969 -1 -0.2969 rquadto
-1.1406 0 -1.75 0.9531 rquadto
-0.625 0.9688 -0.625 2.6875 rquadto
0 1.0625 0.3125 1.9063 rquadto
0.3125 0.8281 0.875 1.3125 rquadto
0.5469 0.4531 1.2344 0.4531 rquadto
0.5313 0 0.9922 -0.2813 rquadto
closepath
} def
/P$9 {
-0.3906 -0.3906 -0.6719 -0.5156 rquadto
-0.2656 -0.125 -0.6563 -0.125 rquadto
-0.5 0 -0.9375 0.25 rquadto
-0.4688 0.2656 -0.7344 0.7656 rquadto
-0.2813 0.5156 -0.2813 1.2813 rquadto
0 3.4063 rlineto
-1.0156 0 rlineto
0 -6.4063 rlineto
1.0469 0 rlineto
-0.0313 1.1719 rlineto
0.2656 -0.6406 0.8125 -0.9844 rquadto
0.5313 -0.3438 1.2188 -0.3438 rquadto
1.0156 0 1.6875 0.6875 rquadto
-0.4375 0.7969 rlineto
0 0.0156 rlineto
closepath
} def
/P$j {
0.4766 0.5313 0.4766 1.375 rquadto
0 0.6406 -0.3281 1.2188 rquadto
-0.3281 0.5781 -0.9688 0.9375 rquadto
-0.6563 0.3594 -1.625 0.3594 rquadto
-1.7031 0 -2.7188 -1.1094 rquadto
0.5 -0.875 rlineto
0 -0.0156 rlineto
0.0156 0.0156 rlineto
0.3906 0.5313 0.9688 0.8125 rquadto
0.5781 0.2969 1.375 0.2969 rquadto
0.7813 0 1.2969 -0.4375 rquadto
0.5156 -0.4375 0.5156 -1.0625 rquadto
0 -0.3906 -0.1719 -0.6719 rquadto
-0.1875 -0.2969 -0.5781 -0.5469 rquadto
-0.4219 -0.2656 -1.25 -0.6406 rquadto
-1.3125 -0.5156 -1.8438 -1.1406 rquadto
-0.5469 -0.6719 -0.5469 -1.4375 rquadto
0 -0.9844 0.7109 -1.5703 rquadto
0.7109 -0.5859 1.9453 -0.5859 rquadto
0.7031 0 1.3438 0.2813 rquadto
0.6406 0.2969 1.0781 0.8125 rquadto
-0.5469 0.7188 rlineto
-0.0156 0.0156 rlineto
-0.4219 -0.5625 -0.8906 -0.7969 rquadto
-0.4375 -0.2188 -1.125 -0.2188 rquadto
-0.6563 0 -1.0781 0.375 rquadto
-0.4219 0.375 -0.4219 0.8906 rquadto
0 0.4063 0.1719 0.7031 rquadto
0.1563 0.2813 0.6406 0.5938 rquadto
0.4375 0.2656 1.3438 0.6406 rquadto
1.25 0.5313 1.7266 1.0625 rquadto
closepath
} def
/P$s {
-0.0469 0.0469 rlineto
-0.0781 -0.0625 rlineto
0 -0.0938 0.125 0.0156 rquadto
} def
/P$t {
-0.8594 -0.875 -0.8594 -2.4375 rquadto
0 -1.0625 0.3906 -1.8125 rquadto
0.4219 -0.7969 1.0469 -1.1719 rquadto
0.6563 -0.3906 1.5 -0.3906 rquadto
1.1719 0 1.8906 0.7656 rquadto
0.7188 0.7656 0.7188 2.2656 rquadto
0 0.0469 -0.0313 0.4688 rquadto
-4.5469 0 rlineto
0.0625 1.1875 0.6563 1.7656 rquadto
0.5938 0.6094 1.5313 0.6094 rquadto
1 0 1.6406 -0.7188 rquadto
0.5625 0.5469 rlineto
-0.8125 0.9844 -2.2422 0.9844 rquadto
-1.4297 0 -2.2578 -0.875 rquadto
closepath
} def
/P$p {
2.0313 0 rlineto
1.0781 0 1.7188 0.2969 rquadto
0.6406 0.2813 1.0938 0.8906 rquadto
0.8438 1.1406 0.8438 3.2188 rquadto
-0.0781 2.1094 -0.9844 3.2188 rquadto
-0.9063 1.125 -2.8281 1.1094 rquadto
-1.875 0 rlineto
0 -8.7344 rlineto
} def
/P$u {
0.8906 0 rlineto
1.0313 5.125 rlineto
1.0938 -4.5313 rlineto
0.6094 0 rlineto
1.3594 4.5156 rlineto
0.3281 -2.1094 0.5 -3.4219 rquadto
0.0938 -0.7656 0.0938 -1.4844 rquadto
0 -0.2031 rlineto
0.9375 0 rlineto
-0.4219 3.2969 -1.0625 6.4063 rquadto
-0.9531 0 rlineto
-1.1719 -4.1406 rlineto
-1.125 4.1406 rlineto
-0.9063 0 rlineto
-1.2969 -6.4063 rlineto
} def
/P$r {
0.0313 -0.0313 rlineto
0.0156 0.0313 0.0469 0.0625 rquadto
0 0 rlineto
-0.0625 -0.0156 -0.0781 -0.0313 rquadto
closepath
} def
/P$2 {
0 0.0234 -0.0313 -0.0078 rquadto
0 -0.0156 rlineto
-0.0156 0 -0.0313 0 rquadto
-0.0469 0.0469 rlineto
-0.0625 -0.0625 rlineto
0 -0.0781 0.1094 0.0156 rquadto
0.0313 -0.0469 rlineto
0.0313 0.0469 0.0313 0.0703 rquadto
closepath
} def
/P$o {
2.875 0 2.875 -3.5 rquadto
-0.0156 -1.8125 -0.6563 -2.7188 rquadto
-0.6563 -0.9219 -2.0625 -0.9219 rquadto
-1.0469 0 rlineto
0 7.1406 rlineto
0.8906 0 rlineto
closepath
} def
/P$d {
0 -0.8125 rlineto
1.625 0 rlineto
0 -4.7813 rlineto
-1.5469 0 rlineto
0 -0.7969 rlineto
2.5625 0 rlineto
0 5.5781 rlineto
1.5 0 rlineto
0 0.8125 rlineto
-4.1406 0 rlineto
closepath
} def
/P$b {
-0.1094 0.0313 rlineto
-0.0313 -0.0938 rlineto
0.0313 -0.0313 rlineto
0.0156 0 0.1094 0.0938 rquadto
} def
/P$n {
-0.25 1.1719 -0.9375 2.7969 rquadto
-1.5625 3.5938 rlineto
-0.7813 0 rlineto
-2.5313 -6.3906 rlineto
1 0 rlineto
1.9844 5 rlineto
1.0313 -2.3594 rlineto
0.6563 -1.4531 0.8438 -2.6406 rquadto
0.9531 0 rlineto
} def
/P$c {
0 -0.8125 rlineto
1.8906 0 rlineto
0 -7.6875 rlineto
-1.8125 0 rlineto
0 -0.8125 rlineto
2.8281 0 rlineto
0 8.5 rlineto
1.875 0 rlineto
0 0.8125 rlineto
-4.7813 0 rlineto
} def
/P$k {
-0.0313 0.0625 rlineto
-0.0469 -0.0625 -0.0391 -0.0781 rquadto
0.0078 -0.0156 0.0703 0.0156 rquadto
closepath
} def
/P$h {
0 0.0313 -0.0625 0.0156 rquadto
-0.0313 -0.0156 -0.0469 -0.0156 rquadto
-0.0156 -0.0156 rlineto
0.0156 -0.0469 rlineto
0.1094 0.0469 rlineto
0 0.0156 rlineto
closepath
} def
/P$4 {
-0.0313 0.0469 rlineto
-0.0469 -0.0781 -0.0313 -0.0781 rquadto
0.0625 0.0313 rlineto
} def
/P$5 {
0 -0.9219 -0.4375 -1.4219 rquadto
-0.4688 -0.5156 -1.2031 -0.5156 rquadto
-0.6875 0 -1.2188 0.4844 rquadto
-0.5313 0.4844 -0.6563 1.4531 rquadto
3.5156 0 rlineto
closepath
} def
/P$g {
-0.9063 0.6875 -2.0313 0.6875 rquadto
-1.0625 0 -1.5 -0.6406 rquadto
-0.4531 -0.6563 -0.4531 -2.0938 rquadto
0 -0.0469 0.0313 -0.8281 rquadto
0.125 -2.1094 rlineto
-1.4063 0 rlineto
0 -0.8125 rlineto
1.4688 0 rlineto
0.0938 -1.7188 rlineto
1.125 -0.1719 rlineto
0.1406 -0.0156 rlineto
0.0156 0.0781 rlineto
-0.1406 0.1875 -0.1563 0.2344 rquadto
-0.0313 0.0938 -0.0625 0.3125 rquadto
-0.1563 1.2813 rlineto
2.1406 0 rlineto
0 0.8125 rlineto
-2.1875 0 rlineto
-0.125 2.1719 rlineto
0 0.1406 -0.0078 0.3203 rquadto
-0.0078 0.1797 -0.0156 0.2734 rquadto
-0.0078 0.0938 -0.0078 0.1563 rquadto
0 1.1094 0.25 1.5156 rquadto
0.25 0.4063 0.8438 0.4063 rquadto
0.3906 0 0.7656 -0.1563 rquadto
0.3438 -0.1406 0.7969 -0.5 rquadto
0.3125 0.7969 rlineto
closepath
} def
/P$w {
-0.6719 -0.4219 -1.0469 -1.1719 rquadto
-0.375 -0.75 -0.375 -1.7188 rquadto
0 -0.9688 0.375 -1.7266 rquadto
0.375 -0.7578 1.0469 -1.1797 rquadto
0.7031 -0.4219 1.5313 -0.4219 rquadto
0.8281 0 1.5313 0.4219 rquadto
0.6719 0.4219 1.0469 1.1797 rquadto
0.375 0.7578 0.375 1.7266 rquadto
0 0.9688 -0.375 1.7188 rquadto
-0.375 0.75 -1.0469 1.1719 rquadto
-0.6719 0.4219 -1.5313 0.4219 rquadto
-0.8594 0 -1.5313 -0.4219 rquadto
} def
/P$11 {
-0.9063 0.6875 -2.0313 0.6875 rquadto
-1.0625 0 -1.5 -0.6406 rquadto
-0.4531 -0.6563 -0.4531 -2.0938 rquadto
0 -0.0469 0.0313 -0.8281 rquadto
0.125 -2.1094 rlineto
-1.4063 0 rlineto
0 -0.8125 rlineto
1.4688 0 rlineto
0.0938 -1.7188 rlineto
1.125 -0.1719 rlineto
0.1406 -0.0156 rlineto
0.0156 0.0781 rlineto
-0.1406 0.1875 -0.1563 0.2344 rquadto
-0.0313 0.0938 -0.0625 0.3125 rquadto
-0.1563 1.2813 rlineto
2.1406 0 rlineto
0 0.8125 rlineto
-2.1875 0 rlineto
-0.125 2.1719 rlineto
0 0.1406 -0.0078 0.3203 rquadto
-0.0078 0.1797 -0.0156 0.2734 rquadto
-0.0078 0.0938 -0.0078 0.1563 rquadto
0 1.1094 0.25 1.5156 rquadto
0.25 0.4063 0.8438 0.4063 rquadto
0.3906 0 0.7656 -0.1563 rquadto
0.3438 -0.1406 0.7969 -0.5 rquadto
0.3125 0.7969 rlineto
} def
/P$8 {
0.0313 -0.0313 rlineto
0.0469 0.0625 rlineto
-0.0156 0 -0.0391 -0.0078 rquadto
-0.0234 -0.0078 -0.0391 -0.0234 rquadto
closepath
} def
/P$1 {
0 0.0625 -0.125 0 rquadto
0.0313 -0.0781 rlineto
0.0938 0.0625 rlineto
0 0.0156 rlineto
closepath
} def
/P$e {
-0.2109 -0.2109 -0.2109 -0.5078 rquadto
0 -0.3281 0.2031 -0.5156 rquadto
0.2031 -0.2188 0.5156 -0.2188 rquadto
0.2969 0 0.5156 0.2344 rquadto
0.2188 0.2031 0.2188 0.5 rquadto
0 0.2969 -0.2109 0.5078 rquadto
-0.2109 0.2109 -0.5234 0.2109 rquadto
-0.2969 0 -0.5078 -0.2109 rquadto
} def
1 1 1 setrgbcolor
10 171.4596 83 62.6919 simplerect
closepath eofill
1.0 setlinewidth
0 0 0 setrgbcolor
10 171.4596 83 62.6919 simplerect
closepath stroke
1 1 1 setrgbcolor
10 14.6919 149 91.3839 simplerect
closepath eofill
1.0 setlinewidth
0 0 0 setrgbcolor
10 14.6919 149 91.3839 simplerect
closepath stroke
1 1 1 setrgbcolor
10 43.3839 149 134.0758 simplerect
closepath eofill
1.0 setlinewidth
0 0 0 setrgbcolor
10 43.3839 149 134.0758 simplerect
closepath stroke
1 1 1 setrgbcolor
10 14.6919 149 205.4596 simplerect
closepath eofill
1.0 setlinewidth
0 0 0 setrgbcolor
10 14.6919 149 205.4596 simplerect
closepath stroke
1 1 1 setrgbcolor
10 14.6919 215 162.7677 simplerect
closepath eofill
1.0 setlinewidth
0 0 0 setrgbcolor
10 14.6919 215 162.7677 simplerect
closepath stroke
1.0 setlinewidth
0 0 0 setrgbcolor
newpath
29 32.6919 moveto
22{
0 5 rlineto
0 5 rmoveto
} repeat
stroke
1.0 setlinewidth
0 0 0 setrgbcolor
newpath
88 32.6919 moveto
22{
0 5 rlineto
0 5 rmoveto
} repeat
stroke
1.0 setlinewidth
0 0 0 setrgbcolor
newpath
154 32.6919 moveto
22{
0 5 rlineto
0 5 rmoveto
} repeat
stroke
1.0 setlinewidth
0 0 0 setrgbcolor
newpath
220 32.6919 moveto
22{
0 5 rlineto
0 5 rmoveto
} repeat
stroke
1 1 1 setrgbcolor
42 28.6919 8 3 simplerect
closepath eofill
1.5 setlinewidth
0 0 0 setrgbcolor
42 28.6919 8 3 simplerect
closepath stroke
0 setlinewidth
[] 0 setdash
0 0 0 setrgbcolor
newpath
16.4141 21.0117 moveto
P$0
fill
0 setlinewidth
[] 0 setdash
0 0 0 setrgbcolor
newpath
23.5313 19.8086 moveto
P$1
27.4844 16.9258 moveto
P$2
27.6563 18.7148 moveto
P$3
23.4063 19.8086 moveto
P$4
fill
0 setlinewidth
[] 0 setdash
0 0 0 setrgbcolor
newpath
34.2031 17.8398 moveto
P$5
30.5469 20.9492 moveto
P$6
fill
0 setlinewidth
[] 0 setdash
0 0 0 setrgbcolor
newpath
41.8125 16.668 moveto
P$7
41.9375 16.668 moveto
P$8
41.9688 16.6367 moveto
P$9
fill
1 1 1 setrgbcolor
42 28.6919 8 251.1516 simplerect
closepath eofill
1.5 setlinewidth
0 0 0 setrgbcolor
42 28.6919 8 251.1516 simplerect
closepath stroke
0 setlinewidth
[] 0 setdash
0 0 0 setrgbcolor
newpath
16.4141 269.1633 moveto
P$0
fill
0 setlinewidth
[] 0 setdash
0 0 0 setrgbcolor
newpath
23.5313 267.9601 moveto
P$1
27.4844 265.0773 moveto
P$2
27.6563 266.8664 moveto
P$3
23.4063 267.9601 moveto
P$4
fill
0 setlinewidth
[] 0 setdash
0 0 0 setrgbcolor
newpath
34.2031 265.9914 moveto
P$5
30.5469 269.1008 moveto
P$6
fill
0 setlinewidth
[] 0 setdash
0 0 0 setrgbcolor
newpath
41.8125 264.8195 moveto
P$7
41.9375 264.8195 moveto
P$8
41.9688 264.7883 moveto
P$9
fill
1 1 1 setrgbcolor
56 28.6919 60 3 simplerect
closepath eofill
1.5 setlinewidth
0 0 0 setrgbcolor
56 28.6919 60 3 simplerect
closepath stroke
0 setlinewidth
[] 0 setdash
0 0 0 setrgbcolor
newpath
71.9453 20.6992 moveto
P$a
72.7031 15.0273 moveto
P$b
fill
0 setlinewidth
[] 0 setdash
0 0 0 setrgbcolor
newpath
75.1094 21.6836 moveto
P$c
fill
0 setlinewidth
[] 0 setdash
0 0 0 setrgbcolor
newpath
82.4063 21.6836 moveto
P$d
83.9766 13.7383 moveto
P$e
fill
0 setlinewidth
[] 0 setdash
0 0 0 setrgbcolor
newpath
93.2031 17.8398 moveto
P$5
89.5469 20.9492 moveto
P$6
fill
0 setlinewidth
[] 0 setdash
0 0 0 setrgbcolor
newpath
96.0156 15.293 moveto
P$f
fill
0 setlinewidth
[] 0 setdash
0 0 0 setrgbcolor
newpath
108.2188 21.0898 moveto
P$g
fill
1 1 1 setrgbcolor
56 28.6919 60 251.1516 simplerect
closepath eofill
1.5 setlinewidth
0 0 0 setrgbcolor
56 28.6919 60 251.1516 simplerect
closepath stroke
0 setlinewidth
[] 0 setdash
0 0 0 setrgbcolor
newpath
71.9453 268.8508 moveto
P$a
72.7031 263.1789 moveto
P$b
fill
0 setlinewidth
[] 0 setdash
0 0 0 setrgbcolor
newpath
75.1094 269.8351 moveto
P$c
fill
0 setlinewidth
[] 0 setdash
0 0 0 setrgbcolor
newpath
82.4063 269.8351 moveto
P$d
83.9766 261.8898 moveto
P$e
fill
0 setlinewidth
[] 0 setdash
0 0 0 setrgbcolor
newpath
93.2031 265.9914 moveto
P$5
89.5469 269.1008 moveto
P$6
fill
0 setlinewidth
[] 0 setdash
0 0 0 setrgbcolor
newpath
96.0156 263.4445 moveto
P$f
fill
0 setlinewidth
[] 0 setdash
0 0 0 setrgbcolor
newpath
108.2188 269.2414 moveto
P$g
fill
1 1 1 setrgbcolor
56 28.6919 126 3 simplerect
closepath eofill
1.5 setlinewidth
0 0 0 setrgbcolor
56 28.6919 126 3 simplerect
closepath stroke
0 setlinewidth
[] 0 setdash
0 0 0 setrgbcolor
newpath
134.3906 19.7773 moveto
P$h
138.375 14.7148 moveto
P$i
138.8984 17.9336 moveto
P$j
134.2656 19.7617 moveto
P$k
138.5 14.7305 moveto
P$l
fill
0 setlinewidth
[] 0 setdash
0 0 0 setrgbcolor
newpath
145.2031 17.8398 moveto
P$5
141.5469 20.9492 moveto
P$6
fill
0 setlinewidth
[] 0 setdash
0 0 0 setrgbcolor
newpath
152.8125 16.668 moveto
P$7
152.9375 16.668 moveto
P$8
152.9688 16.6367 moveto
P$m
fill
0 setlinewidth
[] 0 setdash
0 0 0 setrgbcolor
newpath
160.375 15.293 moveto
P$n
fill
0 setlinewidth
[] 0 setdash
0 0 0 setrgbcolor
newpath
166.2031 17.8398 moveto
P$5
162.5469 20.9492 moveto
P$6
fill
0 setlinewidth
[] 0 setdash
0 0 0 setrgbcolor
newpath
173.8125 16.668 moveto
P$7
173.9375 16.668 moveto
P$8
173.9688 16.6367 moveto
P$9
fill
1 1 1 setrgbcolor
56 28.6919 126 251.1516 simplerect
closepath eofill
1.5 setlinewidth
0 0 0 setrgbcolor
56 28.6919 126 251.1516 simplerect
closepath stroke
0 setlinewidth
[] 0 setdash
0 0 0 setrgbcolor
newpath
134.3906 267.9289 moveto
P$h
138.375 262.8664 moveto
P$i
138.8984 266.0851 moveto
P$j
134.2656 267.9133 moveto
P$k
138.5 262.882 moveto
P$l
fill
0 setlinewidth
[] 0 setdash
0 0 0 setrgbcolor
newpath
145.2031 265.9914 moveto
P$5
141.5469 269.1008 moveto
P$6
fill
0 setlinewidth
[] 0 setdash
0 0 0 setrgbcolor
newpath
152.8125 264.8195 moveto
P$7
152.9375 264.8195 moveto
P$8
152.9688 264.7883 moveto
P$m
fill
0 setlinewidth
[] 0 setdash
0 0 0 setrgbcolor
newpath
160.375 263.4445 moveto
P$n
fill
0 setlinewidth
[] 0 setdash
0 0 0 setrgbcolor
newpath
166.2031 265.9914 moveto
P$5
162.5469 269.1008 moveto
P$6
fill
0 setlinewidth
[] 0 setdash
0 0 0 setrgbcolor
newpath
173.8125 264.8195 moveto
P$7
173.9375 264.8195 moveto
P$8
173.9688 264.7883 moveto
P$9
fill
1 1 1 setrgbcolor
56 28.6919 192 3 simplerect
closepath eofill
1.5 setlinewidth
0 0 0 setrgbcolor
56 28.6919 192 3 simplerect
closepath stroke
0 setlinewidth
[] 0 setdash
0 0 0 setrgbcolor
newpath
201.5781 20.9336 moveto
P$o
199.75 12.9648 moveto
P$p
fill
0 setlinewidth
[] 0 setdash
0 0 0 setrgbcolor
newpath
211.2031 17.8398 moveto
P$5
207.5469 20.9492 moveto
P$6
fill
0 setlinewidth
[] 0 setdash
0 0 0 setrgbcolor
newpath
219.375 15.293 moveto
P$n
fill
0 setlinewidth
[] 0 setdash
0 0 0 setrgbcolor
newpath
221.4063 21.6836 moveto
P$d
222.9766 13.7383 moveto
P$e
fill
0 setlinewidth
[] 0 setdash
0 0 0 setrgbcolor
newpath
232.7188 20.1367 moveto
P$q
232.7188 17.0117 moveto
P$r
232.7188 17.0117 moveto
P$s
fill
0 setlinewidth
[] 0 setdash
0 0 0 setrgbcolor
newpath
239.2031 17.8398 moveto
P$5
235.5469 20.9492 moveto
P$t
fill
1 1 1 setrgbcolor
56 28.6919 192 251.1516 simplerect
closepath eofill
1.5 setlinewidth
0 0 0 setrgbcolor
56 28.6919 192 251.1516 simplerect
closepath stroke
0 setlinewidth
[] 0 setdash
0 0 0 setrgbcolor
newpath
201.5781 269.0851 moveto
P$o
199.75 261.1164 moveto
P$p
fill
0 setlinewidth
[] 0 setdash
0 0 0 setrgbcolor
newpath
211.2031 265.9914 moveto
P$5
207.5469 269.1008 moveto
P$6
fill
0 setlinewidth
[] 0 setdash
0 0 0 setrgbcolor
newpath
219.375 263.4445 moveto
P$n
fill
0 setlinewidth
[] 0 setdash
0 0 0 setrgbcolor
newpath
221.4063 269.8351 moveto
P$d
222.9766 261.8898 moveto
P$e
fill
0 setlinewidth
[] 0 setdash
0 0 0 setrgbcolor
newpath
232.7188 268.2883 moveto
P$q
232.7188 265.1633 moveto
P$r
232.7188 265.1633 moveto
P$s
fill
0 setlinewidth
[] 0 setdash
0 0 0 setrgbcolor
newpath
239.2031 265.9914 moveto
P$5
235.5469 269.1008 moveto
P$t
fill
1 1 1 setrgbcolor
10 171.4596 83 62.6919 simplerect
closepath eofill
1.0 setlinewidth
0 0 0 setrgbcolor
10 171.4596 83 62.6919 simplerect
closepath stroke
1 1 1 setrgbcolor
10 14.6919 149 91.3839 simplerect
closepath eofill
1.0 setlinewidth
0 0 0 setrgbcolor
10 14.6919 149 91.3839 simplerect
closepath stroke
1 1 1 setrgbcolor
10 43.3839 149 134.0758 simplerect
closepath eofill
1.0 setlinewidth
0 0 0 setrgbcolor
10 43.3839 149 134.0758 simplerect
closepath stroke
1 1 1 setrgbcolor
10 14.6919 149 205.4596 simplerect
closepath eofill
1.0 setlinewidth
0 0 0 setrgbcolor
10 14.6919 149 205.4596 simplerect
closepath stroke
1 1 1 setrgbcolor
10 14.6919 215 162.7677 simplerect
closepath eofill
1.0 setlinewidth
0 0 0 setrgbcolor
10 14.6919 215 162.7677 simplerect
closepath stroke
0 0 0 setrgbcolor
newpath
71 58.6919 moveto
10 4 rlineto
-10 4 rlineto
4 -4 rlineto
71 58.6919 lineto
closepath eofill
1.0 setlinewidth
0 0 0 setrgbcolor
newpath
71 58.6919 moveto
10 4 rlineto
-10 4 rlineto
4 -4 rlineto
71 58.6919 lineto
closepath stroke
1.0 setlinewidth
0 0 0 setrgbcolor
newpath
29 62.6919 moveto
48 0 rlineto
stroke
0 setlinewidth
[] 0 setdash
0 0 0 setrgbcolor
newpath
36.2188 51.9849 moveto
P$u
fill
0 setlinewidth
[] 0 setdash
0 0 0 setrgbcolor
newpath
47.4844 57.3286 moveto
P$v
44.9688 58.063 moveto
P$w
fill
0 setlinewidth
[] 0 setdash
0 0 0 setrgbcolor
newpath
55.8125 53.3599 moveto
P$7
55.9375 53.3599 moveto
P$8
55.9688 53.3286 moveto
P$m
fill
0 setlinewidth
[] 0 setdash
0 0 0 setrgbcolor
newpath
59.7813 55.1724 moveto
P$x
fill
0 0 0 setrgbcolor
newpath
137 87.3839 moveto
10 4 rlineto
-10 4 rlineto
4 -4 rlineto
137 87.3839 lineto
closepath eofill
1.0 setlinewidth
0 0 0 setrgbcolor
newpath
137 87.3839 moveto
10 4 rlineto
-10 4 rlineto
4 -4 rlineto
137 87.3839 lineto
closepath stroke
1.0 setlinewidth
0 0 0 setrgbcolor
newpath
93 91.3839 moveto
50 0 rlineto
stroke
0 setlinewidth
[] 0 setdash
0 0 0 setrgbcolor
newpath
104.4844 86.0206 moveto
P$v
101.9688 86.7549 moveto
P$w
fill
0 setlinewidth
[] 0 setdash
0 0 0 setrgbcolor
newpath
111.9063 85.7549 moveto
P$y
107.8438 80.6768 moveto
P$z
fill
0 setlinewidth
[] 0 setdash
0 0 0 setrgbcolor
newpath
119.2031 83.2237 moveto
P$5
115.5469 86.3331 moveto
P$6
fill
0 setlinewidth
[] 0 setdash
0 0 0 setrgbcolor
newpath
122.0156 80.6768 moveto
P$10
fill
0 0 0 setrgbcolor
newpath
104 102.0758 moveto
-10 4 rlineto
10 4 rlineto
-4 -4 rlineto
104 102.0758 lineto
closepath eofill
1.0 setlinewidth
0 0 0 setrgbcolor
newpath
104 102.0758 moveto
-10 4 rlineto
10 4 rlineto
-4 -4 rlineto
104 102.0758 lineto
closepath stroke
1.0 setlinewidth
0 0 0 setrgbcolor
newpath
98 106.0758 moveto
14{
2 0 rlineto
2 0 rmoveto
} repeat
stroke
0 0 0 setrgbcolor
newpath
137 130.0758 moveto
10 4 rlineto
-10 4 rlineto
4 -4 rlineto
137 130.0758 lineto
closepath eofill
1.0 setlinewidth
0 0 0 setrgbcolor
newpath
137 130.0758 moveto
10 4 rlineto
-10 4 rlineto
4 -4 rlineto
137 130.0758 lineto
closepath stroke
1.0 setlinewidth
0 0 0 setrgbcolor
newpath
93 134.0758 moveto
50 0 rlineto
stroke
0 setlinewidth
[] 0 setdash
0 0 0 setrgbcolor
newpath
104.9063 128.4469 moveto
P$y
100.8438 123.3687 moveto
P$z
fill
0 setlinewidth
[] 0 setdash
0 0 0 setrgbcolor
newpath
112.8125 124.7437 moveto
P$7
112.9375 124.7437 moveto
P$8
112.9688 124.7125 moveto
P$m
fill
0 setlinewidth
[] 0 setdash
0 0 0 setrgbcolor
newpath
115.4063 129.7594 moveto
P$d
116.9766 121.814 moveto
P$e
fill
0 setlinewidth
[] 0 setdash
0 0 0 setrgbcolor
newpath
122.0156 123.3687 moveto
P$f
fill
0 setlinewidth
[] 0 setdash
0 0 0 setrgbcolor
newpath
134.2188 129.1656 moveto
P$g
fill
0 0 0 setrgbcolor
newpath
203 158.7677 moveto
10 4 rlineto
-10 4 rlineto
4 -4 rlineto
203 158.7677 lineto
closepath eofill
1.0 setlinewidth
0 0 0 setrgbcolor
newpath
203 158.7677 moveto
10 4 rlineto
-10 4 rlineto
4 -4 rlineto
203 158.7677 lineto
closepath stroke
1.0 setlinewidth
0 0 0 setrgbcolor
newpath
159 162.7677 moveto
50 0 rlineto
stroke
0 setlinewidth
[] 0 setdash
0 0 0 setrgbcolor
newpath
166.2188 152.0607 moveto
P$u
fill
0 setlinewidth
[] 0 setdash
0 0 0 setrgbcolor
newpath
178.8125 153.4357 moveto
P$7
178.9375 153.4357 moveto
P$8
178.9688 153.4044 moveto
P$m
fill
0 setlinewidth
[] 0 setdash
0 0 0 setrgbcolor
newpath
181.4063 158.4513 moveto
P$d
182.9766 150.506 moveto
P$e
fill
0 setlinewidth
[] 0 setdash
0 0 0 setrgbcolor
newpath
193.2188 157.8575 moveto
P$11
fill
0 setlinewidth
[] 0 setdash
0 0 0 setrgbcolor
newpath
199.2031 154.6075 moveto
P$5
195.5469 157.7169 moveto
P$t
fill
0 0 0 setrgbcolor
newpath
165 173.4596 moveto
-10 4 rlineto
10 4 rlineto
-4 -4 rlineto
165 173.4596 lineto
closepath eofill
1.0 setlinewidth
0 0 0 setrgbcolor
newpath
165 173.4596 moveto
-10 4 rlineto
10 4 rlineto
-4 -4 rlineto
165 173.4596 lineto
closepath stroke
1.0 setlinewidth
0 0 0 setrgbcolor
newpath
159 177.4596 moveto
15{
2 0 rlineto
2 0 rmoveto
} repeat
stroke
0 0 0 setrgbcolor
newpath
137 201.4596 moveto
10 4 rlineto
-10 4 rlineto
4 -4 rlineto
137 201.4596 lineto
closepath eofill
1.0 setlinewidth
0 0 0 setrgbcolor
newpath
137 201.4596 moveto
10 4 rlineto
-10 4 rlineto
4 -4 rlineto
137 201.4596 lineto
closepath stroke
1.0 setlinewidth
0 0 0 setrgbcolor
newpath
93 205.4596 moveto
50 0 rlineto
stroke
0 setlinewidth
[] 0 setdash
0 0 0 setrgbcolor
newpath
105.7188 199.5963 moveto
P$q
105.7188 196.4713 moveto
P$r
105.7188 196.4713 moveto
P$s
fill
0 setlinewidth
[] 0 setdash
0 0 0 setrgbcolor
newpath
108.1094 201.1432 moveto
P$c
fill
0 setlinewidth
[] 0 setdash
0 0 0 setrgbcolor
newpath
118.4844 200.0963 moveto
P$v
115.9688 200.8307 moveto
P$w
fill
0 setlinewidth
[] 0 setdash
0 0 0 setrgbcolor
newpath
122.5313 199.2682 moveto
P$1
126.4844 196.3854 moveto
P$2
126.6563 198.1745 moveto
P$3
122.4063 199.2682 moveto
P$4
fill
0 setlinewidth
[] 0 setdash
0 0 0 setrgbcolor
newpath
133.2031 197.2995 moveto
P$5
129.5469 200.4088 moveto
P$t
fill
0 0 0 setrgbcolor
newpath
104 216.1516 moveto
-10 4 rlineto
10 4 rlineto
-4 -4 rlineto
104 216.1516 lineto
closepath eofill
1.0 setlinewidth
0 0 0 setrgbcolor
newpath
104 216.1516 moveto
-10 4 rlineto
10 4 rlineto
-4 -4 rlineto
104 216.1516 lineto
closepath stroke
1.0 setlinewidth
0 0 0 setrgbcolor
newpath
98 220.1516 moveto
14{
2 0 rlineto
2 0 rmoveto
} repeat
stroke
0 0 0 setrgbcolor
newpath
40 230.1516 moveto
-10 4 rlineto
10 4 rlineto
-4 -4 rlineto
40 230.1516 lineto
closepath eofill
1.0 setlinewidth
0 0 0 setrgbcolor
newpath
40 230.1516 moveto
-10 4 rlineto
10 4 rlineto
-4 -4 rlineto
40 230.1516 lineto
closepath stroke
1.0 setlinewidth
0 0 0 setrgbcolor
newpath
34 234.1516 moveto
13{
2 0 rlineto
2 0 rmoveto
} repeat
1 0 rlineto
stroke
grestore
showpage
%plantuml done
%%EOF
