%!PS-Adobe-3.0 EPSF-3.0
%%Creator: PlantUML v1.2017.15      
%%Title: noTitle
%%BoundingBox: 0 0 265 334
%%ColorUsage: Color
%%Origin: 0 0
%%EndComments

gsave
0 334 translate
1 -1 scale
/simplerect {
newpath moveto 1 index 0 rlineto
0 exch rlineto
neg 0 rlineto
} def
/rquadto {
3 index 3 index 4 2 roll rcurveto
} def
/P$k {
2.3438 2.0781 5.2813 3.7031 rquadto
-0.4219 0.8281 rlineto
-3.0313 -1.625 -5.5 -3.875 rquadto
-2.4219 2.2188 -5.4844 3.875 rquadto
-0.4375 -0.8281 rlineto
2.9063 -1.5938 5.2969 -3.7031 rquadto
1.2656 0 rlineto
closepath
} def
/P$j {
0.8281 -0.3906 rlineto
1.25 1.9688 2.2188 3.75 rquadto
-0.8594 0.375 rlineto
-0.4531 -0.7969 -0.7031 -1.2031 rquadto
-4.4844 0.6719 -8.9063 0.8281 rquadto
-0.0469 -0.8438 rlineto
1.5156 -0.0781 1.7969 -0.1094 rquadto
0.7031 -1.3438 1.4688 -3.2813 rquadto
-3.5625 0 rlineto
0 -0.8594 rlineto
10.7031 0 rlineto
0 0.8594 rlineto
-6.0938 0 rlineto
-0.6719 1.7344 -1.4063 3.2188 rquadto
3.1094 -0.2344 5.6094 -0.6094 rquadto
-0.1094 -0.1875 -0.375 -0.6094 rquadto
-0.6719 -1.125 rlineto
closepath
} def
/P$s {
5.9063 0 rlineto
0 -1.5469 rlineto
-5.9063 0 rlineto
0 1.5469 rlineto
closepath
} def
/P$4 {
-0.4063 0 -1.2969 -0.0625 rquadto
-0.0781 -1.375 rlineto
0.6563 0.0781 0.9219 0.0781 rquadto
0.2344 0 0.25 -0.0938 rquadto
0.0156 -0.1563 0.0156 -0.5156 rquadto
0 -1.7813 rlineto
-0.6875 0.1563 -1.1563 0.25 rquadto
-0.1094 -1.5 rlineto
0.5 -0.0625 1.2656 -0.25 rquadto
0 -2.6563 rlineto
-1.25 0 rlineto
0 -1.3906 rlineto
1.25 0 rlineto
0 -2.1719 rlineto
1.5938 0 rlineto
0 2.1719 rlineto
0.9688 0 rlineto
0 1.3906 rlineto
-0.9688 0 rlineto
0 2.25 rlineto
0.8281 -0.2344 1.125 -0.3594 rquadto
0.0313 0.8125 rlineto
0.7188 -0.6094 1.3438 -1.4063 rquadto
-1.1719 0 rlineto
0 -4.6563 rlineto
7.2656 0 rlineto
0 4.6563 rlineto
-4.4219 0 rlineto
-0.25 0.4063 -0.4219 0.6094 rquadto
5.2969 0 rlineto
0 4.1563 -0.5 5.2969 rquadto
-0.2969 0.6563 -0.9844 0.7344 rquadto
-0.0781 0 -0.2188 0 rquadto
-0.4844 0 -2 -0.0625 rquadto
-0.0469 -0.875 rlineto
-0.4531 0.0156 -1.125 0 rquadto
-1.6875 0 -2.0625 -0.1719 rquadto
-0.3438 -0.1875 -0.3438 -0.7656 rquadto
-0.0156 -0.0938 -0.0156 -0.3281 rquadto
0 -1.6563 rlineto
-0.3906 0.3594 -0.5469 0.4531 rquadto
-0.7031 -0.9531 rlineto
-0.5 0.1563 rlineto
0 2.0781 rlineto
0 1.4063 -0.2188 1.75 rquadto
-0.1719 0.3125 -0.8906 0.3438 rquadto
-0.2969 0 rlineto
} def
/P$1t {
1.125 -1.0781 1.75 -2.7188 rquadto
0.9219 0.125 rlineto
-0.0781 0.2188 -0.2969 0.7656 rquadto
3.4219 0 rlineto
0 0.8281 rlineto
-3.8594 0 rlineto
-0.6406 1.0625 -1.4063 1.75 rquadto
-0.5313 -0.75 rlineto
closepath
} def
/P$2w {
4.5938 0 rlineto
-1.2031 -0.9375 -2.3125 -2.1719 rquadto
-1.2031 1.3438 -2.2813 2.1719 rquadto
closepath
} def
/P$28 {
0.75 -0.5313 rlineto
0.9063 1.2813 2.2813 2.2031 rquadto
1.375 -1 2.2031 -2.4688 rquadto
-5.9063 0 rlineto
0.125 0.5469 rlineto
-0.4375 0.2031 -1.4375 0.5625 rquadto
0 2.4531 rlineto
0 1.0938 -0.1875 1.3594 rquadto
-0.2813 0.2344 -1 0.2344 rquadto
-0.5938 0 -1.2031 -0.0469 rquadto
-0.0469 -0.8281 rlineto
1 0.0625 1.1563 0.0469 rquadto
0.2344 0 0.2813 -0.0938 rquadto
0.0313 -0.1094 0.0313 -0.6406 rquadto
0 -2.1563 rlineto
-0.5469 0.1719 -1.4844 0.3906 rquadto
-0.0938 -0.8906 rlineto
0.625 -0.125 1.5781 -0.4063 rquadto
0 -3.5 rlineto
-1.5469 0 rlineto
0 -0.8438 rlineto
1.5469 0 rlineto
0 -2.2344 rlineto
0.9688 0 rlineto
0 2.2344 rlineto
1.3281 0 rlineto
0 0.8438 rlineto
-1.3281 0 rlineto
0 3.1719 rlineto
0.8125 -0.2969 1.1719 -0.4531 rquadto
0 -0.5781 rlineto
7.0625 0 rlineto
0 0.8281 rlineto
-0.875 1.7969 -2.3906 2.9844 rquadto
1.5625 0.9063 3.25 1.3594 rquadto
-0.3281 0.8125 rlineto
-2.0469 -0.5625 -3.75 -1.5938 rquadto
-1.6094 0.9844 -4.0625 1.5938 rquadto
-0.3438 -0.8438 rlineto
2.125 -0.4688 3.5781 -1.2969 rquadto
-1.3594 -1.0156 -2.2031 -2.2188 rquadto
} def
/P$1c {
-1.0156 -2.25 -2.2656 -4.2188 rquadto
0.8281 -0.4375 rlineto
1.2813 1.9531 2.2969 4.2813 rquadto
-0.8594 0.375 rlineto
} def
/P$1w {
-0.0938 3.6719 -1.4844 5.4063 rquadto
-1.2969 1.625 -4.2813 2.1719 rquadto
-0.1875 0.0313 -0.6406 0.0938 rquadto
-0.2031 -0.8594 rlineto
2.8125 -0.4219 4.0625 -1.6406 rquadto
1.2656 -1.2188 1.5469 -3.9844 rquadto
0.0469 -0.5625 0.0781 -1.25 rquadto
0.9219 0.0625 rlineto
closepath
} def
/P$1 {
0 0.625 rlineto
4.0469 0 rlineto
0 -0.625 rlineto
-4.0469 0 rlineto
closepath
} def
/P$2 {
4.0469 0 rlineto
0 -0.625 rlineto
-4.0469 0 rlineto
0 0.625 rlineto
closepath
} def
/P$6 {
0 1.4531 rlineto
-4.6406 0 rlineto
0 4.3594 rlineto
0 1.3125 -0.25 1.6563 rquadto
-0.2188 0.3438 -1.1094 0.4219 rquadto
-0.1719 0.0156 -0.6563 0.0156 rquadto
-0.8438 0 -1.9688 -0.0625 rquadto
-0.0781 -1.4688 rlineto
1.6563 0.0781 1.7656 0.0625 rquadto
0.4219 0 0.4922 -0.1172 rquadto
0.0703 -0.1172 0.0703 -0.4766 rquadto
0 -4.3906 rlineto
-5.0156 0 rlineto
0 -1.4531 rlineto
11.3906 0 rlineto
closepath
} def
/P$1s {
6.7969 0 rlineto
0 -0.6563 rlineto
-6.7969 0 rlineto
0 0.6563 rlineto
closepath
} def
/P$h {
10.9531 0 rlineto
0 1.5156 rlineto
-4.1563 0 rlineto
-0.0313 3.0313 -2.125 4.2969 rquadto
-0.9688 0.625 -2.4063 0.9375 rquadto
-0.5 -1.5313 rlineto
2.0469 -0.4844 2.7344 -1.5938 rquadto
0.5 -0.7813 0.5 -2.1094 rquadto
-5 0 rlineto
0 -1.5156 rlineto
} def
/P$2p {
0 1.4688 rlineto
3.8438 0 rlineto
0 -1.4688 rlineto
-3.8438 0 rlineto
closepath
} def
/P$33 {
7.5625 0 rlineto
0 -0.9063 rlineto
-7.5625 0 rlineto
0 0.9063 rlineto
closepath
} def
/P$p {
0 0.9219 rlineto
7.5625 0 rlineto
0 -0.9219 rlineto
-7.5625 0 rlineto
closepath
} def
/P$1z {
-2.3906 0.3281 -4.7656 0.3281 rquadto
-1.7188 0 -2.2813 -0.4688 rquadto
-0.6094 -0.4844 -0.6719 -1.875 rquadto
-0.0156 -0.1875 -0.0156 -0.625 rquadto
0 -3.3281 rlineto
-2.875 0.5 rlineto
-0.125 -0.9063 rlineto
3 -0.5156 rlineto
0 -2.8438 rlineto
0.9844 0 rlineto
0 2.6875 rlineto
6.9063 -1.1719 rlineto
0.1406 0.9219 rlineto
-0.625 1.9688 -2.2656 3.5 rquadto
-0.4219 0.4063 -1.0156 0.8125 rquadto
-0.5938 -0.7188 rlineto
1.7031 -1.1563 2.5781 -2.9375 rquadto
0.0469 -0.0938 0.2188 -0.4844 rquadto
-5.9688 1.0156 rlineto
0 3.2969 rlineto
0 1.375 0.2656 1.7656 rquadto
0.2813 0.3906 1.2188 0.4688 rquadto
0.1875 0 0.7188 0 rquadto
2.25 0 4.5 -0.3125 rquadto
0.0469 0.8906 rlineto
} def
/P$31 {
0 -0.8281 rlineto
3.2969 0 rlineto
0 -1.9531 rlineto
-3.5 0 rlineto
0 -0.875 rlineto
3.5 0 rlineto
0 -1.7344 rlineto
1 0 rlineto
0 5.3125 rlineto
0 0.8594 -0.0625 1.3438 rquadto
0.2344 -0.0781 0.8281 -0.2969 rquadto
0.1875 0.875 rlineto
-0.2344 0.0781 -1.1563 0.3906 rquadto
-0.375 1.9219 -1.7656 3.0469 rquadto
-0.5781 0.4844 -1.4063 0.8906 rquadto
-0.6406 -0.8125 rlineto
1.625 -0.8125 2.2656 -1.8906 rquadto
0.2656 -0.4531 0.3906 -0.8906 rquadto
-1.4844 0.4375 -3.1563 0.8125 rquadto
-0.1875 -0.8594 rlineto
1.7344 -0.375 3.5781 -0.9375 rquadto
0.0938 -0.6719 0.125 -1.5938 rquadto
-3.2969 0 rlineto
} def
/P$32 {
0 0.8594 rlineto
-3.875 0 rlineto
0 2.9219 rlineto
-1.0156 0 rlineto
0 -11.3906 rlineto
1.0156 0 rlineto
0 1.7344 rlineto
3.7344 0 rlineto
0 0.875 rlineto
-3.7344 0 rlineto
0 2 rlineto
3.5156 0 rlineto
0 0.8281 rlineto
-3.5156 0 rlineto
0 2.1719 rlineto
3.875 0 rlineto
} def
/P$12 {
0 0.8281 0.7031 1.2969 rquadto
0.4531 0.2813 0.9531 0.2813 rquadto
0.9219 0 1.3906 -0.7031 rquadto
0.2656 -0.3906 0.2656 -0.875 rquadto
0 -0.8438 -0.7188 -1.3125 rquadto
-0.4063 -0.2656 -0.9375 -0.2656 rquadto
-0.8906 0 -1.375 0.7031 rquadto
-0.2813 0.4063 -0.2813 0.875 rquadto
} def
/P$r {
7.5625 0 rlineto
0 -0.9063 rlineto
-7.5625 0 rlineto
0 0.9063 rlineto
} def
/P$c {
3.75 -0.2969 5.5938 -1.6563 rquadto
1.75 -1.3125 2.4688 -4.125 rquadto
0.1563 -0.5781 0.2656 -1.1875 rquadto
1.6094 0.2656 rlineto
-0.6875 4 -2.8438 5.9219 rquadto
-2.1875 1.9375 -6.5 2.3594 rquadto
-0.25 0.0313 -0.3438 0.0313 rquadto
-0.25 -1.6094 rlineto
closepath
} def
/P$21 {
4.0625 -0.3594 6 -2 rquadto
1.9063 -1.6094 2.5781 -5.0469 rquadto
0.0469 -0.2656 rlineto
0.9219 0.1406 rlineto
-0.7031 4.0625 -3.0156 5.9531 rquadto
-2.2031 1.7813 -6.3906 2.1406 rquadto
-0.1406 -0.9219 rlineto
closepath
} def
/P$2m {
0 -0.8906 rlineto
-3.2813 0 rlineto
0 0.8906 rlineto
3.2813 0 rlineto
closepath
} def
/P$a {
0 0.6406 rlineto
1.3594 -0.4844 rlineto
0.4531 1.5156 1.1719 2.5781 rquadto
0.75 -1.125 1.1406 -2.7344 rquadto
-3.6719 0 rlineto
closepath
} def
/P$1j {
0 -1.0938 rlineto
-3.1094 0 rlineto
0 1.0938 rlineto
3.1094 0 rlineto
closepath
} def
/P$27 {
0 0.2656 rlineto
-0.0313 2.5625 -2.1094 3.5 rquadto
-0.5313 -0.7656 rlineto
1.0625 -0.5156 1.4219 -1.3281 rquadto
0.2656 -0.625 0.2656 -1.7813 rquadto
0 -0.7344 rlineto
4.3438 0 rlineto
0 3.2188 rlineto
0 0.1875 0.0781 0.2031 rquadto
0.0469 0.0156 0.3438 0.0156 rquadto
0.5625 0 0.7188 -0.125 rquadto
0.1719 -0.1563 0.25 -1.0469 rquadto
0 -0.0625 0.0313 -0.3594 rquadto
0.8594 0.0938 rlineto
-0.125 1.4531 -0.3125 1.7813 rquadto
-0.2188 0.4063 -0.8906 0.4531 rquadto
-0.4219 0.0313 -1 0.0313 rquadto
-0.8125 0 -0.9531 -0.1875 rquadto
-0.0781 -0.125 -0.1094 -0.4375 rquadto
0 -2.7969 rlineto
-2.4063 0 rlineto
closepath
} def
/P$9 {
-0.0625 2.3594 -1.0313 4.2344 rquadto
1.4688 -0.5781 2.4531 -1.4531 rquadto
-0.9063 -1.2656 -1.4219 -2.7813 rquadto
closepath
} def
/P$1v {
0.625 -0.75 rlineto
1.7969 1.2656 3.5938 2.7344 rquadto
1.3281 -2 2.0781 -4.5938 rquadto
0.9844 0.2031 rlineto
-0.7656 2.8906 -2.25 5.0625 rquadto
1.8906 1.5781 3.4688 3.0781 rquadto
-0.6875 0.7031 rlineto
-1.8438 -1.75 -3.375 -3 rquadto
-1.9844 2.4688 -5.2969 4.2031 rquadto
-0.5781 -0.8281 rlineto
3.2031 -1.6875 5.0625 -4.0313 rquadto
-2.0156 -1.6563 -3.625 -2.7813 rquadto
} def
/P$1l {
-0.3906 0 -1.2969 -0.0625 rquadto
-0.0313 -0.5938 rlineto
-0.2344 0.0469 -0.9375 0.0469 rquadto
-1.0313 0 -1.25 -0.1719 rquadto
-0.1563 -0.1563 -0.1563 -0.5938 rquadto
0 -1.3281 rlineto
-0.8125 0 rlineto
-0.2969 1.5469 -2.2969 2.3281 rquadto
-0.2188 0.0938 -0.6406 0.2188 rquadto
-0.4531 -0.6875 rlineto
1.875 -0.5156 2.3281 -1.4375 rquadto
0.0781 -0.2031 0.125 -0.4219 rquadto
-0.3594 0 rlineto
-0.9531 0 rlineto
0 -2.5 rlineto
1.2344 0 rlineto
-0.1094 -0.1563 -0.6406 -0.8594 rquadto
0.8281 -0.25 rlineto
0.4531 0.5469 0.8281 1.1094 rquadto
1.1875 0 rlineto
0.625 -0.75 0.8281 -1.1094 rquadto
0.8125 0.2344 rlineto
-0.2344 0.375 -0.6406 0.875 rquadto
1.25 0 rlineto
0 2.5 rlineto
-1.6875 0 rlineto
0 1.0781 rlineto
0 0.1719 0.1094 0.2188 rquadto
0.1719 0.0313 0.4844 0.0313 rquadto
0.5 0 0.5938 -0.125 rquadto
0.0938 -0.1406 0.1406 -0.8906 rquadto
0.8594 0.1094 rlineto
-0.0625 1.0781 -0.25 1.3438 rquadto
-0.0156 0.0156 -0.0313 0.0625 rquadto
0.4375 0.0313 0.6875 0.0313 rquadto
0.5156 0 0.5938 -0.1094 rquadto
0.0781 -0.125 0.0938 -0.6406 rquadto
0 -4.8438 rlineto
-4.0781 0 rlineto
0 -4.4375 rlineto
5.0625 0 rlineto
0 9.25 rlineto
0 1.0781 -0.2344 1.3438 rquadto
-0.2031 0.2656 -1.0938 0.2813 rquadto
-0.2031 0 rlineto
} def
/P$1r {
0 0.6406 rlineto
6.7969 0 rlineto
0 -0.6406 rlineto
-6.7969 0 rlineto
closepath
} def
/P$5 {
0 -1.4375 rlineto
9.3594 0 rlineto
0 1.4375 rlineto
-9.3594 0 rlineto
closepath
} def
/P$14 {
0.3125 -0.625 0.2969 -1.0469 rquadto
-0.0156 -1.0938 -1.8438 -1.1094 rquadto
-1.2813 0 -1.6719 0.6406 rquadto
-0.1094 0.1406 -0.1094 0.3438 rquadto
0 1.0156 1.8906 1.1719 rquadto
0.4844 0.0313 0.75 0.0313 rquadto
0.125 0 0.6875 -0.0313 rquadto
closepath
} def
/P$20 {
-1.3594 -0.7188 rlineto
0.375 -0.7969 rlineto
0.9688 0.5156 rlineto
0.0156 0 0.3906 0.1406 rquadto
0.3438 0.0156 rlineto
8.3906 0 rlineto
0 0.9531 rlineto
-8.5625 0 rlineto
-0.0781 0 -0.2813 -0.0156 rquadto
-0.2656 -0.0938 rlineto
} def
/P$y {
0.4375 -1.3125 0.6719 -2.2031 rquadto
0.7344 0.1719 rlineto
-0.2813 1.0938 -0.6875 2.2344 rquadto
-0.7188 -0.2031 rlineto
closepath
} def
/P$2q {
3.8438 0 rlineto
0 -1.3125 rlineto
-3.8438 0 rlineto
0 1.3125 rlineto
closepath
} def
/P$1e {
-1.5156 0.25 -3.2031 0.25 rquadto
-3.3594 0 -4.125 -1.1875 rquadto
-0.2813 -0.4531 -0.2813 -1.0625 rquadto
0 -2.0156 3.8125 -3.0938 rquadto
0.0156 -0.0156 rlineto
0.0156 0 rlineto
-0.2813 -0.9219 -0.9531 -1.0156 rquadto
-0.2031 -0.0313 -0.3125 -0.0156 rquadto
-1.2344 0 -2.7813 1.75 rquadto
-0.3906 0.4375 -0.8906 1.1094 rquadto
-0.7656 -0.5 rlineto
1.5625 -2.1875 2.5625 -4.4063 rquadto
-2.5 0 rlineto
0 -0.8125 rlineto
2.8281 0 rlineto
0.3438 -0.8438 0.5781 -1.5469 rquadto
0.9219 0.2031 rlineto
-0.2813 0.8125 -0.5156 1.3438 rquadto
5.5313 0 rlineto
0 0.8125 rlineto
-5.8594 0 rlineto
-0.4688 1.0469 -0.9375 1.9688 rquadto
0.0156 0.0156 rlineto
1.0938 -0.7656 1.9844 -0.7656 rquadto
1.375 0 1.8906 1.3125 rquadto
0.0781 0.2188 0.1094 0.3281 rquadto
1.3125 -0.2969 2.9063 -0.5156 rquadto
0.1094 0.8438 rlineto
-1.7969 0.2344 -2.8281 0.4844 rquadto
0.1563 0.9688 0.1563 2.4844 rquadto
-0.9688 0 rlineto
0 -1.375 -0.125 -2.25 rquadto
-2.9844 0.8906 -3.0313 2.2188 rquadto
0 0.7969 0.7813 1.1406 rquadto
0.8281 0.3438 2.6563 0.3438 rquadto
1.3594 0 3.1094 -0.2813 rquadto
0.0938 0.8594 rlineto
} def
/P$z {
0 4.0625 rlineto
0.875 0 rlineto
0 0.8281 rlineto
-3.0313 0 rlineto
0 0.1094 rlineto
0.375 1.0625 0.8906 1.9688 rquadto
0.7188 -0.7344 1.375 -1.7813 rquadto
0.6719 0.5469 rlineto
-0.7031 1.1406 -1.5781 1.9844 rquadto
0.9375 1.3594 1.9531 2.2188 rquadto
-0.6406 0.7031 rlineto
-1.6563 -1.4688 -2.6719 -3.7656 rquadto
0 2.25 rlineto
0 1.125 -0.2031 1.4063 rquadto
-0.25 0.3281 -1.125 0.2969 rquadto
-0.4531 0 -1.3438 -0.0469 rquadto
-0.0313 -0.8125 rlineto
1.0156 0.0781 1.2344 0.0625 rquadto
0.3594 0 0.4375 -0.1406 rquadto
0.0938 -0.1719 0.0938 -0.7188 rquadto
0 -1.1875 rlineto
-1.3438 1.4844 -3.1719 2.7031 rquadto
-0.5938 -0.7188 rlineto
0.625 -0.3906 1 -0.6719 rquadto
-2.4375 0.875 -4.7813 1.375 rquadto
-0.125 -0.8438 rlineto
1.0313 -0.2031 2.1563 -0.5313 rquadto
0 -3.9063 rlineto
-1.9844 0 rlineto
0 -0.8281 rlineto
1.9844 0 rlineto
0 -1.5625 rlineto
-1.2188 0 rlineto
0 -0.5781 rlineto
-0.1719 0.1406 -0.8906 0.7344 rquadto
-0.2344 -0.9531 rlineto
1.2188 -0.9531 2.4063 -2.4844 rquadto
0.9375 0 rlineto
1.0625 1.1875 2.1406 1.875 rquadto
-0.3594 0.8125 rlineto
-1.2031 -0.7969 -2.2188 -2.0156 rquadto
-0.7188 1 -1.5625 1.7969 rquadto
3.4219 0 rlineto
0 0.8125 rlineto
-1.4844 0 rlineto
0 1.5625 rlineto
1.625 0 rlineto
0 0.8281 rlineto
-1.625 0 rlineto
0 3.6406 rlineto
1.0938 -0.3281 1.9219 -0.6406 rquadto
0.1406 0.7344 rlineto
1.4844 -1.1094 2.5156 -2.2969 rquadto
0 -1.9375 rlineto
-2.7031 0 rlineto
0 -0.8281 rlineto
4.7969 0 rlineto
0 -1.25 rlineto
-4.3281 0 rlineto
0 -0.7813 rlineto
4.3281 0 rlineto
0 -1.2188 rlineto
-4.5 0 rlineto
0 -0.8125 rlineto
5.5 0 rlineto
closepath
} def
/P$1g {
3 0 rlineto
0 -1.0938 rlineto
-3 0 rlineto
0 1.0938 rlineto
closepath
} def
/P$1h {
0 6.5313 rlineto
-0.9688 0 rlineto
0 -10.9688 rlineto
4.9219 0 rlineto
0 4.4375 rlineto
-3.9531 0 rlineto
closepath
} def
/P$2j {
0 -0.7969 rlineto
7.375 0 rlineto
0 0.7969 rlineto
-7.375 0 rlineto
closepath
} def
/P$1m {
1.5469 0 rlineto
0 -0.5469 rlineto
-1.5469 0 rlineto
0 0.5469 rlineto
closepath
} def
/P$22 {
0.7031 -0.3594 rlineto
0.5781 0.9219 1.0625 1.9063 rquadto
-0.7031 0.3438 rlineto
-0.3906 -0.7969 -1.0625 -1.8906 rquadto
closepath
} def
/P$f {
0 -1.5781 rlineto
8.1406 0 rlineto
0 1.5781 rlineto
-0.9219 2.0313 -2.4688 3.7344 rquadto
1.9844 1.7813 3.5625 3.375 rquadto
-1.1563 1.1406 rlineto
-2.0156 -2 -3.5313 -3.375 rquadto
-2.2344 2.0625 -4.9219 3.3125 rquadto
-0.75 -1.4063 rlineto
4.5156 -2.2188 6.7969 -5.7969 rquadto
0.3438 -0.5 0.5781 -0.9844 rquadto
-6.25 0 rlineto
} def
/P$o {
-1.0156 0 rlineto
0 -5.7188 rlineto
9.6094 0 rlineto
0 5.7188 rlineto
-3.1719 0 rlineto
2.5625 0.7656 4 1.5 rquadto
-0.4219 0.7813 rlineto
-1.6094 -0.8125 -4.0313 -1.5938 rquadto
0.2969 -0.6875 rlineto
-2.9688 0 rlineto
0.3281 0.6094 rlineto
-1.4531 0.9063 -4.125 1.5625 rquadto
-0.3438 -0.7969 rlineto
2.4375 -0.6094 3.8594 -1.375 rquadto
-2.0156 0 rlineto
closepath
} def
/P$29 {
2.2813 0 rlineto
0 -1.2031 rlineto
-2.2813 0 rlineto
0 1.2031 rlineto
closepath
} def
/P$8 {
-1.0469 -2.3594 -2.1719 -4.1719 rquadto
1.4219 -0.7031 rlineto
1.3906 2.2344 2.2656 4.2344 rquadto
-1.5156 0.6406 rlineto
} def
/P$13 {
2.1563 -0.5313 2.1563 -2.5781 rquadto
0 -1.75 -2.0156 -2.0156 rquadto
-0.4844 -0.0781 -0.9531 -0.0781 rquadto
-2.625 0.0313 -5.3906 1.5781 rquadto
-0.3906 -0.6875 rlineto
6.8906 -4.3281 rlineto
0 -0.0313 rlineto
-5.9531 0 rlineto
0 -0.8281 rlineto
7.6719 0 rlineto
0.0469 0.8438 rlineto
-5 3 rlineto
0.0156 0.0156 rlineto
1.2813 -0.3438 2.3906 -0.3281 rquadto
3.75 0.0156 3.75 2.7656 rquadto
0 2.4063 -2.25 3.2656 rquadto
-1.1094 0.4063 -2.625 0.4063 rquadto
-3.5781 -0.0156 -3.5938 -2.0313 rquadto
0 -0.875 0.9063 -1.3906 rquadto
0.7656 -0.4063 1.8906 -0.4063 rquadto
2.6563 0.0156 2.6719 1.8438 rquadto
0 0.4531 -0.2188 0.9844 rquadto
closepath
} def
/P$30 {
0 0.8438 rlineto
-3.3594 0 rlineto
0 3.3594 rlineto
0 1.0781 -0.1875 1.3125 rquadto
-0.2031 0.25 -0.9531 0.2813 rquadto
-0.2031 0 rlineto
-0.5938 0 -1.4844 -0.0469 rquadto
-0.0469 -0.875 rlineto
1.0156 0.0625 1.3906 0.0625 rquadto
0.3906 0 0.4219 -0.1094 rquadto
0.0781 -0.1094 0.0781 -0.625 rquadto
0 -3.3594 rlineto
-3.1719 0 rlineto
0 -0.8438 rlineto
3.1719 0 rlineto
0 -1.7188 rlineto
-2.1719 0 rlineto
0 -0.5625 rlineto
-0.5781 0.4219 -1.2813 0.875 rquadto
-0.25 -0.875 rlineto
2 -1.25 3.5469 -3 rquadto
0.0625 -0.0625 0.0781 -0.1094 rquadto
1.0313 0 rlineto
1.5781 1.7656 3.5313 3.0313 rquadto
0.0781 0.0469 0.1406 0.0781 rquadto
-0.2656 0.875 rlineto
-0.7031 -0.4688 -1.2656 -0.8594 rquadto
0 0.5469 rlineto
-2.1094 0 rlineto
0 1.7188 rlineto
3.3594 0 rlineto
} def
/P$x {
0.75 -0.2344 rlineto
0.3125 0.9063 0.7188 2.5156 rquadto
-0.75 0.2188 rlineto
-0.375 -1.4531 -0.7188 -2.5 rquadto
closepath
} def
/P$11 {
6.4688 0 rlineto
0 -1.6563 rlineto
0.9219 0 rlineto
0 1.6563 rlineto
3.5 0 rlineto
0 0.8125 rlineto
-3.5 0 rlineto
0 2.8438 rlineto
0.2344 0.7656 0.25 1.5781 rquadto
0 2.375 -1.6406 3.3594 rquadto
-0.9844 0.5938 -2.6719 0.8438 rquadto
-0.1406 -0.9063 rlineto
2.7969 -0.3594 3.375 -1.9063 rquadto
0.1563 -0.4063 0.1719 -0.8594 rquadto
0 -0.1719 rlineto
-0.0313 0 rlineto
-0.5 0.75 -1.6875 0.8438 rquadto
-0.0938 0.0156 -0.25 0.0156 rquadto
-1.2188 0 -1.9375 -0.9063 rquadto
-0.5313 -0.6563 -0.5313 -1.5156 rquadto
0 -1.2031 0.9219 -1.9063 rquadto
0.6563 -0.5156 1.5469 -0.5156 rquadto
1 0.0313 1.6719 0.5625 rquadto
0.0313 0 rlineto
0 -1.3594 rlineto
-6.4688 0 rlineto
0 -0.8125 rlineto
closepath
} def
/P$24 {
0.1875 -0.9063 rlineto
2.6094 0.4531 4.1406 0.7813 rquadto
-0.1719 0.9063 rlineto
-3.4531 -0.6719 -4.1563 -0.7813 rquadto
closepath
} def
/P$2d {
0 0.8438 rlineto
-1.5 0 rlineto
1.1094 2.1719 1.2969 2.5625 rquadto
0 -0.9844 rlineto
7.5313 0 rlineto
0 3.9375 rlineto
0 1.0938 -0.2031 1.375 rquadto
-0.1719 0.2188 -0.9219 0.25 rquadto
-0.1406 0 rlineto
-0.3594 0 -1.1406 -0.0625 rquadto
-0.0156 -0.875 rlineto
0.8594 0.0625 1.0469 0.0469 rquadto
0.3125 0 0.3594 -0.0938 rquadto
0.0781 -0.1094 0.0469 -0.6406 rquadto
0 -3.1094 rlineto
-5.6719 0 rlineto
0 4.7656 rlineto
-0.8906 0 rlineto
0 -3.9688 rlineto
-0.4844 0.2969 rlineto
-0.0313 -0.0625 -0.125 -0.2891 rquadto
-0.0938 -0.2266 -0.1719 -0.3984 rquadto
-0.5313 -1.2031 -0.6094 -1.3594 rquadto
0 5.8125 rlineto
-0.9531 0 rlineto
0 -4.9531 rlineto
-0.5 1.5469 -1.1875 2.7344 rquadto
-0.5313 -0.9531 rlineto
1.25 -2.125 1.6719 -4.0938 rquadto
-1.4063 0 rlineto
0 -0.8438 rlineto
1.4531 0 rlineto
0 -1.8438 rlineto
-0.8906 0.125 -1.2656 0.1563 rquadto
-0.0938 -0.7969 rlineto
2.0313 -0.25 3.6563 -0.75 rquadto
0.2188 0.7344 rlineto
3.1094 0 rlineto
0 -0.9219 rlineto
0.9844 0 rlineto
0 0.9219 rlineto
3.3906 0 rlineto
0 0.8438 rlineto
-7.7813 0 rlineto
0 -0.7031 rlineto
-0.7031 0.2031 -1.2656 0.3281 rquadto
0 2.0313 rlineto
1.5938 0 rlineto
} def
/P$2s {
0.5313 1.0938 1.1406 2.5313 rquadto
-0.8281 0.3438 rlineto
-0.6875 -1.6094 -1.125 -2.5313 rquadto
0.8125 -0.3438 rlineto
closepath
} def
/P$2u {
0 -7.9844 rlineto
0.9531 0 rlineto
0 7.9844 rlineto
-0.9531 0 rlineto
closepath
} def
/P$2y {
0.7031 -0.5156 rlineto
1.2344 1.6094 2.2344 3.4531 rquadto
-0.75 0.4844 rlineto
-0.9844 -1.8438 -2.1875 -3.4219 rquadto
closepath
} def
/P$1a {
0 0.875 rlineto
-4.8438 0 rlineto
0 5.0469 rlineto
0 1.0625 -0.2188 1.2969 rquadto
-0.2344 0.2813 -1.125 0.2969 rquadto
-0.2188 0 rlineto
-0.9063 0 -1.9063 -0.0625 rquadto
-0.0469 -0.8906 rlineto
1.6406 0.0781 1.7969 0.0781 rquadto
0.5156 0 0.625 -0.125 rquadto
0.0781 -0.1406 0.0781 -0.625 rquadto
0 -5.0156 rlineto
-5.1719 0 rlineto
0 -0.875 rlineto
11.0313 0 rlineto
closepath
} def
/P$2r {
0 -7.6719 rlineto
2.3906 0 rlineto
0 -3.4375 rlineto
0.9531 0 rlineto
0 3.4375 rlineto
2.3906 0 rlineto
0 6.0938 rlineto
0 1.0469 -0.1563 1.2813 rquadto
-0.1719 0.25 -0.8906 0.2656 rquadto
-0.2656 0 rlineto
-0.125 0 -1.4531 -0.0625 rquadto
-0.0156 -0.8594 rlineto
1.0313 0.0781 1.3438 0.0781 rquadto
0.3906 0 0.4375 -0.1094 rquadto
0.0625 -0.125 0.0625 -0.6406 rquadto
0 -0.8594 rlineto
-3.8438 0 rlineto
0 2.4844 rlineto
-0.9531 0 rlineto
closepath
} def
/P$v {
0 -0.8438 rlineto
3.3125 0 rlineto
-0.375 -0.9531 -0.6875 -1.5781 rquadto
-0.9531 0 rlineto
0 -3.0469 rlineto
7.8438 0 rlineto
0 3.0469 rlineto
-0.9375 0 rlineto
-0.3906 0.7813 -0.9375 1.5781 rquadto
3.5625 0 rlineto
0 0.8438 rlineto
-11.2031 0 rlineto
closepath
} def
/P$18 {
0 0.8594 rlineto
-1.25 0 rlineto
0 2.7656 rlineto
0.5469 -0.1875 1.3594 -0.5156 rquadto
0.0781 0.8594 rlineto
-0.6563 0.2813 -1.4375 0.5469 rquadto
0 2.8125 rlineto
0 1.125 -0.1719 1.3594 rquadto
-0.2031 0.2344 -0.9063 0.2344 rquadto
-0.4219 0 -1.2656 -0.0469 rquadto
-0.0156 -0.8281 rlineto
0.7188 0.0625 1.0313 0.0469 rquadto
0.2969 0 0.3438 -0.0938 rquadto
0.0469 -0.125 0.0313 -0.6406 rquadto
0 -2.5469 rlineto
-0.5781 0.1719 -1.4375 0.3906 rquadto
-0.0938 -0.9063 rlineto
0.7813 -0.1563 1.5313 -0.375 rquadto
0 -3.0625 rlineto
-1.5 0 rlineto
0 -0.8594 rlineto
1.5 0 rlineto
0 -2.2813 rlineto
0.9531 0 rlineto
0 2.2813 rlineto
1.25 0 rlineto
} def
/P$1d {
1.6563 0 rlineto
0 -2.2813 rlineto
0.9531 0 rlineto
0 2.2813 rlineto
1.4688 0 rlineto
0 0.8906 rlineto
-1.4063 0 rlineto
0.8281 1.5781 1.7656 3.4688 rquadto
0.1563 -1.1563 0.1563 -2.5 rquadto
0 -3.7031 rlineto
6.9688 0 rlineto
0 0.8438 rlineto
-5.9844 0 rlineto
0 2 rlineto
5.6875 0 rlineto
0 0.8281 rlineto
-0.6875 2.5469 -2.1719 4.3125 rquadto
1.1406 1.2031 2.7656 1.9375 rquadto
-0.4375 0.8438 rlineto
-1.75 -0.7656 -3 -2.0781 rquadto
-1.4219 1.3594 -3.3594 2.0781 rquadto
-0.4063 -0.8594 rlineto
1.8594 -0.7031 3.1406 -1.9531 rquadto
-1.1406 -1.5 -1.8125 -3.6719 rquadto
0.875 -0.3438 rlineto
0.6094 1.9531 1.6094 3.2813 rquadto
1.1875 -1.4688 1.7813 -3.5469 rquadto
-4.6719 0 rlineto
0 0.6719 rlineto
-0.0313 3.875 -1.7656 6.375 rquadto
-0.6719 -0.8125 rlineto
0.9375 -1.4375 1.25 -3.4063 rquadto
-0.5781 0.4375 rlineto
-0.6563 -1.4063 -1.2031 -2.4844 rquadto
0 6.5 rlineto
-0.9531 0 rlineto
0 -5.7031 rlineto
-0.5313 1.8438 -1.3594 3.2656 rquadto
-0.5938 -0.875 rlineto
1.3281 -2.3125 1.8906 -4.9063 rquadto
-1.5938 0 rlineto
0 -0.8906 rlineto
} def
/P$g {
0 -1.5313 rlineto
7.9844 0 rlineto
0 1.5313 rlineto
-7.9844 0 rlineto
closepath
} def
/P$19 {
0 -0.8906 rlineto
8.9844 0 rlineto
0 0.8906 rlineto
-8.9844 0 rlineto
closepath
} def
/P$10 {
0.7813 -0.3906 rlineto
0.6406 0.9375 1.1094 1.9219 rquadto
-0.7344 0.4688 rlineto
-0.4063 -0.8438 -1.1563 -2 rquadto
} def
/P$2f {
0 -1.4531 rlineto
-0.8438 0 rlineto
0 1.4531 rlineto
0.8438 0 rlineto
closepath
} def
/P$b {
1.3906 0 rlineto
0 -2.1094 rlineto
1.5469 0 rlineto
0 2.1094 rlineto
1.1563 0 rlineto
0 1.4375 rlineto
-1.0781 0 rlineto
0.2813 0.5 0.7969 1.4453 rquadto
0.5156 0.9453 0.5625 1.0547 rquadto
0.0938 -0.875 0.0938 -2.0625 rquadto
0 -3.6563 rlineto
7.2813 0 rlineto
0 1.4063 rlineto
-5.6563 0 rlineto
0 1.4063 rlineto
5.3438 0 rlineto
0 1.3594 rlineto
-0.5781 2.4219 -1.7344 4.0313 rquadto
1.0156 0.9375 2.3281 1.5 rquadto
-0.7656 1.4219 rlineto
-1.5469 -0.6563 -2.6563 -1.7188 rquadto
-1.1563 1.0156 -2.9219 1.7188 rquadto
-0.75 -1.2813 rlineto
-0.4531 0.7969 -0.8281 1.2344 rquadto
-1.0938 -1.4531 rlineto
0.8594 -1.25 1.1875 -2.6406 rquadto
-0.5156 0.3438 rlineto
-0.25 -0.5469 -0.75 -1.5938 rquadto
0 5.4844 rlineto
-1.5469 0 rlineto
0 -4.2656 rlineto
-0.4063 1.2031 -0.9219 1.9844 rquadto
-0.7813 -1.625 rlineto
1.2031 -1.9219 1.6719 -4.0938 rquadto
-1.3594 0 rlineto
0 -1.4375 rlineto
} def
/P$1o {
0 -0.5313 rlineto
-1.5469 0 rlineto
0 0.5313 rlineto
1.5469 0 rlineto
closepath
} def
/P$2a {
3.625 0 rlineto
0 -1.1875 rlineto
-3.625 0 rlineto
0 1.1875 rlineto
closepath
} def
/P$23 {
0.7031 -0.3906 rlineto
0.5469 0.9063 1.0938 1.9531 rquadto
-0.7188 0.3438 rlineto
-0.5938 -1.0938 -1.0781 -1.9063 rquadto
closepath
} def
/P$d {
0.3125 -1.5313 rlineto
1.5469 0.25 4.2031 0.8281 rquadto
-0.3281 1.5 rlineto
-2.3438 -0.5 -4.1875 -0.7969 rquadto
closepath
} def
/P$2b {
-0.9219 0 rlineto
0 -2.6719 rlineto
5.5313 0 rlineto
0 2.6719 rlineto
-4.6094 0 rlineto
closepath
} def
/P$1b {
1.3594 -1.8438 2.0313 -4.0781 rquadto
0.9063 0.3125 rlineto
-0.6875 2.3125 -2.1094 4.2031 rquadto
-0.8281 -0.4375 rlineto
closepath
} def
/P$1k {
0 -1.1719 rlineto
-3 0 rlineto
0 1.1719 rlineto
3 0 rlineto
closepath
} def
/P$u {
-0.8125 1.3125 -2.2188 2.5625 rquadto
4.4531 0 rlineto
-1.4219 -1.25 -2.2344 -2.5625 rquadto
closepath
} def
/P$w {
0 -0.8281 rlineto
4.7188 0 rlineto
0.4375 0.9219 1.1094 1.7188 rquadto
0.8125 -0.8438 1.4219 -1.7031 rquadto
0.7344 0.4688 rlineto
-0.5938 0.8594 -1.5625 1.8594 rquadto
0.4219 0.4219 1.0781 0.9375 rquadto
0.9219 -0.9219 1.5781 -1.8594 rquadto
0.75 0.4531 rlineto
-0.7656 1.0469 -1.625 1.9063 rquadto
0.8281 0.5625 1.9375 1.1094 rquadto
-0.375 0.8438 rlineto
-1.5781 -0.7813 -3 -1.9375 rquadto
0 0.5938 rlineto
-5.0469 0 rlineto
0 -0.5938 rlineto
-1.4063 1.1563 -3.0156 1.9375 rquadto
-0.3594 -0.8438 rlineto
1.5 -0.7344 2.625 -1.5625 rquadto
-1.2031 -1.0938 -1.8906 -1.625 rquadto
0.6563 -0.6406 rlineto
1.1563 0.9531 1.9531 1.6875 rquadto
1 -0.875 1.6875 -1.9219 rquadto
-3.375 0 rlineto
} def
/P$2n {
-3.2813 0 rlineto
0 0.9063 rlineto
3.2813 0 rlineto
0 -0.9063 rlineto
closepath
} def
/P$17 {
0.4844 -0.0313 0.7188 -0.7344 rquadto
0.2656 -0.9063 0.2969 -3.3438 rquadto
-5.3906 0 rlineto
-0.25 0.25 -0.3437 0.3125 rquadto
0.5312 0 rlineto
0 1.0313 rlineto
1.875 -0.3281 3.6563 -1.0156 rquadto
0.3438 0.7188 rlineto
-1.9688 0.7656 -4 1.0625 rquadto
0 0.3906 rlineto
0 0.3906 0.125 0.4688 rquadto
0.2188 0.1406 1.4063 0.1406 rquadto
1.0625 0 1.3125 -0.125 rquadto
0.2344 -0.125 0.2813 -0.6875 rquadto
0.0156 -0.0625 0.0234 -0.2109 rquadto
0.0078 -0.1484 0.0078 -0.2109 rquadto
0.9063 0.125 rlineto
-0.0469 1.1094 -0.2188 1.3906 rquadto
-0.2344 0.3594 -1.125 0.4219 rquadto
-0.5 0.0313 -1.1875 0.0313 rquadto
-1.6719 0 -2.0625 -0.2031 rquadto
-0.3438 -0.1875 -0.3594 -0.7344 rquadto
0 -0.2031 rlineto
0 -2.0469 rlineto
-0.4219 0.3594 -0.7813 0.625 rquadto
-0.5469 -0.7344 rlineto
1.2188 -0.7813 2.1719 -2.0156 rquadto
0.1406 -0.2031 0.1875 -0.2656 rquadto
-0.6094 0 rlineto
-0.9375 0 rlineto
0 -4.3125 rlineto
7.1094 0 rlineto
0 4.3125 rlineto
-4.5313 0 rlineto
-0.4219 0.6406 -0.6875 0.9688 rquadto
5.6719 0 rlineto
0 4.0781 -0.5938 5.0938 rquadto
-0.3438 0.6094 -1.0156 0.6094 rquadto
-0.8125 0 -1.9063 -0.0625 rquadto
-0.0313 -0.8438 rlineto
0.9531 0.0469 1.5781 0.0469 rquadto
closepath
} def
/P$1f {
3.7813 0 rlineto
0 -1.1094 rlineto
-3.7813 0 rlineto
0 1.1094 rlineto
closepath
} def
/P$16 {
0 -1 rlineto
-5.1875 0 rlineto
0 1 rlineto
5.1875 0 rlineto
closepath
} def
/P$1u {
0 -0.8125 rlineto
4.375 0 rlineto
0 0.8125 rlineto
-4.375 0 rlineto
} def
/P$1y {
0.9063 -0.2031 rlineto
0.5 1.7656 0.9219 3.5313 rquadto
-0.9219 0.2031 rlineto
-0.3906 -1.7031 -0.9063 -3.5313 rquadto
} def
/P$2v {
0.9531 0 rlineto
0 9.3906 rlineto
0 1.0469 -0.2344 1.3281 rquadto
-0.2813 0.2656 -1.1875 0.2656 rquadto
-0.6875 0 -1.6406 -0.0469 rquadto
-0.0313 -0.9219 rlineto
1.125 0.0781 1.5313 0.0781 rquadto
0.4375 0 0.5313 -0.1406 rquadto
0.0781 -0.1719 0.0781 -0.625 rquadto
0 -9.3281 rlineto
} def
/P$2l {
0.7656 -0.125 rlineto
0.1875 1.0781 0.3125 2.3125 rquadto
0.4219 -1.2813 0.5469 -2.6094 rquadto
-0.6875 0.1406 rlineto
-0.0625 -0.3125 -0.1406 -0.6094 rquadto
-1.1719 0.0781 rlineto
0 5.2031 rlineto
-0.9531 0 rlineto
0 -5.1406 rlineto
-1.6563 0.125 rlineto
-0.0469 -0.8438 rlineto
0.8906 -0.0313 rlineto
0.1094 -0.1406 rlineto
0.0938 -0.1563 0.1641 -0.2734 rquadto
0.0703 -0.1172 0.1641 -0.2578 rquadto
0.0938 -0.1406 rlineto
-0.5313 -0.9688 -1.4219 -2.5 rquadto
0.5469 -0.7656 rlineto
0.0156 0.0469 0.0469 0.1016 rquadto
0.0313 0.0547 0.0859 0.1328 rquadto
0.0547 0.0781 0.0938 0.1484 rquadto
0.0391 0.0703 0.0781 0.1328 rquadto
0.0391 0.0625 0.0781 0.1328 rquadto
0.0391 0.0703 0.0547 0.0703 rquadto
0.6094 -1.2031 1.0313 -2.2344 rquadto
0.8125 0.3438 rlineto
-0.6094 1.4219 -1.3594 2.75 rquadto
0.0156 0.0313 0.0859 0.1484 rquadto
0.0703 0.1172 0.1719 0.3047 rquadto
0.1016 0.1875 0.2266 0.4063 rquadto
0.7188 -1.2031 1.4531 -2.6719 rquadto
0.75 0.4063 rlineto
-1.0781 2.0938 -2.2031 3.8125 rquadto
1.6875 -0.0938 rlineto
-0.2188 -0.9063 -0.4531 -1.6563 rquadto
0.7813 -0.1875 rlineto
0.4219 1.3906 0.7031 2.8438 rquadto
0.0625 -0.5781 0.0625 -1.5313 rquadto
0 -2.8438 rlineto
6.3594 0 rlineto
0 2.8906 rlineto
-5.4063 0 rlineto
0 0.4375 -0.0156 0.7656 rquadto
5.6563 0 rlineto
0 4.6875 rlineto
0 0.6719 -0.1719 0.8281 rquadto
-0.1875 0.1563 -0.875 0.1563 rquadto
-0.1719 0 -0.8125 -0.0469 rquadto
0 -0.1719 rlineto
-0.7031 0 rlineto
0 -2.4531 rlineto
-0.8594 0 rlineto
0 2.4531 rlineto
-0.8281 0 rlineto
0 -2.4531 rlineto
-0.8438 0 rlineto
0 2.7031 rlineto
-0.8438 0 rlineto
0 -4.3125 rlineto
-0.2188 2.0625 -1.0313 4 rquadto
-0.7969 -0.3906 rlineto
0.2656 -0.5781 0.5313 -1.3594 rquadto
-0.7656 0.0781 rlineto
-0.1094 -1.3438 -0.2969 -2.3125 rquadto
} def
/P$l {
0 -0.8281 rlineto
7.0781 0 rlineto
0 0.8281 rlineto
-7.0781 0 rlineto
} def
/P$m {
6.5781 0 rlineto
0 -1 rlineto
-6.5781 0 rlineto
0 1 rlineto
closepath
} def
/P$25 {
0.1875 -0.9063 rlineto
2.4844 0.4063 4.3438 0.7813 rquadto
-0.1875 0.9063 rlineto
-1.9844 -0.4063 -4.3438 -0.7813 rquadto
} def
/P$e {
0.3125 -1.5313 rlineto
2.1875 0.3594 4.3281 0.8125 rquadto
-0.3125 1.5313 rlineto
-2.1406 -0.4531 -4.3281 -0.8125 rquadto
} def
/P$1p {
-1 0 rlineto
0 -4.3906 rlineto
-0.8281 0 rlineto
0 -4.6094 rlineto
5.2969 0 rlineto
0 0.7031 rlineto
-1.875 0 rlineto
0 0.5469 rlineto
1.4531 0 rlineto
0 1.6406 rlineto
-1.4531 0 rlineto
0 0.5313 rlineto
2 0 rlineto
0 0.6719 rlineto
-4.5 0 rlineto
0 0.4375 rlineto
8.7031 0 rlineto
0 4.4688 rlineto
-2.625 0 rlineto
0 0.9844 rlineto
0 0.2969 0.125 0.3281 rquadto
0.1875 0.0625 1.2969 0.0938 rquadto
0.8438 0 1.0469 -0.1094 rquadto
0.2344 -0.1719 0.3125 -0.9063 rquadto
0.0313 -0.2031 0.0469 -0.75 rquadto
0.9688 0.0938 rlineto
-0.1094 1.5313 -0.2969 1.875 rquadto
-0.2031 0.4531 -0.8906 0.5469 rquadto
-0.4063 0.0469 -1.2969 0.0313 rquadto
-1.6719 0 -2.0313 -0.1563 rquadto
-0.25 -0.2188 -0.2813 -0.7188 rquadto
0 -1.3125 rlineto
-1.6406 0 rlineto
-0.4375 1.5469 -2.9844 2.125 rquadto
-0.5625 0.125 -1.3594 0.1875 rquadto
-0.2813 -0.8594 rlineto
3.0781 -0.2656 3.5781 -1.4531 rquadto
-1.4844 0 rlineto
closepath
} def
/P$i {
1.5625 -0.7031 rlineto
1.3594 2.7656 2.6563 5.6719 rquadto
-1.6094 0.6563 rlineto
-0.0938 -0.1719 -0.2734 -0.6016 rquadto
-0.1797 -0.4297 -0.2578 -0.6172 rquadto
-4.9531 0.7188 -9.0781 0.8594 rquadto
-0.0469 -1.5313 rlineto
1.1406 -0.0469 1.2813 -0.0625 rquadto
1.4375 -3.9063 2.4844 -8.2969 rquadto
1.75 0.2969 rlineto
-0.9219 4.1094 -2.3125 7.875 rquadto
2.5469 -0.2188 5.25 -0.6094 rquadto
-0.9063 -1.9063 -1.4063 -2.9375 rquadto
closepath
} def
/P$2k {
0.4219 -1.8438 0.5156 -3.5625 rquadto
0.7969 0.0781 rlineto
-0.0938 1.7344 -0.5313 3.6563 rquadto
-0.7813 -0.1719 rlineto
closepath
} def
/P$n {
-1.0156 0 rlineto
0 -2.5469 rlineto
8.5938 0 rlineto
0 2.5469 rlineto
-7.5781 0 rlineto
closepath
} def
/P$2z {
0 -0.9219 -0.5 -1.7188 rquadto
-0.2188 -0.3438 -0.6719 -0.8906 rquadto
0.9375 -1.5781 1.5 -3.2031 rquadto
-1.8906 0 rlineto
0 10.1563 rlineto
-0.9375 0 rlineto
0 -10.9531 rlineto
3.75 0 rlineto
0 0.7969 rlineto
-0.5938 1.6875 -1.4688 3.1406 rquadto
0.9375 1.1719 1.0781 2.2969 rquadto
0.0313 0.375 0.0313 0.5469 rquadto
0 1.3906 -1.0625 1.6563 rquadto
-0.3281 0.0781 -0.625 0.0625 rquadto
-0.3438 0 rlineto
-0.1406 -0.8125 rlineto
0.3281 0 rlineto
0.6875 0 0.8594 -0.4219 rquadto
0.0938 -0.2188 0.0938 -0.6563 rquadto
closepath
} def
/P$1n {
3 0 rlineto
0 -0.5313 rlineto
-3 0 rlineto
0 0.5313 rlineto
closepath
} def
/P$q {
0 0.9531 rlineto
7.5625 0 rlineto
0 -0.9531 rlineto
-7.5625 0 rlineto
closepath
} def
/P$3 {
0.3281 0 0.4531 -0.3906 rquadto
0.2031 -0.5938 0.2656 -3 rquadto
-4.7188 0 rlineto
-0.2813 0.2656 rlineto
0.7813 0 rlineto
0 0.6563 rlineto
1.5 -0.2031 3.0938 -0.7813 rquadto
0.5 1.0469 rlineto
-0.7656 0.2813 -1.3594 0.4375 rquadto
1.2188 0.1719 rlineto
-0.0156 1.2188 -0.2188 1.5938 rquadto
0.2656 0 rlineto
closepath
} def
/P$2t {
-0.5 1.2656 -1.1875 2.6094 rquadto
-0.7969 -0.3438 rlineto
0.6719 -1.3125 1.1406 -2.5469 rquadto
0.8438 0.2813 rlineto
} def
/P$2c {
0 2.7188 rlineto
-3.125 0 rlineto
0 0.5469 rlineto
-0.8438 0 rlineto
0 -3.2656 rlineto
3.9688 0 rlineto
closepath
} def
/P$2e {
4.4688 0 rlineto
0 -1.375 rlineto
-4.4688 0 rlineto
0 1.375 rlineto
closepath
} def
/P$2i {
0.5 0.0313 0.5781 0.0313 rquadto
0.25 0 0.2813 -0.0938 rquadto
0.0156 -0.0313 0.0156 -0.2031 rquadto
0 -1.5625 rlineto
-0.875 0 rlineto
0 1.8281 rlineto
closepath
} def
/P$1q {
0 0.6563 rlineto
6.7969 0 rlineto
0 -0.6563 rlineto
-6.7969 0 rlineto
closepath
} def
/P$2x {
1.4063 -1.3594 2.1719 -3.25 rquadto
0.7969 0.3281 rlineto
-0.7656 2.0156 -2.3125 3.4844 rquadto
-0.6563 -0.5625 rlineto
closepath
} def
/P$2h {
0.875 0 rlineto
0 -1.4531 rlineto
-0.875 0 rlineto
0 1.4531 rlineto
closepath
} def
/P$26 {
-1.5156 0.25 -3.2031 0.25 rquadto
-3.3594 0 -4.125 -1.1875 rquadto
-0.2813 -0.4531 -0.2813 -1.0625 rquadto
0 -2.0156 3.8125 -3.0938 rquadto
0.0156 -0.0156 rlineto
0.0156 0 rlineto
-0.2813 -0.9219 -0.9531 -1.0156 rquadto
-0.2031 -0.0313 -0.3125 -0.0156 rquadto
-1.2344 0 -2.7813 1.75 rquadto
-0.3906 0.4375 -0.8906 1.1094 rquadto
-0.7656 -0.5 rlineto
1.5625 -2.1875 2.5625 -4.4063 rquadto
-2.5 0 rlineto
0 -0.8125 rlineto
2.8281 0 rlineto
0.3438 -0.8438 0.5781 -1.5469 rquadto
0.9219 0.2031 rlineto
-0.2813 0.8125 -0.5156 1.3438 rquadto
5.5313 0 rlineto
0 0.8125 rlineto
-5.8594 0 rlineto
-0.4688 1.0469 -0.9375 1.9688 rquadto
0.0156 0.0156 rlineto
1.0938 -0.7656 1.9844 -0.7656 rquadto
1.375 0 1.8906 1.3125 rquadto
0.0781 0.2188 0.1094 0.3281 rquadto
1.3125 -0.2969 2.9063 -0.5156 rquadto
0.1094 0.8438 rlineto
-1.7969 0.2344 -2.8281 0.4844 rquadto
0.1563 0.9688 0.1563 2.4844 rquadto
-0.9688 0 rlineto
0 -1.375 -0.125 -2.25 rquadto
-2.9844 0.8906 -3.0313 2.2188 rquadto
0 0.7969 0.7813 1.1406 rquadto
0.8281 0.3438 2.6563 0.3438 rquadto
1.3594 0 3.1094 -0.2813 rquadto
0.0938 0.8594 rlineto
closepath
} def
/P$2g {
0 -1.4531 rlineto
-0.8594 0 rlineto
0 1.4531 rlineto
0.8594 0 rlineto
closepath
} def
/P$15 {
5.1875 0 rlineto
0 -1.0469 rlineto
-5.1875 0 rlineto
0 1.0469 rlineto
closepath
} def
/P$7 {
-0.7031 2.2656 -2.0625 4.25 rquadto
-1.4375 -0.7188 rlineto
1.25 -1.9063 1.9531 -4.0469 rquadto
1.5469 0.5156 rlineto
closepath
} def
/P$0 {
0 0.1406 rlineto
0 0.3438 0.0938 0.4063 rquadto
0.1719 0.0625 0.8984 0.0625 rquadto
0.7266 0 0.8672 -0.1094 rquadto
0.1719 -0.1094 0.1875 -0.7656 rquadto
0 -0.125 rlineto
-1.0938 0.2656 -2.0469 0.3906 rquadto
closepath
} def
/P$1i {
-3.1094 0 rlineto
0 1.1719 rlineto
3.1094 0 rlineto
0 -1.1719 rlineto
closepath
} def
/P$t {
0.5313 -0.7031 1 -1.5781 rquadto
-3.8281 0 rlineto
0.3281 0.6719 0.6719 1.5781 rquadto
2.1563 0 rlineto
closepath
} def
/P$1x {
0.8906 -0.2031 rlineto
0.3906 1.2969 0.9219 3.3906 rquadto
-0.9063 0.2031 rlineto
-0.4375 -1.8281 -0.9063 -3.3906 rquadto
closepath
} def
/P$2o {
0.2813 -0.6094 0.5 -1.1719 rquadto
0.9531 0.1406 rlineto
-0.25 0.6563 -0.4219 1.0313 rquadto
4 0 rlineto
0 0.7969 rlineto
-4.1563 0 rlineto
0 0.8906 rlineto
3.7813 0 rlineto
0 0.7188 rlineto
-3.7813 0 rlineto
0 0.8906 rlineto
3.7813 0 rlineto
0 0.7188 rlineto
-3.7813 0 rlineto
0 0.9063 rlineto
4.1563 0 rlineto
0 0.7344 rlineto
-4.3906 0 rlineto
0 0.7656 rlineto
4.9844 0 rlineto
0 0.7969 rlineto
-4.5 0 rlineto
1.7344 1 4.8125 1.9063 rquadto
-0.2813 0.875 rlineto
-3.2031 -1.0469 -5.0156 -2.25 rquadto
0 2.625 rlineto
-1.0156 0 rlineto
0 -2.625 rlineto
-1.8125 1.2031 -5.0313 2.25 rquadto
-0.2813 -0.875 rlineto
3.1094 -0.9063 4.8281 -1.9063 rquadto
-4.6406 0 rlineto
0 -0.7969 rlineto
5.125 0 rlineto
0 -0.7656 rlineto
-4.0469 0 rlineto
0 -3.7188 rlineto
-0.4531 0.6875 -0.8594 1.2031 rquadto
-0.5469 -0.9063 rlineto
1.3906 -1.6406 2.0313 -3.4063 rquadto
0.9219 0.1719 rlineto
-0.125 0.3594 -0.3906 1 rquadto
3.2656 0 rlineto
} def
1 1 1 setrgbcolor
172 309 92 24 simplerect
closepath eofill
2.0 setlinewidth
0 0 0 setrgbcolor
172 309 92 24 simplerect
closepath stroke
0 setlinewidth
[] 0 setdash
0 0 0 setrgbcolor
newpath
135.7656 36.1211 moveto
P$0
135.4375 30.418 moveto
P$1
135.4375 29.418 moveto
P$2
139.2656 37.4336 moveto
P$3
131.1406 38.793 moveto
P$4
fill
0 setlinewidth
[] 0 setdash
0 0 0 setrgbcolor
newpath
145.0156 29.1367 moveto
P$5
155.3906 30.7617 moveto
P$6
147.3438 33.4648 moveto
P$7
154.0469 37.7773 moveto
P$8
fill
0 setlinewidth
[] 0 setdash
0 0 0 setrgbcolor
newpath
163.9219 33.043 moveto
P$9
163.9219 31.8242 moveto
P$a
157.8281 29.4336 moveto
P$b
fill
0 setlinewidth
[] 0 setdash
0 0 0 setrgbcolor
newpath
173.2344 36.5742 moveto
P$c
172.7188 32.4961 moveto
P$d
173.3125 29.4023 moveto
P$e
fill
0 setlinewidth
[] 0 setdash
0 0 0 setrgbcolor
newpath
187.625 29.918 moveto
P$f
fill
0 setlinewidth
[] 0 setdash
0 0 0 setrgbcolor
newpath
201.7031 29.7461 moveto
P$g
200.2188 31.668 moveto
P$h
fill
0 setlinewidth
[] 0 setdash
0 0 0 setrgbcolor
newpath
221.2188 32.543 moveto
P$i
fill
gsave
1 0.2408 scale
1 1 1 setrgbcolor
newpath
177.795 295.4865 58.795 0 360 arc
closepath eofill
1.5 setlinewidth
0 0 0 setrgbcolor
newpath
177.795 295.4865 58.795 0 360 arc
closepath stroke
grestore
0 setlinewidth
[] 0 setdash
0 0 0 setrgbcolor
newpath
144.9043 72.4112 moveto
P$j
143.1231 64.6612 moveto
P$k
138.9512 69.1456 moveto
P$l
fill
0 setlinewidth
[] 0 setdash
0 0 0 setrgbcolor
newpath
153.2012 66.8643 moveto
P$m
153.2012 67.5675 moveto
P$n
152.7012 73.9112 moveto
P$o
152.7012 72.2393 moveto
P$p
152.7012 70.5831 moveto
P$q
152.7012 69.8956 moveto
P$r
fill
0 setlinewidth
[] 0 setdash
0 0 0 setrgbcolor
newpath
167.5293 72.6456 moveto
P$s
171.4043 74.9581 moveto
P$t
170.4825 65.9893 moveto
P$u
164.8887 75.8018 moveto
P$v
166.2481 65.8175 moveto
P$w
fill
0 setlinewidth
[] 0 setdash
0 0 0 setrgbcolor
newpath
178.9981 71.3018 moveto
P$x
182.1543 73.1768 moveto
P$y
189.4356 65.0987 moveto
P$z
183.5606 70.755 moveto
P$10
fill
0 setlinewidth
[] 0 setdash
0 0 0 setrgbcolor
newpath
193.045 66.3018 moveto
P$11
196.295 70.3331 moveto
P$12
fill
0 setlinewidth
[] 0 setdash
0 0 0 setrgbcolor
newpath
214.0762 74.5518 moveto
P$13
213.1075 74.6925 moveto
P$14
fill
gsave
1 0.2343 scale
1 1 1 setrgbcolor
newpath
177.9707 584.2685 69.9707 0 360 arc
closepath eofill
1.5 setlinewidth
0 0 0 setrgbcolor
newpath
177.9707 584.2685 69.9707 0 360 arc
closepath stroke
grestore
0 setlinewidth
[] 0 setdash
0 0 0 setrgbcolor
newpath
127.7989 134.3026 moveto
P$15
132.9864 132.5057 moveto
P$16
132.4551 140.8339 moveto
P$17
126.4395 132.7401 moveto
P$18
fill
0 setlinewidth
[] 0 setdash
0 0 0 setrgbcolor
newpath
138.1739 131.787 moveto
P$19
148.1739 134.0214 moveto
P$1a
137.0176 140.0995 moveto
P$1b
147.4551 140.6307 moveto
P$1c
fill
0 setlinewidth
[] 0 setdash
0 0 0 setrgbcolor
newpath
150.8614 132.7401 moveto
P$1d
fill
0 setlinewidth
[] 0 setdash
0 0 0 setrgbcolor
newpath
174.9239 140.9901 moveto
P$1e
fill
0 setlinewidth
[] 0 setdash
0 0 0 setrgbcolor
newpath
182.7676 138.2401 moveto
P$1f
180.2207 132.6307 moveto
P$1g
180.2207 135.1932 moveto
P$1h
189.0957 133.3026 moveto
P$1i
189.0957 132.6307 moveto
P$1j
183.2207 134.4745 moveto
P$1k
188.5489 141.6307 moveto
P$1l
fill
0 setlinewidth
[] 0 setdash
0 0 0 setrgbcolor
newpath
194.3926 131.8807 moveto
P$1m
194.3926 132.9589 moveto
P$1n
195.9395 134.0526 moveto
P$1o
195.2676 139.6307 moveto
P$1p
195.2676 138.2714 moveto
P$1q
195.2676 137.0682 moveto
P$1r
195.2676 136.5057 moveto
P$1s
198.4551 132.8651 moveto
P$1t
199.5332 133.9901 moveto
P$1u
fill
0 setlinewidth
[] 0 setdash
0 0 0 setrgbcolor
newpath
207.2207 132.037 moveto
P$11
210.4707 136.0682 moveto
P$12
fill
0 setlinewidth
[] 0 setdash
0 0 0 setrgbcolor
newpath
228.252 140.287 moveto
P$13
227.2832 140.4276 moveto
P$14
fill
gsave
1 0.3832 scale
1 1 1 setrgbcolor
newpath
177.9259 550.3448 58.4259 0 360 arc
closepath eofill
1.5 setlinewidth
0 0 0 setrgbcolor
newpath
177.9259 550.3448 58.4259 0 360 arc
closepath stroke
grestore
0 setlinewidth
[] 0 setdash
0 0 0 setrgbcolor
newpath
138.9571 202.3821 moveto
P$1v
fill
0 setlinewidth
[] 0 setdash
0 0 0 setrgbcolor
newpath
160.6603 202.1946 moveto
P$1w
152.5665 202.6789 moveto
P$1x
155.3634 202.3039 moveto
P$1y
fill
0 setlinewidth
[] 0 setdash
0 0 0 setrgbcolor
newpath
175.6759 209.2727 moveto
P$1z
fill
0 setlinewidth
[] 0 setdash
0 0 0 setrgbcolor
newpath
180.6915 205.2102 moveto
P$20
fill
0 setlinewidth
[] 0 setdash
0 0 0 setrgbcolor
newpath
194.2853 209.0071 moveto
P$21
201.0196 199.3196 moveto
P$22
202.754 199.1321 moveto
P$23
193.754 204.0539 moveto
P$24
194.3009 200.9133 moveto
P$25
fill
0 setlinewidth
[] 0 setdash
0 0 0 setrgbcolor
newpath
216.879 209.6789 moveto
P$26
fill
0 setlinewidth
[] 0 setdash
0 0 0 setrgbcolor
newpath
156.9728 215.0271 moveto
P$27
155.379 220.6834 moveto
P$28
fill
0 setlinewidth
[] 0 setdash
0 0 0 setrgbcolor
newpath
171.2696 223.0584 moveto
P$29
170.6134 218.1052 moveto
P$2a
170.6134 218.8396 moveto
P$2b
174.3946 221.0896 moveto
P$2c
168.879 217.1209 moveto
P$2d
fill
0 setlinewidth
[] 0 setdash
0 0 0 setrgbcolor
newpath
179.1759 215.4177 moveto
P$11
182.4259 219.449 moveto
P$12
fill
0 setlinewidth
[] 0 setdash
0 0 0 setrgbcolor
newpath
200.2071 223.6677 moveto
P$13
199.2384 223.8084 moveto
P$14
fill
gsave
1 0.3811 scale
1 1 1 setrgbcolor
newpath
177.897 768.3068 62.397 0 360 arc
closepath eofill
1.5 setlinewidth
0 0 0 setrgbcolor
newpath
177.897 768.3068 62.397 0 360 arc
closepath stroke
grestore
0 setlinewidth
[] 0 setdash
0 0 0 setrgbcolor
newpath
138.9282 282.2306 moveto
P$1v
fill
0 setlinewidth
[] 0 setdash
0 0 0 setrgbcolor
newpath
160.6313 282.0431 moveto
P$1w
152.5376 282.5275 moveto
P$1x
155.3345 282.1525 moveto
P$1y
fill
0 setlinewidth
[] 0 setdash
0 0 0 setrgbcolor
newpath
175.647 289.1213 moveto
P$1z
fill
0 setlinewidth
[] 0 setdash
0 0 0 setrgbcolor
newpath
180.6626 285.0588 moveto
P$20
fill
0 setlinewidth
[] 0 setdash
0 0 0 setrgbcolor
newpath
194.2563 288.8556 moveto
P$21
200.9907 279.1681 moveto
P$22
202.7251 278.9806 moveto
P$23
193.7251 283.9025 moveto
P$24
194.272 280.7619 moveto
P$25
fill
0 setlinewidth
[] 0 setdash
0 0 0 setrgbcolor
newpath
216.8501 289.5275 moveto
P$26
fill
0 setlinewidth
[] 0 setdash
0 0 0 setrgbcolor
newpath
142.397 297.7663 moveto
P$2e
143.7876 301.5163 moveto
P$2f
145.4751 301.5163 moveto
P$2g
146.2407 301.5163 moveto
P$2h
146.2407 304.1101 moveto
P$2i
140.9595 294.8913 moveto
P$2j
136.6938 304.2351 moveto
P$2k
139.7407 300.6882 moveto
P$2l
fill
0 setlinewidth
[] 0 setdash
0 0 0 setrgbcolor
newpath
156.3032 296.3913 moveto
P$2m
156.3032 298.0007 moveto
P$2m
156.3032 298.7194 moveto
P$2n
156.4595 294.7038 moveto
P$2o
fill
0 setlinewidth
[] 0 setdash
0 0 0 setrgbcolor
newpath
166.3188 300.1413 moveto
P$2p
166.3188 299.3601 moveto
P$2q
165.3657 304.8913 moveto
P$2r
165.8345 294.0007 moveto
P$2s
171.5063 294.2663 moveto
P$2t
fill
0 setlinewidth
[] 0 setdash
0 0 0 setrgbcolor
newpath
172.3657 302.4069 moveto
P$2u
174.9438 293.9069 moveto
P$2v
fill
0 setlinewidth
[] 0 setdash
0 0 0 setrgbcolor
newpath
184.022 296.5788 moveto
P$2w
181.772 303.8913 moveto
P$2x
187.6313 301.0788 moveto
P$2y
181.6938 300.6413 moveto
P$2z
190.2095 299.0944 moveto
P$30
fill
0 setlinewidth
[] 0 setdash
0 0 0 setrgbcolor
newpath
193.147 295.2663 moveto
P$11
196.397 299.2976 moveto
P$12
fill
0 setlinewidth
[] 0 setdash
0 0 0 setrgbcolor
newpath
214.1782 303.5163 moveto
P$13
213.2095 303.6569 moveto
P$14
fill
1 1 1 setrgbcolor
newpath
27 69 8 0 360 arc
closepath eofill
2.0 setlinewidth
0 0 0 setrgbcolor
newpath
27 69 8 0 360 arc
closepath stroke
1 1 1 setrgbcolor
newpath
27 77 moveto
27 104 lineto
14 85 moveto
40 85 lineto
27 104 moveto
14 119 lineto
27 104 moveto
40 119 lineto
closepath eofill
2.0 setlinewidth
0 0 0 setrgbcolor
newpath
27 77 moveto
27 104 lineto
14 85 moveto
40 85 lineto
27 104 moveto
14 119 lineto
27 104 moveto
40 119 lineto
stroke
0 setlinewidth
[] 0 setdash
0 0 0 setrgbcolor
newpath
7.2969 128.793 moveto
P$31
fill
0 setlinewidth
[] 0 setdash
0 0 0 setrgbcolor
newpath
18.4375 131.0117 moveto
P$32
fill
0 setlinewidth
[] 0 setdash
0 0 0 setrgbcolor
newpath
29.1094 131.0898 moveto
P$j
27.3281 123.3398 moveto
P$k
23.1563 127.8242 moveto
P$l
fill
0 setlinewidth
[] 0 setdash
0 0 0 setrgbcolor
newpath
37.4063 125.543 moveto
P$m
37.4063 126.2461 moveto
P$n
36.9063 132.5898 moveto
P$o
36.9063 130.918 moveto
P$p
36.9063 129.2617 moveto
P$q
36.9063 128.5742 moveto
P$33
fill
1 1 1 setrgbcolor
newpath
27 182 8 0 360 arc
closepath eofill
2.0 setlinewidth
0 0 0 setrgbcolor
newpath
27 182 8 0 360 arc
closepath stroke
1 1 1 setrgbcolor
newpath
27 190 moveto
27 217 lineto
14 198 moveto
40 198 lineto
27 217 moveto
14 232 lineto
27 217 moveto
40 232 lineto
closepath eofill
2.0 setlinewidth
0 0 0 setrgbcolor
newpath
27 190 moveto
27 217 lineto
14 198 moveto
40 198 lineto
27 217 moveto
14 232 lineto
27 217 moveto
40 232 lineto
stroke
0 setlinewidth
[] 0 setdash
0 0 0 setrgbcolor
newpath
22.1094 244.0898 moveto
P$j
20.3281 236.3398 moveto
P$k
16.1563 240.8242 moveto
P$l
fill
0 setlinewidth
[] 0 setdash
0 0 0 setrgbcolor
newpath
30.4063 238.543 moveto
P$m
30.4063 239.2461 moveto
P$n
29.9063 245.5898 moveto
P$o
29.9063 243.918 moveto
P$p
29.9063 242.2617 moveto
P$q
29.9063 241.5742 moveto
P$33
fill
1.0 setlinewidth
0 0 0 setrgbcolor
newpath
48.0948 94.359 moveto
69.145 90.544 102.937 84.421 130.642 79.4 curveto
stroke
1.0 setlinewidth
0 0 0 setrgbcolor
newpath
48.0948 103.26 moveto
69.0656 108.749 102.6822 117.548 130.328 124.784 curveto
stroke
1.0 setlinewidth
0 0 0 setrgbcolor
newpath
42.0392 199.34 moveto
52.9659 190.68 68.7825 179.027 84 171 curveto
99.8137 162.659 118.127 155.484 134.3 149.904 curveto
stroke
1.0 setlinewidth
0 0 0 setrgbcolor
newpath
42.0176 211 moveto
59.694 211 91.1787 211 119.296 211 curveto
stroke
1.0 setlinewidth
0 0 0 setrgbcolor
newpath
42.2149 222.342 moveto
53.2337 230.835 69.0885 242.418 84 251 curveto
99.8153 260.102 117.959 268.6787 133.998 275.6794 curveto
stroke
grestore
showpage
%plantuml done
%%EOF
