@startuml
left to right direction

actor 非会員 as user
actor 会員 as member
member -[hidden]l- user

rectangle "掲示板システム" {
    user -- (会員登録する)
    user -- (掲示板を閲覧する)
    member -- (掲示板を閲覧する)
    member -- (メッセージを\n投稿する)
    member -- (メッセージを\n編集削除する)
}
@enduml